<?xml version="1.0" encoding="UTF-8" standalone="no"?>
<!-- Created with Inkscape (http://www.inkscape.org/) -->

<svg
   xmlns:dc="http://purl.org/dc/elements/1.1/"
   xmlns:cc="http://creativecommons.org/ns#"
   xmlns:rdf="http://www.w3.org/1999/02/22-rdf-syntax-ns#"
   xmlns:svg="http://www.w3.org/2000/svg"
   xmlns="http://www.w3.org/2000/svg"
   xmlns:sodipodi="http://sodipodi.sourceforge.net/DTD/sodipodi-0.dtd"
   xmlns:inkscape="http://www.inkscape.org/namespaces/inkscape"
   width="960"
   height="540"
   id="svg3023"
   version="1.1"
   inkscape:version="0.48.5 r10040"
   sodipodi:docname="muster.svg">
  <defs
     id="defs3025" />
  <sodipodi:namedview
     id="base"
     pagecolor="#ffffff"
     bordercolor="#666666"
     borderopacity="1.0"
     inkscape:pageopacity="0.0"
     inkscape:pageshadow="2"
     inkscape:zoom="0.76966292"
     inkscape:cx="469.92853"
     inkscape:cy="246.62978"
     inkscape:document-units="px"
     inkscape:current-layer="layer1"
     showgrid="false"
     inkscape:window-width="1024"
     inkscape:window-height="724"
     inkscape:window-x="2"
     inkscape:window-y="4"
     inkscape:window-maximized="0" />
  <metadata
     id="metadata3028">
    <rdf:RDF>
      <cc:Work
         rdf:about="">
        <dc:format>image/svg+xml</dc:format>
        <dc:type
           rdf:resource="http://purl.org/dc/dcmitype/StillImage" />
        <dc:title></dc:title>
      </cc:Work>
    </rdf:RDF>
  </metadata>
  <g
     inkscape:label="Ebene 1"
     inkscape:groupmode="layer"
     id="layer1"
     transform="translate(0,-512.36218)">
    <rect
       style="fill:#000000;fill-opacity:1;fill-rule:evenodd;stroke:none"
       id="rect10516"
       width="960"
       height="540"
       x="0"
       y="512.36218" />
    <g
       transform="translate(0,-462.5)"
       id="layer1-4"
       inkscape:label="Ebene 1">
      <rect
         y="975.36218"
         x="0"
         height="77"
         width="80"
         id="rect3850-9"
         style="fill:#000000;fill-rule:evenodd;stroke:none" />
      <text
         sodipodi:linespacing="125%"
         id="text3019-1"
         y="1034.9762"
         x="18.57267"
         style="font-size:71.29678345px;font-style:normal;font-variant:normal;font-weight:bold;font-stretch:normal;text-align:start;line-height:125%;letter-spacing:0px;word-spacing:0px;writing-mode:lr-tb;text-anchor:start;fill:#ff0000;fill-opacity:1;stroke:none;font-family:Courier New;-inkscape-font-specification:Courier New Bold"
         xml:space="preserve"><tspan
           y="1034.9762"
           x="18.57267"
           id="tspan3021-2"
           sodipodi:role="line">O</tspan></text>
    </g>
    <g
       transform="translate(720,-154.5)"
       id="layer1-7"
       inkscape:label="Ebene 1">
      <rect
         y="975.36218"
         x="0"
         height="77"
         width="80"
         id="rect3850-91"
         style="fill:#000000;fill-rule:evenodd;stroke:none" />
      <text
         sodipodi:linespacing="125%"
         id="text3019-10"
         y="1034.9762"
         x="18.57267"
         style="font-size:71.29678345px;font-style:normal;font-variant:normal;font-weight:bold;font-stretch:normal;text-align:start;line-height:125%;letter-spacing:0px;word-spacing:0px;writing-mode:lr-tb;text-anchor:start;fill:#ff0000;fill-opacity:1;stroke:none;font-family:Courier New;-inkscape-font-specification:Courier New Bold"
         xml:space="preserve"><tspan
           y="1034.9762"
           x="18.57267"
           id="tspan3021-4"
           sodipodi:role="line">O</tspan></text>
    </g>
    <g
       transform="translate(80,-308.5)"
       id="layer1-3"
       inkscape:label="Ebene 1">
      <rect
         y="975.36218"
         x="0"
         height="77"
         width="80"
         id="rect3850-8"
         style="fill:#000000;fill-rule:evenodd;stroke:none" />
      <text
         sodipodi:linespacing="125%"
         id="text3019-16"
         y="1034.9762"
         x="18.57267"
         style="font-size:71.29678345px;font-style:normal;font-variant:normal;font-weight:bold;font-stretch:normal;text-align:start;line-height:125%;letter-spacing:0px;word-spacing:0px;writing-mode:lr-tb;text-anchor:start;fill:#ff0000;fill-opacity:1;stroke:none;font-family:Courier New;-inkscape-font-specification:Courier New Bold"
         xml:space="preserve"><tspan
           y="1034.9762"
           x="18.57267"
           id="tspan3021-28"
           sodipodi:role="line">O</tspan></text>
    </g>
    <g
       transform="translate(0,-308.5)"
       id="layer1-5"
       inkscape:label="Ebene 1">
      <rect
         y="975.36218"
         x="0"
         height="77"
         width="80"
         id="rect3850-6"
         style="fill:#000000;fill-rule:evenodd;stroke:none" />
      <text
         sodipodi:linespacing="125%"
         id="text3019-2"
         y="1034.9762"
         x="18.57267"
         style="font-size:71.29678345px;font-style:normal;font-variant:normal;font-weight:bold;font-stretch:normal;text-align:start;line-height:125%;letter-spacing:0px;word-spacing:0px;writing-mode:lr-tb;text-anchor:start;fill:#ff0000;fill-opacity:1;stroke:none;font-family:Courier New;-inkscape-font-specification:Courier New Bold"
         xml:space="preserve"><tspan
           y="1034.9762"
           x="18.57267"
           id="tspan3021-0"
           sodipodi:role="line">O</tspan></text>
    </g>
    <g
       transform="translate(800,-385.5)"
       id="layer1-99"
       inkscape:label="Ebene 1">
      <rect
         y="975.36218"
         x="0"
         height="77"
         width="80"
         id="rect3850-4"
         style="fill:#000000;fill-rule:evenodd;stroke:none" />
      <text
         sodipodi:linespacing="125%"
         id="text3019-4"
         y="1034.9762"
         x="18.57267"
         style="font-size:71.29678345px;font-style:normal;font-variant:normal;font-weight:bold;font-stretch:normal;text-align:start;line-height:125%;letter-spacing:0px;word-spacing:0px;writing-mode:lr-tb;text-anchor:start;fill:#ff0000;fill-opacity:1;stroke:none;font-family:Courier New;-inkscape-font-specification:Courier New Bold"
         xml:space="preserve"><tspan
           y="1034.9762"
           x="18.57267"
           id="tspan3021-29"
           sodipodi:role="line">O</tspan></text>
    </g>
    <g
       transform="translate(720,-385.5)"
       id="layer1-76"
       inkscape:label="Ebene 1">
      <rect
         y="975.36218"
         x="0"
         height="77"
         width="80"
         id="rect3850-2"
         style="fill:#000000;fill-rule:evenodd;stroke:none" />
      <text
         sodipodi:linespacing="125%"
         id="text3019-17"
         y="1034.9762"
         x="18.57267"
         style="font-size:71.29678345px;font-style:normal;font-variant:normal;font-weight:bold;font-stretch:normal;text-align:start;line-height:125%;letter-spacing:0px;word-spacing:0px;writing-mode:lr-tb;text-anchor:start;fill:#ff0000;fill-opacity:1;stroke:none;font-family:Courier New;-inkscape-font-specification:Courier New Bold"
         xml:space="preserve"><tspan
           y="1034.9762"
           x="18.57267"
           id="tspan3021-8"
           sodipodi:role="line">O</tspan></text>
    </g>
    <g
       transform="translate(640,-385.5)"
       id="layer1-49"
       inkscape:label="Ebene 1">
      <rect
         y="975.36218"
         x="0"
         height="77"
         width="80"
         id="rect3850-48"
         style="fill:#000000;fill-rule:evenodd;stroke:none" />
      <text
         sodipodi:linespacing="125%"
         id="text3019-101"
         y="1034.9762"
         x="18.57267"
         style="font-size:71.29678345px;font-style:normal;font-variant:normal;font-weight:bold;font-stretch:normal;text-align:start;line-height:125%;letter-spacing:0px;word-spacing:0px;writing-mode:lr-tb;text-anchor:start;fill:#ff0000;fill-opacity:1;stroke:none;font-family:Courier New;-inkscape-font-specification:Courier New Bold"
         xml:space="preserve"><tspan
           y="1034.9762"
           x="18.57267"
           id="tspan3021-09"
           sodipodi:role="line">O</tspan></text>
    </g>
    <g
       transform="translate(240,-385.5)"
       id="layer1-0"
       inkscape:label="Ebene 1">
      <rect
         y="975.36218"
         x="0"
         height="77"
         width="80"
         id="rect3850-15"
         style="fill:#000000;fill-rule:evenodd;stroke:none" />
      <text
         sodipodi:linespacing="125%"
         id="text3019-12"
         y="1034.9762"
         x="18.57267"
         style="font-size:71.29678345px;font-style:normal;font-variant:normal;font-weight:bold;font-stretch:normal;text-align:start;line-height:125%;letter-spacing:0px;word-spacing:0px;writing-mode:lr-tb;text-anchor:start;fill:#ff0000;fill-opacity:1;stroke:none;font-family:Courier New;-inkscape-font-specification:Courier New Bold"
         xml:space="preserve"><tspan
           y="1034.9762"
           x="18.57267"
           id="tspan3021-1"
           sodipodi:role="line">O</tspan></text>
    </g>
    <g
       transform="translate(800,-462.5)"
       id="layer1-1"
       inkscape:label="Ebene 1">
      <rect
         y="975.36218"
         x="0"
         height="77"
         width="80"
         id="rect3850-85"
         style="fill:#000000;fill-rule:evenodd;stroke:none" />
      <text
         sodipodi:linespacing="125%"
         id="text3019-124"
         y="1034.9762"
         x="18.57267"
         style="font-size:71.29678345px;font-style:normal;font-variant:normal;font-weight:bold;font-stretch:normal;text-align:start;line-height:125%;letter-spacing:0px;word-spacing:0px;writing-mode:lr-tb;text-anchor:start;fill:#ff0000;fill-opacity:1;stroke:none;font-family:Courier New;-inkscape-font-specification:Courier New Bold"
         xml:space="preserve"><tspan
           y="1034.9762"
           x="18.57267"
           id="tspan3021-51"
           sodipodi:role="line">O</tspan></text>
    </g>
    <g
       transform="translate(720,-462.5)"
       id="layer1-51"
       inkscape:label="Ebene 1">
      <rect
         y="975.36218"
         x="0"
         height="77"
         width="80"
         id="rect3850-5"
         style="fill:#000000;fill-rule:evenodd;stroke:none" />
      <text
         sodipodi:linespacing="125%"
         id="text3019-5"
         y="1034.9762"
         x="18.57267"
         style="font-size:71.29678345px;font-style:normal;font-variant:normal;font-weight:bold;font-stretch:normal;text-align:start;line-height:125%;letter-spacing:0px;word-spacing:0px;writing-mode:lr-tb;text-anchor:start;fill:#ff0000;fill-opacity:1;stroke:none;font-family:Courier New;-inkscape-font-specification:Courier New Bold"
         xml:space="preserve"><tspan
           y="1034.9762"
           x="18.57267"
           id="tspan3021-7"
           sodipodi:role="line">O</tspan></text>
    </g>
    <g
       transform="translate(640,-462.5)"
       id="layer1-82"
       inkscape:label="Ebene 1">
      <rect
         y="975.36218"
         x="0"
         height="77"
         width="80"
         id="rect3850-83"
         style="fill:#000000;fill-rule:evenodd;stroke:none" />
      <text
         sodipodi:linespacing="125%"
         id="text3019-0"
         y="1034.9762"
         x="18.57267"
         style="font-size:71.29678345px;font-style:normal;font-variant:normal;font-weight:bold;font-stretch:normal;text-align:start;line-height:125%;letter-spacing:0px;word-spacing:0px;writing-mode:lr-tb;text-anchor:start;fill:#ff0000;fill-opacity:1;stroke:none;font-family:Courier New;-inkscape-font-specification:Courier New Bold"
         xml:space="preserve"><tspan
           y="1034.9762"
           x="18.57267"
           id="tspan3021-23"
           sodipodi:role="line">O</tspan></text>
    </g>
    <g
       transform="translate(240,-462.5)"
       id="layer1-50"
       inkscape:label="Ebene 1">
      <rect
         y="975.36218"
         x="0"
         height="77"
         width="80"
         id="rect3850-61"
         style="fill:#000000;fill-rule:evenodd;stroke:none" />
      <text
         sodipodi:linespacing="125%"
         id="text3019-78"
         y="1034.9762"
         x="18.57267"
         style="font-size:71.29678345px;font-style:normal;font-variant:normal;font-weight:bold;font-stretch:normal;text-align:start;line-height:125%;letter-spacing:0px;word-spacing:0px;writing-mode:lr-tb;text-anchor:start;fill:#ff0000;fill-opacity:1;stroke:none;font-family:Courier New;-inkscape-font-specification:Courier New Bold"
         xml:space="preserve"><tspan
           y="1034.9762"
           x="18.57267"
           id="tspan3021-17"
           sodipodi:role="line">O</tspan></text>
    </g>
    <g
       transform="translate(160,-462.5)"
       id="layer1-39"
       inkscape:label="Ebene 1">
      <rect
         y="975.36218"
         x="0"
         height="77"
         width="80"
         id="rect3850-619"
         style="fill:#000000;fill-rule:evenodd;stroke:none" />
      <text
         sodipodi:linespacing="125%"
         id="text3019-24"
         y="1034.9762"
         x="18.57267"
         style="font-size:71.29678345px;font-style:normal;font-variant:normal;font-weight:bold;font-stretch:normal;text-align:start;line-height:125%;letter-spacing:0px;word-spacing:0px;writing-mode:lr-tb;text-anchor:start;fill:#ff0000;fill-opacity:1;stroke:none;font-family:Courier New;-inkscape-font-specification:Courier New Bold"
         xml:space="preserve"><tspan
           y="1034.9762"
           x="18.57267"
           id="tspan3021-55"
           sodipodi:role="line">O</tspan></text>
    </g>
    <g
       transform="translate(80,-462.5)"
       id="layer1-11"
       inkscape:label="Ebene 1">
      <rect
         y="975.36218"
         x="0"
         height="77"
         width="80"
         id="rect3850-63"
         style="fill:#000000;fill-rule:evenodd;stroke:none" />
      <text
         sodipodi:linespacing="125%"
         id="text3019-56"
         y="1034.9762"
         x="18.57267"
         style="font-size:71.29678345px;font-style:normal;font-variant:normal;font-weight:bold;font-stretch:normal;text-align:start;line-height:125%;letter-spacing:0px;word-spacing:0px;writing-mode:lr-tb;text-anchor:start;fill:#ff0000;fill-opacity:1;stroke:none;font-family:Courier New;-inkscape-font-specification:Courier New Bold"
         xml:space="preserve"><tspan
           y="1034.9762"
           x="18.57267"
           id="tspan3021-6"
           sodipodi:role="line">O</tspan></text>
    </g>
    <g
       transform="translate(160,-385.5)"
       id="layer1-68"
       inkscape:label="Ebene 1">
      <rect
         y="975.36218"
         x="0"
         height="77"
         width="80"
         id="rect3850-20"
         style="fill:#000000;fill-rule:evenodd;stroke:none" />
      <text
         sodipodi:linespacing="125%"
         id="text3019-45"
         y="1034.9762"
         x="18.57267"
         style="font-size:71.29678345px;font-style:normal;font-variant:normal;font-weight:bold;font-stretch:normal;text-align:start;line-height:125%;letter-spacing:0px;word-spacing:0px;writing-mode:lr-tb;text-anchor:start;fill:#ff0000;fill-opacity:1;stroke:none;font-family:Courier New;-inkscape-font-specification:Courier New Bold"
         xml:space="preserve"><tspan
           y="1034.9762"
           x="18.57267"
           id="tspan3021-49"
           sodipodi:role="line">O</tspan></text>
    </g>
    <g
       transform="translate(80,-385.5)"
       id="layer1-94"
       inkscape:label="Ebene 1">
      <rect
         y="975.36218"
         x="0"
         height="77"
         width="80"
         id="rect3850-69"
         style="fill:#000000;fill-rule:evenodd;stroke:none" />
      <text
         sodipodi:linespacing="125%"
         id="text3019-07"
         y="1034.9762"
         x="18.57267"
         style="font-size:71.29678345px;font-style:normal;font-variant:normal;font-weight:bold;font-stretch:normal;text-align:start;line-height:125%;letter-spacing:0px;word-spacing:0px;writing-mode:lr-tb;text-anchor:start;fill:#ff0000;fill-opacity:1;stroke:none;font-family:Courier New;-inkscape-font-specification:Courier New Bold"
         xml:space="preserve"><tspan
           y="1034.9762"
           x="18.57267"
           id="tspan3021-76"
           sodipodi:role="line">O</tspan></text>
    </g>
    <g
       transform="translate(0,-385.5)"
       id="layer1-32"
       inkscape:label="Ebene 1">
      <rect
         y="975.36218"
         x="0"
         height="77"
         width="80"
         id="rect3850-7"
         style="fill:#000000;fill-rule:evenodd;stroke:none" />
      <text
         sodipodi:linespacing="125%"
         id="text3019-58"
         y="1034.9762"
         x="18.57267"
         style="font-size:71.29678345px;font-style:normal;font-variant:normal;font-weight:bold;font-stretch:normal;text-align:start;line-height:125%;letter-spacing:0px;word-spacing:0px;writing-mode:lr-tb;text-anchor:start;fill:#ff0000;fill-opacity:1;stroke:none;font-family:Courier New;-inkscape-font-specification:Courier New Bold"
         xml:space="preserve"><tspan
           y="1034.9762"
           x="18.57267"
           id="tspan3021-42"
           sodipodi:role="line">O</tspan></text>
    </g>
    <g
       transform="translate(240,-231.5)"
       id="layer1-05"
       inkscape:label="Ebene 1">
      <rect
         y="975.36218"
         x="0"
         height="77"
         width="80"
         id="rect3850-11"
         style="fill:#000000;fill-rule:evenodd;stroke:none" />
      <text
         sodipodi:linespacing="125%"
         id="text3019-28"
         y="1034.9762"
         x="18.57267"
         style="font-size:71.29678345px;font-style:normal;font-variant:normal;font-weight:bold;font-stretch:normal;text-align:start;line-height:125%;letter-spacing:0px;word-spacing:0px;writing-mode:lr-tb;text-anchor:start;fill:#ff0000;fill-opacity:1;stroke:none;font-family:Courier New;-inkscape-font-specification:Courier New Bold"
         xml:space="preserve"><tspan
           y="1034.9762"
           x="18.57267"
           id="tspan3021-60"
           sodipodi:role="line">O</tspan></text>
    </g>
    <g
       transform="translate(160,-231.5)"
       id="layer1-27"
       inkscape:label="Ebene 1">
      <rect
         y="975.36218"
         x="0"
         height="77"
         width="80"
         id="rect3850-95"
         style="fill:#000000;fill-rule:evenodd;stroke:none" />
      <text
         sodipodi:linespacing="125%"
         id="text3019-6"
         y="1034.9762"
         x="18.57267"
         style="font-size:71.29678345px;font-style:normal;font-variant:normal;font-weight:bold;font-stretch:normal;text-align:start;line-height:125%;letter-spacing:0px;word-spacing:0px;writing-mode:lr-tb;text-anchor:start;fill:#ff0000;fill-opacity:1;stroke:none;font-family:Courier New;-inkscape-font-specification:Courier New Bold"
         xml:space="preserve"><tspan
           y="1034.9762"
           x="18.57267"
           id="tspan3021-14"
           sodipodi:role="line">O</tspan></text>
    </g>
    <g
       transform="translate(80,-231.5)"
       id="layer1-126"
       inkscape:label="Ebene 1">
      <rect
         y="975.36218"
         x="0"
         height="77"
         width="80"
         id="rect3850-54"
         style="fill:#000000;fill-rule:evenodd;stroke:none" />
      <text
         sodipodi:linespacing="125%"
         id="text3019-44"
         y="1034.9762"
         x="18.57267"
         style="font-size:71.29678345px;font-style:normal;font-variant:normal;font-weight:bold;font-stretch:normal;text-align:start;line-height:125%;letter-spacing:0px;word-spacing:0px;writing-mode:lr-tb;text-anchor:start;fill:#ff0000;fill-opacity:1;stroke:none;font-family:Courier New;-inkscape-font-specification:Courier New Bold"
         xml:space="preserve"><tspan
           y="1034.9762"
           x="18.57267"
           id="tspan3021-510"
           sodipodi:role="line">O</tspan></text>
    </g>
    <g
       transform="translate(0,-231.5)"
       id="layer1-53"
       inkscape:label="Ebene 1">
      <rect
         y="975.36218"
         x="0"
         height="77"
         width="80"
         id="rect3850-042"
         style="fill:#000000;fill-rule:evenodd;stroke:none" />
      <text
         sodipodi:linespacing="125%"
         id="text3019-09"
         y="1034.9762"
         x="18.57267"
         style="font-size:71.29678345px;font-style:normal;font-variant:normal;font-weight:bold;font-stretch:normal;text-align:start;line-height:125%;letter-spacing:0px;word-spacing:0px;writing-mode:lr-tb;text-anchor:start;fill:#ff0000;fill-opacity:1;stroke:none;font-family:Courier New;-inkscape-font-specification:Courier New Bold"
         xml:space="preserve"><tspan
           y="1034.9762"
           x="18.57267"
           id="tspan3021-81"
           sodipodi:role="line">O</tspan></text>
    </g>
    <g
       transform="translate(880,-308.5)"
       id="layer1-07"
       inkscape:label="Ebene 1">
      <rect
         y="975.36218"
         x="0"
         height="77"
         width="80"
         id="rect3850-92"
         style="fill:#000000;fill-rule:evenodd;stroke:none" />
      <text
         sodipodi:linespacing="125%"
         id="text3019-43"
         y="1034.9762"
         x="18.57267"
         style="font-size:71.29678345px;font-style:normal;font-variant:normal;font-weight:bold;font-stretch:normal;text-align:start;line-height:125%;letter-spacing:0px;word-spacing:0px;writing-mode:lr-tb;text-anchor:start;fill:#ff0000;fill-opacity:1;stroke:none;font-family:Courier New;-inkscape-font-specification:Courier New Bold"
         xml:space="preserve"><tspan
           y="1034.9762"
           x="18.57267"
           id="tspan3021-47"
           sodipodi:role="line">O</tspan></text>
    </g>
    <g
       transform="translate(800,-308.5)"
       id="layer1-45"
       inkscape:label="Ebene 1">
      <rect
         y="975.36218"
         x="0"
         height="77"
         width="80"
         id="rect3850-27"
         style="fill:#000000;fill-rule:evenodd;stroke:none" />
      <text
         sodipodi:linespacing="125%"
         id="text3019-27"
         y="1034.9762"
         x="18.57267"
         style="font-size:71.29678345px;font-style:normal;font-variant:normal;font-weight:bold;font-stretch:normal;text-align:start;line-height:125%;letter-spacing:0px;word-spacing:0px;writing-mode:lr-tb;text-anchor:start;fill:#ff0000;fill-opacity:1;stroke:none;font-family:Courier New;-inkscape-font-specification:Courier New Bold"
         xml:space="preserve"><tspan
           y="1034.9762"
           x="18.57267"
           id="tspan3021-197"
           sodipodi:role="line">O</tspan></text>
    </g>
    <g
       transform="translate(720,-308.5)"
       id="layer1-993"
       inkscape:label="Ebene 1">
      <rect
         y="975.36218"
         x="0"
         height="77"
         width="80"
         id="rect3850-274"
         style="fill:#000000;fill-rule:evenodd;stroke:none" />
      <text
         sodipodi:linespacing="125%"
         id="text3019-9"
         y="1034.9762"
         x="18.57267"
         style="font-size:71.29678345px;font-style:normal;font-variant:normal;font-weight:bold;font-stretch:normal;text-align:start;line-height:125%;letter-spacing:0px;word-spacing:0px;writing-mode:lr-tb;text-anchor:start;fill:#ff0000;fill-opacity:1;stroke:none;font-family:Courier New;-inkscape-font-specification:Courier New Bold"
         xml:space="preserve"><tspan
           y="1034.9762"
           x="18.57267"
           id="tspan3021-40"
           sodipodi:role="line">O</tspan></text>
    </g>
    <g
       transform="translate(640,-308.5)"
       id="layer1-593"
       inkscape:label="Ebene 1">
      <rect
         y="975.36218"
         x="0"
         height="77"
         width="80"
         id="rect3850-76"
         style="fill:#000000;fill-rule:evenodd;stroke:none" />
      <text
         sodipodi:linespacing="125%"
         id="text3019-98"
         y="1034.9762"
         x="18.57267"
         style="font-size:71.29678345px;font-style:normal;font-variant:normal;font-weight:bold;font-stretch:normal;text-align:start;line-height:125%;letter-spacing:0px;word-spacing:0px;writing-mode:lr-tb;text-anchor:start;fill:#ff0000;fill-opacity:1;stroke:none;font-family:Courier New;-inkscape-font-specification:Courier New Bold"
         xml:space="preserve"><tspan
           y="1034.9762"
           x="18.57267"
           id="tspan3021-78"
           sodipodi:role="line">O</tspan></text>
    </g>
    <g
       transform="translate(240,-308.5)"
       id="layer1-88"
       inkscape:label="Ebene 1">
      <rect
         y="975.36218"
         x="0"
         height="77"
         width="80"
         id="rect3850-68"
         style="fill:#000000;fill-rule:evenodd;stroke:none" />
      <text
         sodipodi:linespacing="125%"
         id="text3019-67"
         y="1034.9762"
         x="18.57267"
         style="font-size:71.29678345px;font-style:normal;font-variant:normal;font-weight:bold;font-stretch:normal;text-align:start;line-height:125%;letter-spacing:0px;word-spacing:0px;writing-mode:lr-tb;text-anchor:start;fill:#ff0000;fill-opacity:1;stroke:none;font-family:Courier New;-inkscape-font-specification:Courier New Bold"
         xml:space="preserve"><tspan
           y="1034.9762"
           x="18.57267"
           id="tspan3021-68"
           sodipodi:role="line">O</tspan></text>
    </g>
    <g
       transform="translate(160,-308.5)"
       id="layer1-83"
       inkscape:label="Ebene 1">
      <rect
         y="975.36218"
         x="0"
         height="77"
         width="80"
         id="rect3850-51"
         style="fill:#000000;fill-rule:evenodd;stroke:none" />
      <text
         sodipodi:linespacing="125%"
         id="text3019-271"
         y="1034.9762"
         x="18.57267"
         style="font-size:71.29678345px;font-style:normal;font-variant:normal;font-weight:bold;font-stretch:normal;text-align:start;line-height:125%;letter-spacing:0px;word-spacing:0px;writing-mode:lr-tb;text-anchor:start;fill:#ff0000;fill-opacity:1;stroke:none;font-family:Courier New;-inkscape-font-specification:Courier New Bold"
         xml:space="preserve"><tspan
           y="1034.9762"
           x="18.57267"
           id="tspan3021-46"
           sodipodi:role="line">O</tspan></text>
    </g>
    <g
       transform="translate(80,-77.500003)"
       id="layer1-08"
       inkscape:label="Ebene 1">
      <rect
         y="975.36218"
         x="0"
         height="77"
         width="80"
         id="rect3850-524"
         style="fill:#000000;fill-rule:evenodd;stroke:none" />
      <text
         sodipodi:linespacing="125%"
         id="text3019-15"
         y="1034.9762"
         x="18.57267"
         style="font-size:71.29678345px;font-style:normal;font-variant:normal;font-weight:bold;font-stretch:normal;text-align:start;line-height:125%;letter-spacing:0px;word-spacing:0px;writing-mode:lr-tb;text-anchor:start;fill:#ff0000;fill-opacity:1;stroke:none;font-family:Courier New;-inkscape-font-specification:Courier New Bold"
         xml:space="preserve"><tspan
           y="1034.9762"
           x="18.57267"
           id="tspan3021-91"
           sodipodi:role="line">O</tspan></text>
    </g>
    <g
       transform="translate(0,-77.500003)"
       id="layer1-84"
       inkscape:label="Ebene 1">
      <rect
         y="975.36218"
         x="0"
         height="77"
         width="80"
         id="rect3850-3"
         style="fill:#000000;fill-rule:evenodd;stroke:none" />
      <text
         sodipodi:linespacing="125%"
         id="text3019-30"
         y="1034.9762"
         x="18.57267"
         style="font-size:71.29678345px;font-style:normal;font-variant:normal;font-weight:bold;font-stretch:normal;text-align:start;line-height:125%;letter-spacing:0px;word-spacing:0px;writing-mode:lr-tb;text-anchor:start;fill:#ff0000;fill-opacity:1;stroke:none;font-family:Courier New;-inkscape-font-specification:Courier New Bold"
         xml:space="preserve"><tspan
           y="1034.9762"
           x="18.57267"
           id="tspan3021-70"
           sodipodi:role="line">O</tspan></text>
    </g>
    <g
       transform="translate(880,-462.5)"
       id="layer1-835"
       inkscape:label="Ebene 1">
      <rect
         y="975.36218"
         x="0"
         height="77"
         width="80"
         id="rect3850-924"
         style="fill:#000000;fill-rule:evenodd;stroke:none" />
      <text
         sodipodi:linespacing="125%"
         id="text3019-359"
         y="1034.9762"
         x="18.57267"
         style="font-size:71.29678345px;font-style:normal;font-variant:normal;font-weight:bold;font-stretch:normal;text-align:start;line-height:125%;letter-spacing:0px;word-spacing:0px;writing-mode:lr-tb;text-anchor:start;fill:#ff0000;fill-opacity:1;stroke:none;font-family:Courier New;-inkscape-font-specification:Courier New Bold"
         xml:space="preserve"><tspan
           y="1034.9762"
           x="18.57267"
           id="tspan3021-32"
           sodipodi:role="line">O</tspan></text>
    </g>
    <g
       transform="translate(880,-385.5)"
       id="layer1-394"
       inkscape:label="Ebene 1">
      <rect
         y="975.36218"
         x="0"
         height="77"
         width="80"
         id="rect3850-34"
         style="fill:#000000;fill-rule:evenodd;stroke:none" />
      <text
         sodipodi:linespacing="125%"
         id="text3019-26"
         y="1034.9762"
         x="18.57267"
         style="font-size:71.29678345px;font-style:normal;font-variant:normal;font-weight:bold;font-stretch:normal;text-align:start;line-height:125%;letter-spacing:0px;word-spacing:0px;writing-mode:lr-tb;text-anchor:start;fill:#ff0000;fill-opacity:1;stroke:none;font-family:Courier New;-inkscape-font-specification:Courier New Bold"
         xml:space="preserve"><tspan
           y="1034.9762"
           x="18.57267"
           id="tspan3021-65"
           sodipodi:role="line">O</tspan></text>
    </g>
    <g
       transform="translate(880,-0.50000262)"
       id="layer1-02"
       inkscape:label="Ebene 1">
      <rect
         y="975.36218"
         x="0"
         height="77"
         width="80"
         id="rect3850-540"
         style="fill:#000000;fill-rule:evenodd;stroke:none" />
      <text
         sodipodi:linespacing="125%"
         id="text3019-53"
         y="1034.9762"
         x="18.57267"
         style="font-size:71.29678345px;font-style:normal;font-variant:normal;font-weight:bold;font-stretch:normal;text-align:start;line-height:125%;letter-spacing:0px;word-spacing:0px;writing-mode:lr-tb;text-anchor:start;fill:#ff0000;fill-opacity:1;stroke:none;font-family:Courier New;-inkscape-font-specification:Courier New Bold"
         xml:space="preserve"><tspan
           y="1034.9762"
           x="18.57267"
           id="tspan3021-832"
           sodipodi:role="line">O</tspan></text>
    </g>
    <g
       transform="translate(160,-77.500003)"
       id="layer1-344"
       inkscape:label="Ebene 1">
      <rect
         y="975.36218"
         x="0"
         height="77"
         width="80"
         id="rect3850-00"
         style="fill:#000000;fill-rule:evenodd;stroke:none" />
      <text
         sodipodi:linespacing="125%"
         id="text3019-47"
         y="1034.9762"
         x="18.57267"
         style="font-size:71.29678345px;font-style:normal;font-variant:normal;font-weight:bold;font-stretch:normal;text-align:start;line-height:125%;letter-spacing:0px;word-spacing:0px;writing-mode:lr-tb;text-anchor:start;fill:#ff0000;fill-opacity:1;stroke:none;font-family:Courier New;-inkscape-font-specification:Courier New Bold"
         xml:space="preserve"><tspan
           y="1034.9762"
           x="18.57267"
           id="tspan3021-247"
           sodipodi:role="line">O</tspan></text>
    </g>
    <g
       transform="translate(880,-154.5)"
       id="layer1-761"
       inkscape:label="Ebene 1">
      <rect
         y="975.36218"
         x="0"
         height="77"
         width="80"
         id="rect3850-39"
         style="fill:#000000;fill-rule:evenodd;stroke:none" />
      <text
         sodipodi:linespacing="125%"
         id="text3019-57"
         y="1034.9762"
         x="18.57267"
         style="font-size:71.29678345px;font-style:normal;font-variant:normal;font-weight:bold;font-stretch:normal;text-align:start;line-height:125%;letter-spacing:0px;word-spacing:0px;writing-mode:lr-tb;text-anchor:start;fill:#ff0000;fill-opacity:1;stroke:none;font-family:Courier New;-inkscape-font-specification:Courier New Bold"
         xml:space="preserve"><tspan
           y="1034.9762"
           x="18.57267"
           id="tspan3021-07"
           sodipodi:role="line">O</tspan></text>
    </g>
    <g
       transform="translate(800,-154.5)"
       id="layer1-390"
       inkscape:label="Ebene 1">
      <rect
         y="975.36218"
         x="0"
         height="77"
         width="80"
         id="rect3850-74"
         style="fill:#000000;fill-rule:evenodd;stroke:none" />
      <text
         sodipodi:linespacing="125%"
         id="text3019-95"
         y="1034.9762"
         x="18.57267"
         style="font-size:71.29678345px;font-style:normal;font-variant:normal;font-weight:bold;font-stretch:normal;text-align:start;line-height:125%;letter-spacing:0px;word-spacing:0px;writing-mode:lr-tb;text-anchor:start;fill:#ff0000;fill-opacity:1;stroke:none;font-family:Courier New;-inkscape-font-specification:Courier New Bold"
         xml:space="preserve"><tspan
           y="1034.9762"
           x="18.57267"
           id="tspan3021-707"
           sodipodi:role="line">O</tspan></text>
    </g>
    <g
       transform="translate(240,-154.5)"
       id="layer1-699"
       inkscape:label="Ebene 1">
      <rect
         y="975.36218"
         x="0"
         height="77"
         width="80"
         id="rect3850-23"
         style="fill:#000000;fill-rule:evenodd;stroke:none" />
      <text
         sodipodi:linespacing="125%"
         id="text3019-128"
         y="1034.9762"
         x="18.57267"
         style="font-size:71.29678345px;font-style:normal;font-variant:normal;font-weight:bold;font-stretch:normal;text-align:start;line-height:125%;letter-spacing:0px;word-spacing:0px;writing-mode:lr-tb;text-anchor:start;fill:#ff0000;fill-opacity:1;stroke:none;font-family:Courier New;-inkscape-font-specification:Courier New Bold"
         xml:space="preserve"><tspan
           y="1034.9762"
           x="18.57267"
           id="tspan3021-473"
           sodipodi:role="line">O</tspan></text>
    </g>
    <g
       transform="translate(800,-0.50000262)"
       id="layer1-93"
       inkscape:label="Ebene 1">
      <rect
         y="975.36218"
         x="0"
         height="77"
         width="80"
         id="rect3850-62"
         style="fill:#000000;fill-rule:evenodd;stroke:none" />
      <text
         sodipodi:linespacing="125%"
         id="text3019-90"
         y="1034.9762"
         x="18.57267"
         style="font-size:71.29678345px;font-style:normal;font-variant:normal;font-weight:bold;font-stretch:normal;text-align:start;line-height:125%;letter-spacing:0px;word-spacing:0px;writing-mode:lr-tb;text-anchor:start;fill:#ff0000;fill-opacity:1;stroke:none;font-family:Courier New;-inkscape-font-specification:Courier New Bold"
         xml:space="preserve"><tspan
           y="1034.9762"
           x="18.57267"
           id="tspan3021-33"
           sodipodi:role="line">O</tspan></text>
    </g>
    <g
       transform="translate(720,-0.50000262)"
       id="layer1-65"
       inkscape:label="Ebene 1">
      <rect
         y="975.36218"
         x="0"
         height="77"
         width="80"
         id="rect3850-543"
         style="fill:#000000;fill-rule:evenodd;stroke:none" />
      <text
         sodipodi:linespacing="125%"
         id="text3019-89"
         y="1034.9762"
         x="18.57267"
         style="font-size:71.29678345px;font-style:normal;font-variant:normal;font-weight:bold;font-stretch:normal;text-align:start;line-height:125%;letter-spacing:0px;word-spacing:0px;writing-mode:lr-tb;text-anchor:start;fill:#ff0000;fill-opacity:1;stroke:none;font-family:Courier New;-inkscape-font-specification:Courier New Bold"
         xml:space="preserve"><tspan
           y="1034.9762"
           x="18.57267"
           id="tspan3021-72"
           sodipodi:role="line">O</tspan></text>
    </g>
    <g
       transform="translate(640,-0.50000262)"
       id="layer1-23"
       inkscape:label="Ebene 1">
      <rect
         y="975.36218"
         x="0"
         height="77"
         width="80"
         id="rect3850-49"
         style="fill:#000000;fill-rule:evenodd;stroke:none" />
      <text
         sodipodi:linespacing="125%"
         id="text3019-070"
         y="1034.9762"
         x="18.57267"
         style="font-size:71.29678345px;font-style:normal;font-variant:normal;font-weight:bold;font-stretch:normal;text-align:start;line-height:125%;letter-spacing:0px;word-spacing:0px;writing-mode:lr-tb;text-anchor:start;fill:#ff0000;fill-opacity:1;stroke:none;font-family:Courier New;-inkscape-font-specification:Courier New Bold"
         xml:space="preserve"><tspan
           y="1034.9762"
           x="18.57267"
           id="tspan3021-54"
           sodipodi:role="line">O</tspan></text>
    </g>
    <g
       transform="translate(160,-154.5)"
       id="layer1-57"
       inkscape:label="Ebene 1">
      <rect
         y="975.36218"
         x="0"
         height="77"
         width="80"
         id="rect3850-56"
         style="fill:#000000;fill-rule:evenodd;stroke:none" />
      <text
         sodipodi:linespacing="125%"
         id="text3019-42"
         y="1034.9762"
         x="18.57267"
         style="font-size:71.29678345px;font-style:normal;font-variant:normal;font-weight:bold;font-stretch:normal;text-align:start;line-height:125%;letter-spacing:0px;word-spacing:0px;writing-mode:lr-tb;text-anchor:start;fill:#ff0000;fill-opacity:1;stroke:none;font-family:Courier New;-inkscape-font-specification:Courier New Bold"
         xml:space="preserve"><tspan
           y="1034.9762"
           x="18.57267"
           id="tspan3021-06"
           sodipodi:role="line">O</tspan></text>
    </g>
    <g
       transform="translate(80,-154.5)"
       id="layer1-680"
       inkscape:label="Ebene 1">
      <rect
         y="975.36218"
         x="0"
         height="77"
         width="80"
         id="rect3850-50"
         style="fill:#000000;fill-rule:evenodd;stroke:none" />
      <text
         sodipodi:linespacing="125%"
         id="text3019-074"
         y="1034.9762"
         x="18.57267"
         style="font-size:71.29678345px;font-style:normal;font-variant:normal;font-weight:bold;font-stretch:normal;text-align:start;line-height:125%;letter-spacing:0px;word-spacing:0px;writing-mode:lr-tb;text-anchor:start;fill:#ff0000;fill-opacity:1;stroke:none;font-family:Courier New;-inkscape-font-specification:Courier New Bold"
         xml:space="preserve"><tspan
           y="1034.9762"
           x="18.57267"
           id="tspan3021-53"
           sodipodi:role="line">O</tspan></text>
    </g>
    <g
       transform="translate(0,-154.5)"
       id="layer1-25"
       inkscape:label="Ebene 1">
      <rect
         y="975.36218"
         x="0"
         height="77"
         width="80"
         id="rect3850-45"
         style="fill:#000000;fill-rule:evenodd;stroke:none" />
      <text
         sodipodi:linespacing="125%"
         id="text3019-375"
         y="1034.9762"
         x="18.57267"
         style="font-size:71.29678345px;font-style:normal;font-variant:normal;font-weight:bold;font-stretch:normal;text-align:start;line-height:125%;letter-spacing:0px;word-spacing:0px;writing-mode:lr-tb;text-anchor:start;fill:#ff0000;fill-opacity:1;stroke:none;font-family:Courier New;-inkscape-font-specification:Courier New Bold"
         xml:space="preserve"><tspan
           y="1034.9762"
           x="18.57267"
           id="tspan3021-070"
           sodipodi:role="line">O</tspan></text>
    </g>
    <g
       transform="translate(880,-231.5)"
       id="layer1-074"
       inkscape:label="Ebene 1">
      <rect
         y="975.36218"
         x="0"
         height="77"
         width="80"
         id="rect3850-158"
         style="fill:#000000;fill-rule:evenodd;stroke:none" />
      <text
         sodipodi:linespacing="125%"
         id="text3019-14"
         y="1034.9762"
         x="18.57267"
         style="font-size:71.29678345px;font-style:normal;font-variant:normal;font-weight:bold;font-stretch:normal;text-align:start;line-height:125%;letter-spacing:0px;word-spacing:0px;writing-mode:lr-tb;text-anchor:start;fill:#ff0000;fill-opacity:1;stroke:none;font-family:Courier New;-inkscape-font-specification:Courier New Bold"
         xml:space="preserve"><tspan
           y="1034.9762"
           x="18.57267"
           id="tspan3021-421"
           sodipodi:role="line">O</tspan></text>
    </g>
    <g
       transform="translate(800,-231.5)"
       id="layer1-322"
       inkscape:label="Ebene 1">
      <rect
         y="975.36218"
         x="0"
         height="77"
         width="80"
         id="rect3850-03"
         style="fill:#000000;fill-rule:evenodd;stroke:none" />
      <text
         sodipodi:linespacing="125%"
         id="text3019-652"
         y="1034.9762"
         x="18.57267"
         style="font-size:71.29678345px;font-style:normal;font-variant:normal;font-weight:bold;font-stretch:normal;text-align:start;line-height:125%;letter-spacing:0px;word-spacing:0px;writing-mode:lr-tb;text-anchor:start;fill:#ff0000;fill-opacity:1;stroke:none;font-family:Courier New;-inkscape-font-specification:Courier New Bold"
         xml:space="preserve"><tspan
           y="1034.9762"
           x="18.57267"
           id="tspan3021-08"
           sodipodi:role="line">O</tspan></text>
    </g>
    <g
       transform="translate(720,-231.5)"
       id="layer1-731"
       inkscape:label="Ebene 1">
      <rect
         y="975.36218"
         x="0"
         height="77"
         width="80"
         id="rect3850-393"
         style="fill:#000000;fill-rule:evenodd;stroke:none" />
      <text
         sodipodi:linespacing="125%"
         id="text3019-66"
         y="1034.9762"
         x="18.57267"
         style="font-size:71.29678345px;font-style:normal;font-variant:normal;font-weight:bold;font-stretch:normal;text-align:start;line-height:125%;letter-spacing:0px;word-spacing:0px;writing-mode:lr-tb;text-anchor:start;fill:#ff0000;fill-opacity:1;stroke:none;font-family:Courier New;-inkscape-font-specification:Courier New Bold"
         xml:space="preserve"><tspan
           y="1034.9762"
           x="18.57267"
           id="tspan3021-03"
           sodipodi:role="line">O</tspan></text>
    </g>
    <g
       transform="translate(640,-231.5)"
       id="layer1-79"
       inkscape:label="Ebene 1">
      <rect
         y="975.36218"
         x="0"
         height="77"
         width="80"
         id="rect3850-66"
         style="fill:#000000;fill-rule:evenodd;stroke:none" />
      <text
         sodipodi:linespacing="125%"
         id="text3019-96"
         y="1034.9762"
         x="18.57267"
         style="font-size:71.29678345px;font-style:normal;font-variant:normal;font-weight:bold;font-stretch:normal;text-align:start;line-height:125%;letter-spacing:0px;word-spacing:0px;writing-mode:lr-tb;text-anchor:start;fill:#ff0000;fill-opacity:1;stroke:none;font-family:Courier New;-inkscape-font-specification:Courier New Bold"
         xml:space="preserve"><tspan
           y="1034.9762"
           x="18.57267"
           id="tspan3021-15"
           sodipodi:role="line">O</tspan></text>
    </g>
    <g
       transform="translate(240,-0.50000262)"
       id="layer1-17"
       inkscape:label="Ebene 1">
      <rect
         y="975.36218"
         x="0"
         height="77"
         width="80"
         id="rect3850-71"
         style="fill:#000000;fill-rule:evenodd;stroke:none" />
      <text
         sodipodi:linespacing="125%"
         id="text3019-75"
         y="1034.9762"
         x="18.57267"
         style="font-size:71.29678345px;font-style:normal;font-variant:normal;font-weight:bold;font-stretch:normal;text-align:start;line-height:125%;letter-spacing:0px;word-spacing:0px;writing-mode:lr-tb;text-anchor:start;fill:#ff0000;fill-opacity:1;stroke:none;font-family:Courier New;-inkscape-font-specification:Courier New Bold"
         xml:space="preserve"><tspan
           y="1034.9762"
           x="18.57267"
           id="tspan3021-494"
           sodipodi:role="line">O</tspan></text>
    </g>
    <g
       transform="translate(160,-0.50000262)"
       id="layer1-009"
       inkscape:label="Ebene 1">
      <rect
         y="975.36218"
         x="0"
         height="77"
         width="80"
         id="rect3850-65"
         style="fill:#000000;fill-rule:evenodd;stroke:none" />
      <text
         sodipodi:linespacing="125%"
         id="text3019-477"
         y="1034.9762"
         x="18.57267"
         style="font-size:71.29678345px;font-style:normal;font-variant:normal;font-weight:bold;font-stretch:normal;text-align:start;line-height:125%;letter-spacing:0px;word-spacing:0px;writing-mode:lr-tb;text-anchor:start;fill:#ff0000;fill-opacity:1;stroke:none;font-family:Courier New;-inkscape-font-specification:Courier New Bold"
         xml:space="preserve"><tspan
           y="1034.9762"
           x="18.57267"
           id="tspan3021-265"
           sodipodi:role="line">O</tspan></text>
    </g>
    <g
       transform="translate(80,-0.50000262)"
       id="layer1-571"
       inkscape:label="Ebene 1">
      <rect
         y="975.36218"
         x="0"
         height="77"
         width="80"
         id="rect3850-19"
         style="fill:#000000;fill-rule:evenodd;stroke:none" />
      <text
         sodipodi:linespacing="125%"
         id="text3019-93"
         y="1034.9762"
         x="18.57267"
         style="font-size:71.29678345px;font-style:normal;font-variant:normal;font-weight:bold;font-stretch:normal;text-align:start;line-height:125%;letter-spacing:0px;word-spacing:0px;writing-mode:lr-tb;text-anchor:start;fill:#ff0000;fill-opacity:1;stroke:none;font-family:Courier New;-inkscape-font-specification:Courier New Bold"
         xml:space="preserve"><tspan
           y="1034.9762"
           x="18.57267"
           id="tspan3021-27"
           sodipodi:role="line">O</tspan></text>
    </g>
    <g
       transform="translate(0,-0.50000262)"
       id="layer1-650"
       inkscape:label="Ebene 1">
      <rect
         y="975.36218"
         x="0"
         height="77"
         width="80"
         id="rect3850-737"
         style="fill:#000000;fill-rule:evenodd;stroke:none" />
      <text
         sodipodi:linespacing="125%"
         id="text3019-827"
         y="1034.9762"
         x="18.57267"
         style="font-size:71.29678345px;font-style:normal;font-variant:normal;font-weight:bold;font-stretch:normal;text-align:start;line-height:125%;letter-spacing:0px;word-spacing:0px;writing-mode:lr-tb;text-anchor:start;fill:#ff0000;fill-opacity:1;stroke:none;font-family:Courier New;-inkscape-font-specification:Courier New Bold"
         xml:space="preserve"><tspan
           y="1034.9762"
           x="18.57267"
           id="tspan3021-67"
           sodipodi:role="line">O</tspan></text>
    </g>
    <g
       transform="translate(880,-77.500003)"
       id="layer1-361"
       inkscape:label="Ebene 1">
      <rect
         y="975.36218"
         x="0"
         height="77"
         width="80"
         id="rect3850-44"
         style="fill:#000000;fill-rule:evenodd;stroke:none" />
      <text
         sodipodi:linespacing="125%"
         id="text3019-72"
         y="1034.9762"
         x="18.57267"
         style="font-size:71.29678345px;font-style:normal;font-variant:normal;font-weight:bold;font-stretch:normal;text-align:start;line-height:125%;letter-spacing:0px;word-spacing:0px;writing-mode:lr-tb;text-anchor:start;fill:#ff0000;fill-opacity:1;stroke:none;font-family:Courier New;-inkscape-font-specification:Courier New Bold"
         xml:space="preserve"><tspan
           y="1034.9762"
           x="18.57267"
           id="tspan3021-41"
           sodipodi:role="line">O</tspan></text>
    </g>
    <g
       transform="translate(800,-77.500003)"
       id="layer1-80"
       inkscape:label="Ebene 1">
      <rect
         y="975.36218"
         x="0"
         height="77"
         width="80"
         id="rect3850-137"
         style="fill:#000000;fill-rule:evenodd;stroke:none" />
      <text
         sodipodi:linespacing="125%"
         id="text3019-86"
         y="1034.9762"
         x="18.57267"
         style="font-size:71.29678345px;font-style:normal;font-variant:normal;font-weight:bold;font-stretch:normal;text-align:start;line-height:125%;letter-spacing:0px;word-spacing:0px;writing-mode:lr-tb;text-anchor:start;fill:#ff0000;fill-opacity:1;stroke:none;font-family:Courier New;-inkscape-font-specification:Courier New Bold"
         xml:space="preserve"><tspan
           y="1034.9762"
           x="18.57267"
           id="tspan3021-141"
           sodipodi:role="line">O</tspan></text>
    </g>
    <g
       transform="translate(720,-77.500003)"
       id="layer1-393"
       inkscape:label="Ebene 1">
      <rect
         y="975.36218"
         x="0"
         height="77"
         width="80"
         id="rect3850-719"
         style="fill:#000000;fill-rule:evenodd;stroke:none" />
      <text
         sodipodi:linespacing="125%"
         id="text3019-87"
         y="1034.9762"
         x="18.57267"
         style="font-size:71.29678345px;font-style:normal;font-variant:normal;font-weight:bold;font-stretch:normal;text-align:start;line-height:125%;letter-spacing:0px;word-spacing:0px;writing-mode:lr-tb;text-anchor:start;fill:#ff0000;fill-opacity:1;stroke:none;font-family:Courier New;-inkscape-font-specification:Courier New Bold"
         xml:space="preserve"><tspan
           y="1034.9762"
           x="18.57267"
           id="tspan3021-98"
           sodipodi:role="line">O</tspan></text>
    </g>
    <g
       transform="translate(640,-77.500003)"
       id="layer1-52"
       inkscape:label="Ebene 1">
      <rect
         y="975.36218"
         x="0"
         height="77"
         width="80"
         id="rect3850-498"
         style="fill:#000000;fill-rule:evenodd;stroke:none" />
      <text
         sodipodi:linespacing="125%"
         id="text3019-956"
         y="1034.9762"
         x="18.57267"
         style="font-size:71.29678345px;font-style:normal;font-variant:normal;font-weight:bold;font-stretch:normal;text-align:start;line-height:125%;letter-spacing:0px;word-spacing:0px;writing-mode:lr-tb;text-anchor:start;fill:#ff0000;fill-opacity:1;stroke:none;font-family:Courier New;-inkscape-font-specification:Courier New Bold"
         xml:space="preserve"><tspan
           y="1034.9762"
           x="18.57267"
           id="tspan3021-683"
           sodipodi:role="line">O</tspan></text>
    </g>
    <g
       transform="translate(240,-77.500003)"
       id="layer1-42"
       inkscape:label="Ebene 1">
      <rect
         y="975.36218"
         x="0"
         height="77"
         width="80"
         id="rect3850-940"
         style="fill:#000000;fill-rule:evenodd;stroke:none" />
      <text
         sodipodi:linespacing="125%"
         id="text3019-92"
         y="1034.9762"
         x="18.57267"
         style="font-size:71.29678345px;font-style:normal;font-variant:normal;font-weight:bold;font-stretch:normal;text-align:start;line-height:125%;letter-spacing:0px;word-spacing:0px;writing-mode:lr-tb;text-anchor:start;fill:#ff0000;fill-opacity:1;stroke:none;font-family:Courier New;-inkscape-font-specification:Courier New Bold"
         xml:space="preserve"><tspan
           y="1034.9762"
           x="18.57267"
           id="tspan3021-652"
           sodipodi:role="line">O</tspan></text>
    </g>
    <g
       transform="translate(640,-154.5)"
       id="layer1-125"
       inkscape:label="Ebene 1">
      <rect
         y="975.36218"
         x="0"
         height="77"
         width="80"
         id="rect3850-513"
         style="fill:#000000;fill-rule:evenodd;stroke:none" />
      <text
         sodipodi:linespacing="125%"
         id="text3019-05"
         y="1034.9762"
         x="18.57267"
         style="font-size:71.29678345px;font-style:normal;font-variant:normal;font-weight:bold;font-stretch:normal;text-align:start;line-height:125%;letter-spacing:0px;word-spacing:0px;writing-mode:lr-tb;text-anchor:start;fill:#ff0000;fill-opacity:1;stroke:none;font-family:Courier New;-inkscape-font-specification:Courier New Bold"
         xml:space="preserve"><tspan
           y="1034.9762"
           x="18.57267"
           id="tspan3021-412"
           sodipodi:role="line">O</tspan></text>
    </g>
  </g>
</svg>
