<?xml version="1.0" encoding="UTF-8" standalone="no"?>
<!-- Created with Inkscape (http://www.inkscape.org/) -->

<svg
   xmlns:dc="http://purl.org/dc/elements/1.1/"
   xmlns:cc="http://creativecommons.org/ns#"
   xmlns:rdf="http://www.w3.org/1999/02/22-rdf-syntax-ns#"
   xmlns:svg="http://www.w3.org/2000/svg"
   xmlns="http://www.w3.org/2000/svg"
   xmlns:sodipodi="http://sodipodi.sourceforge.net/DTD/sodipodi-0.dtd"
   xmlns:inkscape="http://www.inkscape.org/namespaces/inkscape"
   width="21.968504"
   height="21.259842"
   id="svg3011"
   version="1.1"
   inkscape:version="0.48.5 r10040"
   sodipodi:docname="Projektion_musterO100fat.svg">
  <defs
     id="defs3013" />
  <sodipodi:namedview
     id="base"
     pagecolor="#ffffff"
     bordercolor="#666666"
     borderopacity="1.0"
     inkscape:pageopacity="0.0"
     inkscape:pageshadow="2"
     inkscape:zoom="5.259472"
     inkscape:cx="-11.121894"
     inkscape:cy="32.82209"
     inkscape:document-units="px"
     inkscape:current-layer="g2985"
     showgrid="false"
     inkscape:window-width="1006"
     inkscape:window-height="797"
     inkscape:window-x="136"
     inkscape:window-y="18"
     inkscape:window-maximized="0"
     units="cm" />
  <metadata
     id="metadata3016">
    <rdf:RDF>
      <cc:Work
         rdf:about="">
        <dc:format>image/svg+xml</dc:format>
        <dc:type
           rdf:resource="http://purl.org/dc/dcmitype/StillImage" />
        <dc:title></dc:title>
      </cc:Work>
    </rdf:RDF>
  </metadata>
  <g
     inkscape:label="Ebene 1"
     inkscape:groupmode="layer"
     id="layer1"
     transform="translate(0,-1031.1024)">
    <g
       id="g2985"
       transform="matrix(0.16883117,0,0,0.16883117,-0.0032468,874.69066)">
      <g
         id="g2986"
         transform="matrix(1.6343845,0,0,1.6343845,-0.29558001,-667.64004)">
        <rect
           style="fill:#000000;fill-rule:evenodd;stroke:none"
           id="rect3850"
           width="80"
           height="77"
           x="0"
           y="975.36218" />
        <text
           xml:space="preserve"
           style="font-size:71.29678345px;font-style:normal;font-variant:normal;font-weight:bold;font-stretch:normal;text-align:start;line-height:125%;letter-spacing:0px;word-spacing:0px;writing-mode:lr-tb;text-anchor:start;fill:#ff3c46;fill-opacity:1;stroke:none;font-family:Courier New;-inkscape-font-specification:Courier New Bold"
           x="18.57267"
           y="1034.9762"
           id="text3019"
           sodipodi:linespacing="125%"><tspan
             sodipodi:role="line"
             id="tspan3021"
             x="18.57267"
             y="1034.9762">O</tspan></text>
      </g>
    </g>
  </g>
</svg>
