<?xml version="1.0" encoding="UTF-8" standalone="no"?>
<!-- Created with Inkscape (http://www.inkscape.org/) -->

<svg
   xmlns:dc="http://purl.org/dc/elements/1.1/"
   xmlns:cc="http://creativecommons.org/ns#"
   xmlns:rdf="http://www.w3.org/1999/02/22-rdf-syntax-ns#"
   xmlns:svg="http://www.w3.org/2000/svg"
   xmlns="http://www.w3.org/2000/svg"
   xmlns:xlink="http://www.w3.org/1999/xlink"
   xmlns:sodipodi="http://sodipodi.sourceforge.net/DTD/sodipodi-0.dtd"
   xmlns:inkscape="http://www.inkscape.org/namespaces/inkscape"
   width="1600"
   height="900"
   id="svg10877"
   version="1.1"
   inkscape:version="0.48.5 r10040"
   sodipodi:docname="r.svg">
  <defs
     id="defs10879" />
  <sodipodi:namedview
     id="base"
     pagecolor="#00ebf4"
     bordercolor="#666666"
     borderopacity="1.0"
     inkscape:pageopacity="0"
     inkscape:pageshadow="2"
     inkscape:zoom="0.35"
     inkscape:cx="381.01742"
     inkscape:cy="577.14286"
     inkscape:document-units="px"
     inkscape:current-layer="layer1"
     showgrid="false"
     units="cm"
     inkscape:showpageshadow="false"
     inkscape:window-width="1063"
     inkscape:window-height="714"
     inkscape:window-x="32"
     inkscape:window-y="42"
     inkscape:window-maximized="0" />
  <metadata
     id="metadata10882">
    <rdf:RDF>
      <cc:Work
         rdf:about="">
        <dc:format>image/svg+xml</dc:format>
        <dc:type
           rdf:resource="http://purl.org/dc/dcmitype/StillImage" />
        <dc:title />
      </cc:Work>
    </rdf:RDF>
  </metadata>
  <g
     inkscape:label="Ebene 1"
     inkscape:groupmode="layer"
     id="layer1"
     transform="translate(0,-152.36467)">
    <rect
       style="fill:#000000;fill-rule:evenodd;stroke:#000000;stroke-width:0.99999987999999995px;stroke-linecap:butt;stroke-linejoin:miter;stroke-opacity:1"
       id="rect11736"
       width="1599.1575"
       height="899"
       x="-1599.5787"
       y="-1051.8646"
       transform="scale(-1,-1)" />
    <image
       y="581.52014"
       x="779.15552"
       id="image12032"
       xlink:href="data:image/png;base64,iVBORw0KGgoAAAANSUhEUgAABCcAAAQnCAYAAADINQakAAAABHNCSVQICAgIfAhkiAAAIABJREFU eJzs3Xd01+XdxvErIYskEIbIEJQyZcgIyJYdZgIKokItFCkiguAAoSoCKjjAEdlD9pK9ZDuQGUH2 TABJQEOYARIg+/mjrU+ti0CSz2+8X+fk2NM/2vfpOVK8uO/765GRkZEhAAAAAAAAGxme1gUAAAAA AMC9MU4AAAAAAABTjBMAAAAAAMAU4wQAAAAAADDFOAEAAAAAAEwxTgAAAAAAAFOMEwAAAAAAwBTj BAAAAAAAMMU4AQAAAAAATDFOAAAAAAAAU4wTAAAAAADAFOMEAAAAAAAwxTgBAAAAAABMMU4AAAAA AABTjBMAAAAAAMAU4wQAAAAAADDFOAEAAAAAAEwxTgAAAAAAAFOMEwAAAAAAwBTjBAAAAAAAMMU4 AQAAAAAATDFOAAAAAAAAU4wTAAAAAADAFOMEAAAAAAAwxTgBAAAAAABMMU4AAAAAAABTjBMAAAAA AMAU4wQAAAAAADDFOAEAAAAAAEwxTgAAAAAAAFOMEwAAAAAAwBTjBAAAAAAAMMU4AQAAAAAATDFO AAAAAAAAU4wTAAAAAADAFOMEAAAAAAAwxTgBAAAAAABMMU4AAAAAAABTjBMAAAAAAMAU4wQAAAAA ADDFOAEAAAAAAEwxTgAAAAAAAFOMEwAAAAAAwBTjBAAAAAAAMMU4AQAAAAAATDFOAAAAAAAAU4wT AAAAAADAFOMEAAAAAAAwxTgBAAAAAABMMU4AAAAAAABTjBMAAAAAAMAU4wQAAAAAADDFOAEAAAAA AEwxTgAAAAAAAFOMEwAAAAAAwBTjBAAAAAAAMMU4AQAAAAAATDFOAAAAAAAAU4wTAAAAAADAFOME AAAAAAAwxTgBAAAAAABMMU4AAAAAAABTjBMAAAAAAMAU4wQAAAAAADDFOAEAAAAAAEwxTgAAAAAA AFOMEwAAAAAAwBTjBAAAAAAAMMU4AQAAAAAATDFOAAAAAAAAU4wTAAAAAADAFOMEAAAAAAAwxTgB AAAAAABMMU4AAAAAAABTjBMAAAAAAMAU4wQAAAAAADDFOAEAAAAAAEwxTgAAAAAAAFOMEwAAAAAA wBTjBAAAAAAAMMU4AQAAAAAATDFOAAAAAAAAU4wTAAAAAADAFOMEAAAAAAAwxTgBAAAAAABMMU4A AAAAAABTjBMAAAAAAMAU4wQAAAAAADDFOAEAAAAAAEwxTgAAAAAAAFOMEwAAAAAAwJSXdQAAAMha qampunr1qq5evaorV64oKSlJN27c0PXr15WUlKRr167pxo0bSkpKUnx8vJKSkpSYmKjr168rNTX1 F/9ZGRkZio+Pv+3/7sDAQHl7e//i3/Pw8FC+fPnk5+en3LlzK2/evPL19VWePHkUEBAgHx8f5c+f X76+vvL391fevHkVFBSkoKAg+fr6Zsn/JgAAwLExTgAA4KCSkpJ04cIFnTt3TnFxcTp//rxiY2MV Hx+vq1ev/vzX//1JTEy0Ts8yfn5+Pw8VefPmVb58+ZQvX76f/72goCAVKVJERYoUUaFChVSkSBEV LlxY/v7+1ukAACATPDIyMjKsIwAAcCdJSUk6e/aszp49q5iYGMXExCguLk5xcXE6d+7cz4PElStX rFOdVmBg4M9DRaFChVSsWDEVKlRI999/v0qUKKHixYvrgQceYMQAAMAxZDBOAACQxS5duqSTJ08q OjpaZ8+eVXR0tM6cOaOzZ8/qzJkzOnfunPi/X8dQsGBBlShRQiVKlPjVcFG6dGkVLVrUOhEAAHfA OAEAQGalpaUpOjpahw8f1pEjR3Tq1Kmff86ePavk5GTrRGQRb29vlShRQqVKlfrVT4UKFTh5AQBA 1mCcAADg9yQnJysyMlJHjhz5+ScqKkonTpxQQkKCdR6M+fr6qlSpUipbtqwqVKigihUrqlKlSnrw wQcVEBBgnQcAgDNhnAAAIDk5WceOHdPRo0d/Pg1x5MgRnThxQikpKdZ5cDIeHh4qWbLkz2PFf48W gYGB1nkAADgixgkAgHu5cuWK9uzZo71792rv3r3at2+fIiMjf/UJTSCr/We0qF69uqpXr65q1aqp evXquu+++6zTAACwxjgBAHBdZ8+e/XmE+M9PdHS0dRbwC/fee+/Pg8V/fsqUKSMPDw/rNAAAcgrj BADANVy9elURERHauXOnIiIitGvXLl24cME6C7gjefLkUXBwsOrUqaM6deqodu3afDkEAODKGCcA AM7n1q1b2r17t7Zt26atW7fq+++/V2xsrHUWkK2CgoL08MMPq379+qpRo4YaNGig/PnzW2cBAJAV GCcAAI7v+vXr2rZtm7Zs2aIdO3Zo165dfC0Dbs/Hx0fBwcGqXbu2GjRooAYNGqhIkSLWWQAA3AnG CQCA44mPj9fWrVu1efNmbd68WXv37uXBSuA2lCtXTg0aNFDDhg31yCOPqFSpUtZJAADcDsYJAIC9 6OhorV+/Xlu3btW2bdt06tQp6yTAJeTNm1e1atVS8+bNVb9+fdWqVUs+Pj7WWQAA/C/GCQBAzktM TNS3336rTZs2adOmTTp48KD4vyMg+91zzz1q1qyZWrRooRYtWqh48eLWSQAASIwTAICckJaWpt27 d/88Rmzfvl3JycnWWYDbq1Chglq2bKmQkBA1atRIAQEB1kkAAPfEOAEAyB5RUVHatGmTNm7cqK+/ /lrx8fHWSQD+gK+vr+rXr68WLVooJCRE1atXl4eHh3UWAMA9ME4AALJGcnKytmzZotWrV+uLL75Q VFSUdRKAu1C0aFG1adNGbdu2VUhIiAIDA62TAACui3ECAHDnYmJitGzZMq1evVpbt27VrVu3rJMA ZINcuXKpWrVqCg0NVVhYmIKDgzlVAQDISowTAIDbl5GRob179+qLL77Q6tWrtXv3bqWnp1tnAchh FSpUUGhoqNq0aaMGDRrIy8vLOgkA4NwYJwAAfyw5OVnr16/XokWLtGbNGl26dMk6CYAD8ff3V9Om TdWpUyc99thjypMnj3USAMD5ME4AAH4tKSlJGzZs0KJFi7R69WpduXLFOgmAE/Dz81Pz5s3VqVMn tW/fXkFBQdZJAADnwDgBAPiX5ORkffnll1qyZIlWrFihixcvWicBcGIBAQFq3bq1OnbsqLZt23Ki AgDwRxgnAMCdpaWladOmTZo3b55WrlzJ5z4BZAs/Pz+1bNlSnTt3Vrt27ZQ7d27rJACAY2GcAAB3 k5aWpjVr1mjRokVatWoVgwSAHPWfqx9du3ZV+/bt5ePjY50EALDHOAEA7iIyMlLz5s3TvHnzFBUV ZZ0DACpSpIiefPJJdenSRbVq1bLOAQDYYZwAAFcWGxurzz//XPPmzdOuXbuscwDgd5UtW1ZdunRR ly5dVK5cOescAEDOYpwAAFeTmJiouXPnatasWdqxY4fS09OtkwAgUypWrKiuXbvqmWeeUaFChaxz AADZj3ECAFzFvn37NH36dM2dO1eXLl2yzgGAu+bv76+OHTuqe/fuatSokTw9Pa2TAADZg3ECAJxZ dHS0pk+frgULFuj48ePWOQCQbYoWLapOnTqpR48eqlKlinUOACBrMU4AgLNJT0/X2rVrNX36dK1a tUrJycnWSQCQYzw9PdW4cWN1795djz/+uPz8/KyTAAB3j3ECAJzF6dOnNXHiRM2cOVPnzp2zzgEA c3ny5FHnzp31/PPPq2rVqtY5AIA7xzgBAI5u8+bNmjhxopYuXcopCQD4DR4eHmrevLl69+6tsLAw eXl5WScBADKHcQIAHNGFCxc0bdo0TZkyRSdPnrTOAQCnkS9fPnXt2lX9+/dXqVKlrHMAALeHcQIA HMnevXs1YcIEzZs3T4mJidY5AOC0vLy81K5dO/Xu3VvNmjWTh4eHdRIA4PcxTgCAtVu3bmnWrFma NGmS9uzZY50DAC6nVKlSevbZZ/Xss88qf/781jkAgF9jnAAAK1evXtXUqVM1btw4/fDDD9Y5AODy ChYsqJ49e6pPnz4qXry4dQ4A4P8xTgBATjtw4IBGjx6thQsXKikpyToHANyOp6enmjZtqn79+ik0 NJQrHwBgj3ECAHJCWlqali5dqvDwcG3bts06BwDwb+XLl1fv3r3Vs2dP+fv7W+cAgLtinACA7JSa mqrPP/9cH3zwgQ4cOGCdAwD4HSVKlNDLL7+snj17KiAgwDoHANwN4wQAZIebN29q2rRp+vDDD3lP AgCcSMGCBdW3b1/17dtX99xzj3UOALgLxgkAyEqxsbF67733NGPGDF27ds06BwBwh3x8fPTkk0/q 9ddfV/ny5a1zAMDVMU4AQFaIiorS22+/zSOXAOBiPD091aZNGw0ZMkS1atWyzgEAV8U4AQB34+TJ k3rvvfc0e/ZsRgkAcGGenp4KCwvT66+/rocfftg6BwBcDeMEANyJEydOaMSIEZozZ45SU1OtcwAA OahNmzZ68803Vbt2besUAHAVjBMAkBl79uzR0KFD9cUXX4hfPgHAvdWvX1+DBg1SWFiYdQoAODvG CQC4Hd9//72GDRvGKAEA+BVGCgC4a4wTAPBHdu/ereHDhzNKAAD+VL169TR48GBGCgDIPMYJAPgt J06c0NChQ7VgwQKlp6db5wAAnEizZs00YsQI3qQAgNvHOAEA/+3EiRN67bXXtGTJEkYJAMBdad68 uUaOHMnXPQDgzzFOAIAk/fTTTxo+fLimT5+ulJQU6xwAgAtp3ry5Ro8erapVq1qnAICjYpwA4N7O nz+vESNGaOrUqbpx44Z1DgDARXl6eqpjx44aOXKkypQpY50DAI6GcQKAe7p27ZpGjhypcePGKSEh wToHAOAmvL291b17dw0dOlTFihWzzgEAR8E4AcC9pKena+bMmRoyZIh+/PFH6xwAgJvKmzevBg0a pJdeekm5c+e2zgEAa4wTANzHokWLNGTIEB0/ftw6BQAASdI999yjN954Q3379lWuXLmscwDACuME ANe3b98+DRgwQF9++aV1CgAAv6lChQoaNWqU2rZta50CABYYJwC4rtjYWA0aNEhz587ls6AAAKfQ vHlzffTRR3rooYesUwAgJzFOAHA9CQkJeueddzR27FglJiZa5wAAkCleXl565pln9NZbb6lw4cLW OQCQExgnALiWZcuWacCAATp16pR1CgAAd6VgwYIaPny4nnvuOd6jAODqGCcAuIb9+/erX79++vbb b61TAADIUmXLllV4eLhat25tnQIA2SXD07oAAO7GxYsX1bVrVwUHBzNMAABcUlRUlNq0aaOwsDD9 8MMP1jkAkC0YJwA4pbS0NIWHh6t8+fKaPXs2D14CAFze6tWrValSJQ0ePFgJCQnWOQCQpbjWAcDp bN++XS+88IL27NljnQIAgInixYtrxIgR6tq1q3UKAGQFrnUAcB5XrlxRnz591LBhQ4YJAIBbO3v2 rLp166bHHnuMqx4AXALjBACHl56ervDwcJUqVUrjx49XWlqadRIAAA5h+fLlKl++vAYPHqxbt25Z 5wDAHeNaBwCHdujQIT333HPatm2bdQoAAA6tdOnSGj9+vFq0aGGdAgCZxbUOAI4pISFB/fv3V3Bw MMMEAAC34eTJk2rZsqWeeOIJnT9/3joHADKFkxMAHM66devUp08fnTp1yjoFAACnlD9/fg0dOlQv vPCCPD3580gADi+DcQKAw7h06ZIGDhyoGTNmiF+aAAC4ey1atND48eNVunRp6xQA+CNc6wDgGObM maMHH3xQ06dPZ5gAACCLbNiwQQ899JDeffddpaamWucAwO/i5AQAU1FRUerRo4e2bNlinQIAgEur VKmSpk2bplq1almnAMD/4uQEABtpaWl6//33Va1aNYYJAABywOHDh1W3bl316tVLiYmJ1jkA8Auc nACQ444dO6YePXpo+/bt1ikAALilUqVKaerUqWrSpIl1CgBInJwAkJP+c1qievXqDBMAABg6deqU mjVrpl69eun69evWOQDAyQkAOYO3JQAAcEzlypXTZ599pgYNGlinAHBfnJwAkL0yMjIUHh6uqlWr MkwAAOCAIiMj1ahRI7300ku6deuWdQ4AN8XJCQDZ5sSJE/rb3/6mnTt3WqcAAIDb8Je//EWzZs3i FAWAnMbJCQDZY/LkyQoODmaYAADAifzwww9q0qSJBg8erJSUFOscAG6EkxMAstTFixfVq1cvLV26 1DoFAADchYcfflhz5sxRuXLlrFMAuD5OTgDIOqtWrVLlypUZJgAAcAG7du1StWrVFB4eLv48E0B2 Y5wAcNeSkpI0YMAAPfroo4qLi7POAQAAWeTmzZt68cUX9cQTT+jSpUvWOQBcGNc6ANyVw4cPq3Pn zjp48KB1CgAAyEbFihXTrFmz1KxZM+sUAK6Hax0A7kx6erqGDRum6tWrM0wAAOAGfvrpJ4WEhKh/ //5KSkqyzgHgYjg5ASDTYmNj1a1bN23cuNE6BQAAGKhUqZIWLFigypUrW6cAcA2cnACQOWvXrlW1 atUYJgAAcGOHDx9WrVq1FB4ebp0CwEVwcgLAbUlOTtbAgQM1ZswYXuwGAAA/69ixo6ZMmaL8+fNb pwBwXhmMEwD+1JkzZ/TXv/5VW7ZssU4BAAAOqFy5cpo/f76Cg4OtUwA4J651APhjy5cvV7Vq1Rgm AADA74qMjFTdunX1ySefcMISwB3h5ASA35SUlKR+/fpp8uTJ1ikAAMCJtG3bVrNmzVKBAgWsUwA4 D651APi1U6dOqVOnTtqzZ491CgAAcEIlSpTQ559/rrp161qnAHAOXOsA8EtLly5VcHAwwwQAALhj Z86cUcOGDfX+++9bpwBwEpycACBJSklJ0YABA/gaBwAAyFKPPfaYpk+frqCgIOsUAI6Lax0ApIsX L+rpp5/W+vXrrVMAAIALqlKlihYtWqRy5cpZpwBwTFzrANzdzp07FRwczDABAACyzYEDB/Twww9r 0aJF1ikAHBTjBODG3n//fTVo0EBnzpyxTgEAAC7u2rVreuKJJ9SrVy+lpKRY5wBwMFzrANzQzZs3 1bNnT82dO9c6BQAAuKFHHnlEixcv1r333mudAsAx8OYE4G5iY2PVsWNH7dixwzoFAAC4sRIlSmjZ smWqUaOGdQoAe7w5AbiTiIgI1axZk2ECAACYO3PmjBo1aqTFixdbpwBwAIwTgJtYuHChmjZtqp9+ +sk6BQAAQJKUmJioJ598UiNHjuRT5oCb41oH4OJSUlLUt29fTZ482ToFAADgd7Vp00bz5s1TUFCQ dQqAnMebE4Aru379urp06aLVq1dbpwAAAPypatWqafny5XrggQesUwDkLMYJwFUdP35coaGhOnHi hHUKAADAbStQoICWLFmixo0bW6cAyDk8iAm4oq+//lr16tVjmAAAAE7n8uXLatmypWbMmGGdAiAH MU4ALmb69Olq1aqVLl++bJ0CAABwR5KTk9W9e3f1799f6enp1jkAcgDXOgAXkZ6erpdeekmffvqp dQoAAECW6dChg2bPni1/f3/rFADZhzcnAFdw69Ytde/eXQsWLLBOAQAAyHL16tXTsmXLdO+991qn AMgejBOAs4uJiVFYWJgOHDhgnQIAAJBtihUrphUrVqhmzZrWKQCyHg9iAs7syJEjatiwIcMEAABw eT/99JOaNWumjRs3WqcAyAaME4CTWrdunWrXrq3o6GjrFAAAgBxx7do1tW7dWhMnTrROAZDFGCcA JzRnzhy1b99eCQkJ1ikAAAA5Ki0tTb1799bgwYPFDXXAdTBOAE5m2LBh6tq1q5KTk61TAAAAzLz/ /vv6+9//rpSUFOsUAFmABzEBJ5GRkaFXX31Vo0ePtk4BAABwGO3bt9e8efP41Cjg3PhaB+AMbt68 qc6dO2vFihXWKQAAAA6nSpUqWrNmje677z7rFAB3hnECcHQXLlxQWFiYIiIirFMAAAAcVsmSJbV2 7Vo9+OCD1ikAMo9xAnBksbGxatWqFZ8KBQAAuA2FCxfW2rVrVb16desUAJmTwYOYgIM6ePCgatSo wTABAABwm+Li4vTII49o/fr11ikAMolxAnBAO3fuVOPGjRUbG2udAgAA4FQSExPVrl07LVy40DoF QCYwTgAOZuPGjQoJCdHly5etUwAAAJxScnKyunTposmTJ1unALhNjBOAA1m7dq0effRRJSQkWKcA AAA4tbS0ND333HP69NNPrVMA3AbGCcBBTJ06VWFhYbpx44Z1CgAAgEvIyMhQ//791b9/f/EdAMCx MU4ADmDUqFF69tlnlZaWZp0CAADgcj799FN169ZNqamp1ikAfgfjBGBsxIgRevXVV1nzAQAAstHs 2bMZKAAH5pHBPxEBZgYMGKAPP/zQOgMAAMBttG7dWkuXLpWfn591CoD/l8E4ARjIyMhQnz59NGHC BOsUAAAAt9OqVSstXbpUuXPntk4B8C+ME0BOS09P1/PPP69JkyZZpwAAALitRo0aafXq1QoMDLRO ASBl8OYEkIMyMjL08ssvM0wAAAAY27x5szp16qRbt25ZpwAQb04AOSY9PV09e/bUtGnTrFMAAADw bw0aNNCaNWuUJ08e6xTAnXGtA8gJqamp6tq1q+bPn2+dAgAAgP9Rr149rV27Vnnz5rVOAdwV1zqA 7Jaenq7nnnuOYQIAAMBBbd++XaGhobp+/bp1CuC2ODkBZKO0tDR16dJFCxcutE4BAADAn6hdu7Y2 bNjACQog53FyAsgu6enp6tGjB8MEAACAk4iIiFCrVq04QQEYYJwAssF/Hr+cOXOmdQoAAAAyYceO HWrdurUSEhKsUwC3wjgBZLGMjAz16tWLr3IAAAA4qW3btumxxx7TzZs3rVMAt8E4AWSx1157TVOn TrXOAAAAwF3YtGmTOnfurJSUFOsUwC3wICaQhV5++WV9/PHH1hkAAADIIq1atdLy5cvl6+trnQK4 Mh7EBLLKwIEDGSYAAABczLp16zhBAeQAxgkgC4wePVqjR4+2zgAAAEA2WLZsmXr27CkOnQPZh2sd wF36+OOP9fLLL1tnAAAAIJv9/e9/17Rp0+Th4WGdArgarnUAd2PGjBl65ZVXrDMAAACQA2bMmKHX X3/dOgNwSZycAO7QF198occee4z7hwAAAG7mgw8+0MCBA60zAFeSwTgB3IGIiAg1b95cCQkJ1ikA AADIYZ6enpo1a5b++te/WqcAroJxAsisPXv2qEmTJrp27Zp1CgAAAIzkypVL8+fPV6dOnaxTAFfA OAFkxrFjx9SwYUNduHDBOgUAAADGfHx8tHLlSrVs2dI6BXB2jBPA7YqOjtYjjzyiM2fOWKcAAADA Qfj7+2vDhg2qX7++dQrgzBgngNtx7do1NWrUSPv27bNOAQAAgIMpXLiwtm3bptKlS1unAM6KT4kC f+bWrVsKDQ1lmAAAAMBviouLU/PmzRUbG2udAjgtxgngD6SlpenJJ5/Uli1brFMAAADgwE6fPq2W LVsqPj7eOgVwSowTwB/o27evVq5caZ0BAAAAJ3Dw4EF16NBBSUlJ1imA02GcAH7Hp59+qokTJ1pn AAAAwIl8/fXX6tu3r3UG4HQYJ4DfMHPmTL344ovWGQAAAHBCU6dO1WuvvWadATgVvtYB/I8NGzYo NDRUKSkp1ikAAABwYuHh4erXr591BuAM+JQo8N/27t2rRo0a6fr169YpAAAAcHKenp5auHChOnbs aJ0CODrGCeA/4uLiVLt2bUVHR1unAAAAwEUEBARoy5Ytql69unUK4MgyeHMCkJSYmKjWrVszTAAA ACBLJSYmqk2bNoqJibFOARwa4wTcXnp6uv72t79p79691ikAAABwQefOnVObNm109epV6xTAYTFO wO299dZbWrZsmXUGAAAAXNjhw4f1j3/8Q9yqB34b4wTc2uTJkzV8+HDrDAAAALiBxYsXa+DAgdYZ gEPiQUy4ra+//lotW7bkk6EAAADIURMmTNBzzz1nnQE4Er7WAfcUFRWlOnXq6PLly9YpAAAAcDPe 3t5au3atmjVrZp0COArGCbifK1euqG7dujp+/Lh1CgAAANxU/vz5tWPHDpUvX946BXAEfEoU7iU9 PV3dunVjmAAAAICpK1euqGPHjrp+/bp1CuAQGCfgVgYPHqxVq1ZZZwAAAAA6fPiwHn/8caWlpVmn AOYYJ+A25s+fr1GjRllnAAAAAD/bsGGD3nzzTesMwBxvTsAtHDx4UPXq1VNCQoJ1CgAAAPALnp6e Wrp0qdq3b2+dAljhQUy4vvPnz+vhhx9WTEyMdQoAAADwm3Lnzq2tW7cqODjYOgWwwIOYcG3Jycnq 0KEDwwQAAAAc2s2bN9WhQwdduHDBOgUwwTgBl/bKK69o27Zt1hkAAADAn4qOjlbnzp2VmppqnQLk OMYJuKypU6dq7Nix1hkAAADAbfvyyy81aNAg6wwgx/HmBFzSvn37VK9ePd28edM6BQAAAMgUDw8P LVy4UI8//rh1CpBTeBATrufixYuqUaMG70wAAADAaQUEBCgiIkKVKlWyTgFyAg9iwrWkp6erW7du DBMAAABwaomJierQoYOuXbtmnQLkCMYJuJRPPvlEa9assc4AAAAA7lpkZKT69+9vnQHkCK51wGVs 3LhRrVq1Unp6unUKAAAAkGXGjx+v3r17W2cA2Yk3J+AafvrpJwUHBysuLs46BQAAAMhSvr6+2rp1 q2rWrGmdAmQX3pyA80tNTVWXLl0YJgAAAOCSkpKS1LFjR126dMk6Bcg2XtYBwN0aMmSINm/ebJ0B AA4hICBARYsWVeHChZUvXz4FBQX94q//+fHx8VFgYKACAwPl4+OjfPnyydfXV/7+/pn670tLS9O1 a9d048YNJSUlKT4+XsnJyUpISFBiYqKuXr2q+Ph4xcfH//yvr169qvPnz//8AwD4czExMerWrZtW rlwpT0/+jBmuh2sdcGrr169XmzZteGcCgMvLlSuXihYtqgceeEAlSpSFFJM5AAAgAElEQVRQ8eLF f/5r4cKFVbhwYRUtWlQBAQHWqZmSmpqq8+fP69y5c4qNjVVcXJzOnDmjmJgYnT17VmfOnFF0dLRu 3LhhnQoADuGjjz7SSy+9ZJ0BZDXenIDziomJUbVq1XTlyhXrFADIEt7e3vrLX/6ismXLqly5cipb tuzPP/fdd5+8vNz3wOPly5d18uRJRUVFKTIyUpGRkYqKilJUVJSuXr1qnQcAOcbLy0ubN29WvXr1 rFOArMQ4AeeUlpamJk2aaMuWLdYpAJBp3t7eKlu2rCpVqvSLn7Jly7r1AHGnzp07p8OHD//qJz4+ 3joNALJFiRIltG/fPhUoUMA6BcgqjBNwTm+//bbefPNN6wwA+FM+Pj6qWrWqatSooZo1a6pGjRqq WLGifHx8rNNc3pkzZ7Rnzx7t3r1b33//vXbv3q0LFy5YZwFAlujYsaMWL15snQFkFcYJOJ+IiAg9 8sgjSklJsU4BgF/w9PRUhQoVVKtWLdWuXVs1a9ZUlSpV5O3tbZ2Gf4uJidH333+v7777Tjt37tT3 33+v69evW2cBwB2ZMWOGunXrZp0BZAXGCTiXS5cuqVq1ajp79qx1CgCoYMGCatCggWrXrq06deqo Ro0ayps3r3UWMiEtLU1HjhzRd999p4iICG3dulVHjx61zgKA2+Ln56eIiAhVqVLFOgW4W4wTcC4d OnTQsmXLrDMAuKmCBQuqYcOGaty4sRo3bqzKlSvzOTcXFBcXp82bN2vz5s365ptvdPToUfHbJQCO qlKlStq1a5dy585tnQLcDcYJOI8JEybo+eeft84A4EZ8fHz0yCOPqFWrVmrRooUeeugheXh4WGch h50/f15fffWV1q1bp3Xr1ikuLs46CQB+oU+fPho7dqx1BnA3GCfgHPbv3686dero1q1b1ikAXFzJ kiXVqlUrtW7dWk2bNlVgYKB1EhxIRkaG9u7dq3Xr1mnt2rXauXOnUlNTrbMAQMuWLdOjjz5qnQHc KcYJOL7k5GTVrl1b+/bts04B4IJ8fX0VEhKisLAwtWjRQiVLlrROghO5ceOGtm/frlWrVmnJkiX6 8ccfrZMAuKlChQrp4MGDKly4sHUKcCcYJ+D4XnnlFX300UfWGQBcSN68edW6dWuFhoaqdevWKliw oHUSXEBqaqq2b9+u1atXa8WKFYqMjLROAuBmQkJCtH79eq4gwhkxTsCxffXVVwoJCVF6erp1CgAn V7hwYT355JPq1KmT6tatq1y5clknwcWdPn1aK1as0KJFi7Rt2zbrHABuYsyYMerbt691BpBZjBNw XNevX1e1atV06tQp6xQATiowMFDt2rVTp06d1KpVK/n5+VknwU3t379fCxcu1Oeff66TJ09a5wBw YYGBgdq7d6/KlCljnQJkBuMEHFfXrl01e/Zs6wwATsbHx0ft27fX3/72N7Vo0UK+vr7WScAvHD58 WIsWLdLMmTN1+vRp6xwALig4OFg7duyQj4+PdQpwuxgn4Jg+//xzPfXUU9YZAJxIcHCwnn76aXXu 3FlFihSxzgH+VEpKitatW6c5c+Zo5cqVfJEKQJYaMmSI3nrrLesM4HYxTsDxnDlzRlWqVFF8fLx1 CgAHV6BAAT399NN65plnVLVqVesc4I5duXJF8+bN02effaa9e/da5wBwAV5eXvr2229Vt25d6xTg djBOwLFkZGSoZcuW2rhxo3UKAAfl7e2tRx99VM8++6yaNGnCw5ZwOcePH9f06dM1Y8YMxcXFWecA cGKlSpXSvn37lCdPHusU4M8wTsCxTJ06VT179rTOAOCAChUqpB49eqhXr14qWbKkdQ6Q7W7duqWF Cxdq/PjxioiIsM4B4KT69u2rMWPGWGcAf4ZxAo7j5MmTqlKlim7cuGGdAsBBeHh4qFmzZurXr5/a tm0rT09P6yTARGRkpKZNm6YpU6bo8uXL1jkAnMy6devUsmVL6wzgjzBOwDFkZGSoWbNm+vrrr61T ADgAPz8//fWvf1WfPn1UvXp16xzAYcTHx2v69OkaO3Ysn9oGcNseeOABHTx4kOsdcGSME3AMkydP Vq9evawzABgrXLiwnn/+efXu3VuFChWyzgEcVnp6ulasWKGPP/5YW7Zssc4B4AT69OmjsWPHWmcA v4dxAvZiY2NVqVIlXblyxToFgJF69epp8ODBXN0A7kBkZKTGjRunKVOm6ObNm9Y5AByUp6entm7d ytc74KgYJ2CvTZs2Wrt2rXUGAAMNGjTQG2+8wT1YIAucOXNGH3zwgT777DNGCgC/qWzZstq/f79y 585tnQL8rwz+eAqmZs2axTABuKGQkBB988032rJlC8MEkEVKlCihMWPG6NSpUxowYIACAwOtkwA4 mKioKL355pvWGcBv4uQEzPz444+qXLmy4uPjrVMA5AAPDw+1bdtWb7zxhmrXrm2dA7i8S5cu6ZNP PtGYMWN09epV6xwADsLT01Pffvut6tevb50C/DeudcBOu3bttGrVKusMANksV65c6tKliwYPHqyK FSta5wBuJzExUVOnTtW7776ruLg46xwADuDBBx/U3r175efnZ50C/AfXOmBj+fLlDBOAGwgNDdXO nTs1a9YshgnASEBAgPr376+jR49qyJAhyps3r3USAGPHjh3TqFGjrDOAX+DkBHLclStXVKFCBf70 BnBhrVq10ltvvaWHH37YOgXA/7h8+bI++ugjffLJJ0pMTLTOAWDEx8dHe/bsUaVKlaxTAImTE7Aw ePBghgnARTVs2FA7d+7U2rVrGSYAB1WgQAG98847iomJ0aBBgzjWDbip5ORk9ejRQ+np6dYpgCRO TiCHRUREqF69evwiCLiYkiVLasSIEercubM8PDyscwBkwtGjR/XPf/5TK1assE4BYGDatGnq3r27 dQbAg5jIOUlJSapataqOHz9unQIgi+TPn19vvPGG+vTpI19fX+scAHdh69atGjBggCIiIqxTAOSg oKAgHTlyRMWKFbNOgXvjWgdyzujRoxkmABfh5+enoUOH6syZM3r55ZcZJgAX0KBBA+3cuVMrV65U mTJlrHMA5JCrV6/qlVdesc4AuNaBnHHs2DFVq1ZNSUlJ1ikA7lJYWJhGjRql8uXLW6cAyCY3b97U Rx99pPfee08JCQnWOQBywKpVqxQaGmqdAffFtQ5kv4yMDDVp0kSbN2+2TgFwFx566CF9/PHHatas mXUKgBwSGxurN954QzNmzOC9KMDFPfDAAzp8+LACAgKsU+CeuNaB7Dd79myGCcCJFSpUSDNnztT+ /fsZJgA3U7RoUX322Wfas2eP6tevb50DIBtFR0fr7bffts6AG+PkBLJVfHy8KlSooHPnzlmnAMik XLlyqU+fPho2bJjy589vnQPAWEZGhmbPnq1XX32VT4IDLsrHx0d79+5VxYoVrVPgfjg5gez1z3/+ k2ECcEKVK1fWV199pfDwcIYJAJIkDw8Pde3aVYcOHdI//vEPeXry20jA1SQnJ+vZZ58Vf34NC5yc QLbZtWuX6tSpwx1VwIkEBgbqww8/5B88APypffv2qUePHtqzZ491CoAsNm/ePHXu3Nk6A+6FBzGR fRo3bsxbE4ATCQkJ0aRJk/SXv/zFOgWAk0hNTdWHH36ooUOH8kUuwIXcf//9Onr0qPz9/a1T4D64 1oHswSOYgPPIkyePxowZo3Xr1jFMAMgULy8vDRo0SDt27FBwcLB1DoAsEhMTo7feess6A26GkxPI clevXlX58uV5LAtwAiEhIZo6daruv/9+6xQATi41NVWjRo3S8OHDOUUBuAAfHx8dOHBA5cuXt06B e+DkBLLeO++8wzABOLiCBQtq4cKF2rBhA8MEgCzh5eWlf/7znzpy5IgaN25snQPgLiUnJ+uFF16w zoAb4eQEstSxY8dUpUoVpaSkWKcA+B3t27fXxIkTVaRIEesUAC4qIyNDU6ZM0csvv6zExETrHAB3 YeXKlQoLC7POgOvjQUxkrZCQEG3atMk6A8BvCAgI0AcffKDevXvLw8PDOgeAGzh06JC6devGFz0A J1aqVCkdPnxYfn5+1ilwbVzrQNZZvXo1wwTgoBo2bKgjR47o+eefZ5gAkGMqV66s7777Tu+99568 vb2tcwDcgVOnTik8PNw6A26AkxPIEklJSapYsaJOnTplnQLgv/j4+OiDDz7QCy+8IE9P9mgAdr77 7js9/fTTioqKsk4BkEmBgYGKjIxU0aJFrVPgujg5gawxfvx4hgnAwZQvX17btm1T//79GSYAmKtV q5a+//57Pfvss9YpADIpISFBQ4YMsc6Ai+PkBO5afHy8ypYtq4sXL1qnAPi3zp07a+LEicqbN691 CgD8yqxZs9SnTx8lJCRYpwC4TV5eXtq3b58qVapknQLXxMkJ3L3hw4czTAAOIjAwULNnz9a8efMY JgA4rK5du+rQoUOqU6eOdQqA25SamsqnRZGtODmBuxIZGanKlSvz6VDAAVSpUkULFy5U+fLlrVMA 4LYkJSXp1Vdf1ZgxY8RvSQHnsHr1arVt29Y6A66HkxO4O4MHD2aYABxAv379FBERwTABwKn4+voq PDxcy5YtU/78+a1zANyGAQMG8Pt/ZAvGCdyxb7/9VsuWLbPOANyar6+vJk2apPDwcL4/DsBptW/f Xjt27OAuO+AEjh07pqlTp1pnwAVxrQN3JD09XTVr1tTevXutUwC3VaFCBS1ZskQVKlSwTgGALHHr 1i31799fkydPtk4B8AcKFSqkqKgoBQUFWafAdXCtA3dm/vz5DBOAoccff1wREREMEwBcip+fnyZN mqSZM2fK39/fOgfA77hw4YLeffdd6wy4GE5OINNSUlL04IMP6tSpU9YpgNvx9PTUm2++qSFDhsjT k30ZgOvasWOHnnjiCZ09e9Y6BcBv8Pf3V1RUlIoVK2adAtfAyQlk3oQJExgmAAOBgYFatmyZhg4d yjABwOXVrVtXu3bt4nOjgIO6ceOGhg4dap0BF8LJCWTKjRs3VKZMGcXGxlqnAG7lwQcf1MqVK1W2 bFnrFADIUampqXrxxRc1btw46xQA/8Pb21tHjx5V6dKlrVPg/Dg5gcz56KOPGCaAHNasWTNt27aN YQKAW/Ly8tLYsWM1adIkeXl5WecA+C8pKSl67bXXrDPgIjg5gdt26dIllS5dWlevXrVOAdzG3//+ d02cOFG+vr7WKQBgbsWKFXr66aeVkJBgnQLg3zw8PLR7924FBwdbp8C5cXICt+/9999nmAByiIeH h0aOHKnp06czTADAv7Vv315btmzRfffdZ50C4N8yMjL0+uuvW2fABXByArfl7NmzKlu2rG7dumWd Arg8f39/zZ07V48++qh1CgA4pHPnzqldu3batWuXdQqAf/vqq6/UpEkT6ww4L05O4Pa88847DBNA DihevLi2b9/OMAEAf6BIkSL69ttv9eSTT1qnAPi3IUOGWCfAyXFyAn/qxIkTqlixolJSUqxTAJdW vnx5ffHFF7x4DQC3KTU1Vf369dOECROsUwBIWrVqlUJDQ60z4Jw4OYE/9/bbbzNMANmsTp062rZt G8MEAGSCl5eXxo8fr5EjR8rDw8M6B3B7w4YNE3/2jTvFyQn8oaNHj+qhhx5SWlqadQrgsh5//HHN mTOHhy8B4C7MmzdP3bt3V3JysnUK4NaWLFmiDh06WGfA+XByAn/snXfeYZgAslGvXr20YMEChgkA uEtdunTR2rVrlTdvXusUwK0NHTpU6enp1hlwQowT+F0nTpzQwoULrTMAl/Xee+9p4sSJypUrl3UK ALiEpk2b6ssvv9S9995rnQK4rUOHDmnNmjXWGXBCjBP4XcOHD1dqaqp1BuCS3nnnHQ0aNMg6AwBc Ts2aNfXll1+qSJEi1imA2xoyZAhvTyDTeHMCv+n48eOqVKkSVzqALObh4aFRo0bplVdesU4BAJd2 4sQJhYSE6PTp09YpgFtavny52rdvb50B58GbE/htI0aMYJgAspinp6emTJnCMAEAOaBMmTLauXOn qlatap0CuKXhw4dzegKZwskJ/AqnJoCs5+XlpdmzZ+upp56yTgEAt3LlyhW1bdtWO3bssE4B3M6K FSvUrl076ww4B05O4NfeffddhgkgC+XKlUvTpk1jmAAAA/nz59eaNWtUp04d6xTA7QwbNozTE7ht nJzAL0RGRqpixYqME0AW8fb21pw5c/TEE09YpwCAW7t27ZpatWrFCQogh61cuVJhYWHWGXB8nJzA L33yyScME0AWyZ07t1auXMkwAQAOIG/evNq0aZOaNm1qnQK4lQ8++MA6AU6CkxP42U8//aRSpUop KSnJOgVwenny5NHq1avVsGFD6xQAwH+5ceOG2rVrpy+//NI6BXAb33zzjRo1amSdAcfGyQn8v3Hj xjFMAFnA399fy5YtY5gAAAf0n1+jGzRoYJ0CuI0PP/zQOgFOgJMTkCTFx8fr/vvv1/Xr161TAKfm 5+enNWvWqEmTJtYpAIA/cOPGDbVs2VJbt261TgHcwp49e1S9enXrDDguTk7gXyZMmMAwAdwlb29v LVy4kGECAJyAv7+/Vq9ezT8sATlk9OjR1glwcJycgG7evKmSJUvq/Pnz1imA0/L09NTs2bPVpUsX 6xQAQCacP39eDRs21PHjx61TAJeWK1cuHT9+XKVLl7ZOgWPi5ASkmTNnMkwAd2ns2LEMEwDghO69 915t3LhR999/v3UK4NLS0tL08ccfW2fAgXFyws2lpqaqfPnyOnXqlHUK4LRGjBih1157zToDAHAX IiMj1bBhQ8XFxVmnAC7Lz89PP/zwg4oUKWKdAsfDyQl3t2TJEoYJ4C68+uqrDBMA4ALKlSundevW KV++fNYpgMu6deuWxo0bZ50BB8XJCTdXq1Yt7dq1yzoDcEpdu3bVjBkz5OHhYZ0CAMgiGzZsUFhY mJKTk61TAJdUsGBBRUdHKyAgwDoFjoWTE+5s8+bNDBPAHXrqqac0ffp0hgkAcDEtWrTQ4sWL5e3t bZ0CuKRLly5p2rRp1hlwQIwTbiw8PNw6AXBKzZo104wZM+TpyS+hAOCKwsLCNGHCBAZoIJt8+umn Sk9Pt86Ag+F31m4qOjpaq1atss4AnE6dOnW0atUq+fr6WqcAALJRjx499P7771tnAC7pxIkTWr9+ vXUGHAzjhJsKDw9XamqqdQbgVIoXL67Fixcrd+7c1ikAgBwwcOBAPfPMM9YZgEv68MMPrRPgYHgQ 0w1du3ZNxYsX1/Xr161TAKeRP39+bdu2TRUqVLBOAQDkoLS0NHXs2FErVqywTgFczr59+1S1alXr DDgGHsR0RzNmzGCYADLB19dXy5cvZ5gAADeUK1cuzZkzR9WrV7dOAVzOmDFjrBPgQDg54WbS09NV vnx5nThxwjoFcBqTJ09Wz549rTMAAIZiYmJUp04dxcbGWqcALsPX11fR0dEqXLiwdQrscXLC3axe vZphAsiEV199lWECAKD7779fa9asUUBAgHUK4DKSkpI0efJk6ww4CE5OuJlmzZrpq6++ss4AnEJI SIjWrFkjLy8v6xQAgIOYNWuWunXrZp0BuIyiRYvq9OnT8vHxsU6BLU5OuJOjR4/q66+/ts4AnEKl SpW0ZMkShgkAwC907dpVr7/+unUG4DJiY2O1dOlS6ww4AMYJNzJ27FhxUAb4c/fcc49WrVqlPHny WKcAABzQ22+/rU6dOllnAC5j7Nix1glwAFzrcBOJiYkqXry44uPjrVMAh+bp6akVK1YoNDTUOgUA 4MCuXr2qOnXq6NixY9YpgEs4fPiwKlasaJ0BO1zrcBdz585lmABuw4gRIxgmAAB/KigoSKtWrVK+ fPmsUwCXMG7cOOsEGOPkhJuoVq2a9u/fb50BOLSwsDAtX75cnp7stgCA27NkyRJ16tSJq7PAXcqT J49+/PFHrtW6L05OuIOdO3cyTAB/olKlSpo3bx7DBAAgUzp27KghQ4ZYZwBO7/r165o/f751Bgzx u3A3MHHiROsEwKEFBQVp6dKlCgwMtE4BADihoUOHqk2bNtYZgNMbP368dQIMca3DxV2+fFnFixfX zZs3rVMAhzV//nw99dRT1hkAACd28eJF1ahRQzExMdYpgFPbuXOnateubZ2BnMe1Dlc3c+ZMhgng D7z44osMEwCAu3bPPfdoyZIl8vX1tU4BnNqkSZOsE2CEkxMuLCMjQ+XKldOJEyesUwCHVK9ePX3z zTfy9va2TgEAuIixY8fqhRdesM4AnFbu3Ll19uxZFShQwDoFOYuTE65sy5YtDBPA7wgKCtKsWbMY JgAAWapPnz5q3769dQbgtG7evMnDmG6KccKFTZkyxToBcEgeHh6aO3euSpcubZ0CAHAxHh4emjNn jsqXL2+dAjgtrna4J8YJF3X9+nUtW7bMOgNwSH369FHbtm2tMwAALiowMJDTecBdOHjwoPbv32+d gRzGOOGi5s2bp8TEROsMwOFUr15do0ePts4AALi4WrVq6d1337XOAJwWp8DdDw9iuqg6deooIiLC OgNwKP7+/tq9e7cqVKhgnQIAcAMZGRkKDQ3VmjVrrFMAp1OgQAH9+OOP8vPzs05BzuBBTFd05MgR hgngN4wcOZJhAgCQYzw8PDRx4kTlz5/fOgVwOpcvX9by5cutM5CDGCdc0PTp060TAIfTvn179e/f 3zoDAOBmSpQowe/NgDvE3zvuhWsdLiYlJUXFixfX+fPnrVMAh1GoUCEdOHBARYoUsU4BALip7t27 a8aMGdYZgFPx9PTUDz/8oPvvv986BdmPax2uZs2aNQwTwP+YNm0awwQAwNTYsWNVpkwZ6wzAqaSn p2vmzJnWGcghjBMuhqNPwC91795doaGh1hkAADcXEBCgGTNmKFeuXNYpgFOZPn26OOzvHrjW4UIu XbqkYsWKKTk52ToFcAjFihXToUOHeIgMAOAw+vXrpzFjxlhnAE5l69atql+/vnUGshfXOlzJggUL GCaAf/Pw8NDs2bMZJgAADmXUqFGqXLmydQbgVGbPnm2dgBzAOOFCFi5caJ0AOIwePXqoadOm1hkA APyCr6+vJk+ezPUOIBOWLl2qlJQU6wxkM8YJF3H69Glt2bLFOgNwCKVKldInn3xinQEAwG+qW7eu Bg4caJ0BOI0LFy5o/fr11hnIZowTLmLBggU8FAPoX9c5pkyZooCAAOsUAAB+17Bhw1ShQgXrDMBp zJ8/3zoB2YxxwkXwNyvwL507d+Y6BwDA4fn6+mrs2LHy8PCwTgGcwvLly5WQkGCdgWzEOOECDh06 pAMHDlhnAObuu+8+jR8/3joDAIDb0rRpUz333HPWGYBTuHHjhlatWmWdgWzEOOECODUB/Et4eLiC goKsMwAAuG3vvfeeSpQoYZ0BOAX+uce1eWTwUIFTy8jIUJkyZXTq1CnrFMBUmzZt9MUXX1hnAACQ aYsXL1anTp2sMwCH5+3trdjYWBUsWNA6BVkvg5MTTm7nzp0ME3B7AQH/x959h1dZ3/8ff58kZEMS RtgSSICy94hhaQyhCCJbQUAFRFGGAwFHRZxolYKrRanFCgroFxFQkeUgsvfeRMCEyAokZJFzfn/0 +/VXW0cg59zv+/6c5+O6uGz/6rMXDeW8zudz3xHy1ltvaWcAAHBN+vXrJ7fccot2BmB7RUVF8vHH H2tnwEcYJxxuwYIF2gmAuscff1yuu+467QwAAK7Za6+9xpumgBLg84+5uNbhYG63W6677jo5deqU dgqgpm7durJr1y4JCQnRTgEAoFSefvppmTJlinYGYGsBAQFy6tQpqVKlinYKvItrHU62efNmhgn4 NZfLJbNnz2aYAAAYYfLkydKgQQPtDMDW3G43zxkzFOOEg3GkCf6uX79+0rFjR+0MAAC8Ijg4WKZP n66dAdgen4PMxLUOh/J4PFKnTh05fvy4dgqgIiIiQg4cOCDVq1fXTgEAwKv69OkjixYt0s4AbKtM mTKSmZkp5cuX106B93Ctw6m2bdvGMAG/9uijjzJMAACM9Oc//5kri8BvKCoqkk8//VQ7A17GOOFQ vEIH/qxWrVoyYcIE7QwAAHyiTp06Mm7cOO0MwNb4PGQernU4VP369eXgwYPaGYCK9957T4YMGaKd AQCAz1y4cEHq1asnP/74o3YKYEshISGSlZUl5cqV006Bd3Ctw4n27NnDMAG/1bFjR4YJAIDxoqOj 5YUXXtDOAGyroKCAt3YYhnHCgTjCBH/GX9QAAP7izjvvlIYNG2pnALbF5yKzME440OLFi7UTABUD BgyQpKQk7QwAACwRGBgor776qnYGYFvLly+XvLw87Qx4CeOEwxw7dky2bt2qnQFYLiQkRF588UXt DAAALJWamipdu3bVzgBsKScnR7788kvtDHgJ44TDfPHFF9oJgIoRI0ZI7dq1tTMAALDc888/LwEB /LUd+CWff/65dgK8hD/lHIYrHfBH5cuXl2eeeUY7AwAAFa1ateJh0MCv+PTTT4UXUJqBccJBLl26 JF999ZV2BmC5Bx98UGJiYrQzAABQ8/TTT0tISIh2BmA7GRkZsmXLFu0MeAHjhIOsXLlSCgoKtDMA S1WpUkUefPBB7QwAAFTVqlVLRo8erZ0B2NLSpUu1E+AFjBMOwg8d/NHkyZMlIiJCOwMAAHWPPfaY lC1bVjsDsB0+J5mBccIh3G43P3TwOzVr1pRRo0ZpZwAAYAsVK1aU+++/XzsDsJ2tW7fKqVOntDNQ SowTDrFp0ybJysrSzgAsNWnSJO7XAgDwbx566CGJjIzUzgBsxePxyGeffaadgVJinHAITk3A38TH x8vIkSO1MwAAsJVKlSrJww8/rJ0B2A6fl5zP5eG9K47QokUL2b59u3YGYJm3335bRowYoZ0BAIDt nD9/XuLi4uTixYvaKYBthIWFyZkzZyQ8PFw7BdfGw8kJB8jIyNRVEoEAACAASURBVJAdO3ZoZwCW qV27tgwbNkw7AwAAW4qJiZFx48ZpZwC2kpeXJ2lpadoZKAXGCQdYuXKlcMAF/uTRRx+VMmXKaGcA AGBb48eP580dwH/48ssvtRNQCowTDrB8+XLtBMAy1atXl7vuuks7AwAAWytfvrzcd9992hmArfC5 ydkYJ2zO4/HIypUrtTMAyzz44IO8oQMAgBIYP368hIaGamcAtrF7927JyMjQzsA1YpywuZ07d8rp 06e1MwBLVKxYUe69917tDAAAHKFq1aoyfPhw7QzANvhi19kYJ2xuxYoV2gmAZcaPHy8RERHaGQAA OMakSZMkODhYOwOwDT4/ORfjhM3xwwV/ERkZKaNHj9bOAADAUWrUqCEDBw7UzgBs48svv+RlAg7F OGFjeXl58s0332hnAJYYMWKExMTEaGcAAOA4EyZMEJfLpZ0B2MLp06dl165d2hm4BowTNpaWlib5 +fnaGYDPlSlTRh5++GHtDAAAHKlJkyaSmpqqnQHYBqfPnYlxwsb4oYK/6N27t9SoUUM7AwAAx3rw wQe1EwDb4HOUM7k8XMixrdatW8uWLVu0MwCf27Rpk7Ru3Vo7AwAAx/J4PNKiRQvZsWOHdgqgLiIi Qs6dO8fDYp3Fw8kJmzp//rxs27ZNOwPwuc6dOzNMAABQSi6XiyuSwP/Kzc2VDRs2aGfgKjFO2NR3 330nbrdbOwPwuTFjxmgnAABghIEDB0qVKlW0MwBbWLt2rXYCrhLjhE199dVX2gmAz8XFxcmtt96q nQEAgBGCg4Nl1KhR2hmALfB5ynkYJ2yKV4jCH4waNUoCAwO1MwAAMMaoUaO4Zw/Iv06iFxUVaWfg KjBO2NClS5dk69at2hmAT4WEhMjdd9+tnQEAgFGqVq0qvXv31s4A1OXk5PCZymEYJ2zou+++kytX rmhnAD41cOBAiY2N1c4AAMA4PM8J+BdOozsL44QNffvtt9oJgM898MAD2gkAABgpKSlJWrZsqZ0B qGOccBbGCRv6+uuvtRMAn2rZsqW0adNGOwMAAGONGDFCOwFQ9+2330pxcbF2BkqIccJm8vLyZNOm TdoZgE/dc8892gkAABjtjjvukLJly2pnAKqys7Nl165d2hkoIcYJm9mwYYMUFBRoZwA+U65cORk8 eLB2BgAARitbtqwMHDhQOwNQx6l052CcsJm0tDTtBMCn+vfvL5GRkdoZAAAYj7diAf962QCcgXHC ZtavX6+dAPgUVzoAALBGYmKiNGnSRDsDUMXnK+dgnLARj8cj69at084AfKZp06bStm1b7QwAAPzG 8OHDtRMAVd9//72cOnVKOwMlwDhhI0eOHJGzZ89qZwA+M2TIEO0EAAD8yqBBg6RMmTLaGYAqTk84 A+OEjfBDA5MFBQUxTgAAYLFKlSpJt27dtDMAVRs2bNBOQAkwTtgIPzQwWUpKilSuXFk7AwAAvzNs 2DDtBEAVXwI7A+OEjfBDA5Px+lAAAHTcfPPNEh0drZ0BqNm8ebMUFRVpZ+B3ME7YRF5enuzYsUM7 A/CJsmXLSu/evbUzAADwS6GhoTJgwADtDEBNXl6e7Ny5UzsDv4Nxwia2bt3Kmgdj9e3bV8LDw7Uz AADwW3fccYd2AqCKK/T2xzhhE1zpgMluu+027QQAAPxahw4dpFatWtoZgBrGCfsL0g7Av2zatEk7 AfCJypUrS3JysnYGAAB+zeVyyezZs/lCDH6rQoUK2gn4HYwTNrFx40btBMAn+vbtK0FB/FEDAIC2 5ORkvjAAYFtc67CB7OxsOX78uHYG4BP9+/fXTgAAAABgc4wTNrBt2zbxeDzaGYDXVatWTTp16qSd AQAAAMDmGCdsYPv27doJgE/07dtXAgL4YwYAAADAb+NTgw1s27ZNOwHwid69e2snAAAAAHAAxgkb YJyAiSpWrMiVDgAAAAAlwjihLD8/X/bt26edAXhdjx49JDAwUDsDAAAAgAMwTijbvXu3XLlyRTsD 8LpbbrlFOwEAAACAQzBOKONKB0wUHh4uqamp2hkAAAAAHIJxQhnjBEyUkpIi4eHh2hkAAAAAHIJx QtnOnTu1EwCvu/nmm7UTAAAAADiIy+PxeLQj/JXH45GYmBjJzs7WTgG8xuVyycmTJ6VatWraKQAA AACcwcPJCUUnTpxgmIBxmjVrxjABAAAA4KowTijau3evdgLgdVzpAAAAAHC1GCcU7dmzRzsB8Lpu 3bppJwAAAABwGMYJRZycgGmio6MlMTFROwMAAACAwzBOKOLkBEyTnJwsgYGB2hkAAAAAHIZxQonH 42GcgHGSk5O1EwAAAAA4EOOEkhMnTkhOTo52BuBVKSkp2gkAAAAAHIhxQgnPm4BpateuLQkJCdoZ AAAAAByIcUIJVzpgmi5dumgnAAAAAHAoxgkl+/fv104AvIrnTQAAAAC4VowTSg4dOqSdAHgVJycA AAAAXCvGCSWMEzBJXFycVK9eXTsDAAAAgEMxTijIzc2VjIwM7QzAazp06KCdAAAAAMDBGCcUHD16 VDwej3YG4DWMEwAAAABKg3FCweHDh7UTAK9KSkrSTgAAAADgYIwTChgnYJKYmBhp2LChdgYAAAAA B2OcUHDkyBHtBMBrEhMTJSCAP0oAAAAAXDs+UShgnIBJ2rZtq50AAAAAwOEYJxRwrQMmadeunXYC AAAAAIdzeXhthKUKCwslPDxciouLtVOAUnO5XHLmzBkpX768dgoAAAAA5/JwcsJi6enpDBMwRnx8 PMMEAAAAgFJjnLBYenq6dgLgNW3atNFOAAAAAGAAxgmLnThxQjsB8JrWrVtrJwAAAAAwAOOExb7/ /nvtBMBrWrZsqZ0AAAAAwACMExbj5ARM4XK5pHnz5toZAAAAAAzAOGExxgmYolatWhIdHa2dAQAA AMAAjBMWY5yAKTg1AQAAAMBbGCcsxjgBUzRt2lQ7AQAAAIAhGCcsdP78ecnJydHOALyCkxMAAAAA vIVxwkKcmoBJGjdurJ0AAAAAwBCMExZinIApQkNDpU6dOtoZAAAAAAzBOGGhkydPaicAXlGvXj0J DAzUzgAAAABgCMYJC50+fVo7AfCKBg0aaCcAAAAAMAjjhIUyMzO1EwCvYJwAAAAA4E2MExbi5ARM 8Yc//EE7AQAAAIBBGCcslJWVpZ0AeEX9+vW1EwAAAAAYhHHCQpycgAlcLpckJCRoZwAAAAAwCOOE hRgnYILY2FiJjIzUzgAAAABgEMYJi+Tl5cnFixe1M4BSi4+P104AAAAAYBjGCYvwvAmYgisdAAAA ALyNccIiXOmAKTg5AQAAAMDbGCcswskJmKJ27draCQAAAAAMwzhhEcYJmCIuLk47AQAAAIBhGCcs cu7cOe0EwCtq1KihnQAAAADAMIwTFrlw4YJ2AlBqAQEBUr16de0MAAAAAIZhnLAI4wRMEBsbK8HB wdoZAAAAAAzDOGGR8+fPaycApcaVDgAAAAC+wDhhEU5OwAQ1a9bUTgAAAABgIMYJizBOwATVqlXT TgAAAABgIMYJizBOwASxsbHaCQAAAAAMxDhhEcYJmKBy5craCQAAAAAMxDhhEcYJmICTEwAAAAB8 gXHCAgUFBXL58mXtDKDUGCcAAAAA+ALjhAWys7O1EwCvYJwAAAAA4AuMExbIycnRTgC8olKlStoJ AAAAAAzEOGEBrnTABEFBQRIVFaWdAQAAAMBAjBMWYJyACaKjo8XlcmlnAAAAADAQ44QF8vLytBOA UouOjtZOAAAAAGAoxgkLcHICJmCcAAAAAOArjBMWYJyACRgnAAAAAPgK44QFGCdgAsYJAAAAAL7C OGEBnjkBE/CmDgAAAAC+wjhhAU5OwASRkZHaCQAAAAAMxThhAcYJmCAsLEw7AQAAAIChGCcswLUO mIBxAgAAAICvME5YoKCgQDsBKLXw8HDtBAAAAACGYpywQHFxsXYCUGqcnAAAAADgK4wTFmCcgAk4 OQEAAADAVxgnLHDlyhXtBKDUODkBAAAAwFcYJyzAyQmYICgoSDsBAAAAgKEYJyzAOAETBAYGaicA AAAAMBTjhAUYJ2ACxgkAAAAAvsI4YQHGCZiAcQIAAACArzBOWIBxAiZgnAAAAADgK4wTFuBtHTAB 4wQAAAAAX2GcsAAnJ2CCgAD+uAAAAADgG3zasIDb7dZOAEqNkQ0AAACArzBOWIBvnGECxgkAAAAA vsKnZgsEBQVpJwClxjgBAAAAwFcYJyzAgwRhAsYJAAAAAL7COGEBxgmYgHECAAAAgK8wTliAcQIm YJwAAAAA4CuMExZgnIAJioqKtBMAAAAAGIpxwgKMEzDB5cuXtRMAAAAAGIpxwgK8rQMmYJwAAAAA 4CuMExbg5ARMkJeXp50AAAAAwFCMExZgnIAJGCcAAAAA+ArjhAUYJ2ACrnUAAAAA8BXGCQuEhoZq JwClxskJAAAAAL7COGGBsLAw7QSg1C5duqSdAAAAAMBQjBMWCA8P104ASu3ChQvaCQAAAAAMxThh AU5OwASMEwAAAAB8hXHCApycgAkYJwAAAAD4CuOEBRgnYALGCQAAAAC+wjhhAa51wATZ2dnaCQAA AAAMxThhAU5OwAQXL14Ut9utnQEAAADAQIwTFmCcgAncbrecPXtWOwMAAACAgRgnLMA4AVNkZWVp JwAAAAAwEOOEBXjmBExx+vRp7QQAAAAABmKcsEBkZKR2AuAVnJwAAAAA4AuMExaIiYnRTgC8gnEC AAAAgC8wTligTJkyEhERoZ0BlBrjBAAAAABfYJywSHR0tHYCUGo8cwIAAACALzBOWIRxAiY4ceKE dgIAAAAAAzFOWIRxAiY4efKkdgIAAAAAAzFOWIRxAiZgnAAAAADgC4wTFuGNHTBBdna2XLp0STsD AAAAgGEYJyzCyQmYgtMTAAAAALyNccIijBMwBeMEAAAAAG9jnLBIVFSUdgLgFenp6doJAAAAAAzD OGGR8uXLaycAXnH48GHtBAAAAACGYZywSOXKlbUTAK84cuSIdgIAAAAAwzBOWIRxAqZgnAAAAADg bYwTFmGcgCkYJwAAAAB4G+OERWJjY8XlcmlnAKV28eJFOXPmjHYGAAAAAIMwTlgkJCSEN3bAGJye AAAAAOBNjBMW4moHTLF//37tBAAAAAAGYZywEOMETLFnzx7tBAAAAAAGYZywEOMETLFv3z7tBAAA AAAGYZywEOMETLF3717tBAAAAAAGYZywUGxsrHYC4BXHjx+XvLw87QwAAAAAhmCcsFCVKlW0EwCv cLvdcuDAAe0MAAAAAIZgnLDQddddp50AeA1XOwAAAAB4C+OEhWrWrKmdAHjN1q1btRMAAAAAGIJx wkKMEzDJ9u3btRMAAAAAGMLl8Xg82hH+JDo6WrKzs7UzgFKrUKGCnDlzRjsDAAAAgPN5ODlhMU5P wBRnz56VEydOaGcAAAAAMADjhMUYJ2ASrnYAAAAA8AbGCYsxTsAkO3bs0E4AAAAAYADGCYsxTsAk mzZt0k4AAAAAYADGCYsxTsAk69at004AAAAAYADGCYvVqFFDOwHwmh9//FGOHz+unQEAAADA4Rgn LHbddddpJwBetWHDBu0EAAAAAA7HOGGx2rVrS5kyZbQzAK/ZuHGjdgIAAAAAh2OcsFhQUBCnJ2AU Tk4AAAAAKC3GCQUJCQnaCYDXbNu2TQoLC7UzAAAAADgY44QCxgmY5PLly7xSFAAAAECpME4oiI+P 104AvOrbb7/VTgAAAADgYIwTCjg5AdMwTgAAAAAoDcYJBYwTMM3atWuluLhYOwMAAACAQzFOKKhT p44EBgZqZwBec/HiRdm1a5d2BgAAAACHYpxQEBISIjVq1NDOALxq7dq12gkAAAAAHIpxQkmdOnW0 EwCvWrVqlXYCAAAAAIdinFBSt25d7QTAq1atWiVFRUXaGQAAAAAciHFCSaNGjbQTAK+6dOmSbN68 WTsDAAAAgAMxTihhnICJuNoBAAAA4FowTihp2LChdgLgdYwTAAAAAK6Fy+PxeLQj/FWFChXk3Llz 2hmA14SGhsq5c+ckLCxMOwUAAACAc3g4OaGoQYMG2gmAV+Xn58vq1au1MwAAAAA4DOOEIp47ARMt WbJEOwEAAACAwzBOKOK5EzDRsmXLhNtiAAAAAK4G44QixgmY6OTJk7Jr1y7tDAAAAAAOwjihiGsd MNWyZcu0EwAAAAA4COOEoqpVq0pUVJR2BuB1X3zxhXYCAAAAAAdhnFDkcrmkcePG2hmA16WlpUlW VpZ2BgAAAACHYJxQ1rJlS+0EwOuKi4u52gEAAACgxBgnlDVv3lw7AfCJjz/+WDsBAAAAgEMwTihr 0aKFdgLgEytXrpSLFy9qZwAAAABwAMYJZY0aNZLg4GDtDMDrCgoKeDAmAAAAgBJhnFAWHBwsDRs2 1M4AfGLRokXaCQAAAAAcgHHCBrjaAVN9/vnnkp+fr50BAAAAwOYYJ2yAcQKmys7Ols8++0w7AwAA AIDNMU7YAOMETDZ37lztBAAAAAA25/J4PB7tCH+XnZ0tMTExwm8FTBQaGiqZmZkSFRWlnQIAAADA njycnLCBqKgoSUhI0M4AfCI/P18++eQT7QwAAAAANhakHYB/admypRw6dEg7A/CJDz74QIYNG6ad AQCA39q3b5989NFH2hmAmgoVKsjo0aO1M/AbGCdsIjExUebPn6+dAfjE6tWrJSsrS2JjY7VTAADw S08++aR8/PHH2hmAmrvuuks7Ab+Dax020b59e+0EwGeKiopk3rx52hkAAPils2fPytKlS7UzAFXt 2rXTTsDvYJywiRYtWkhISIh2BuAz77zzjnYCAAB+6f3335eCggLtDEAVXwbbH+OETQQHB/NKURht z549snXrVu0MAAD8zpw5c7QTAFWRkZHSuHFj7Qz8DsYJG2HNg+n4yxEAANbasWOHbNu2TTsDUNWm TRsJDAzUzsDvYJywEe5BwXRz587lWCkAABbiiwGAL4GdgnHCRhgnYLqzZ8/K559/rp0BAIBfKCoq kg8++EA7A1DH5yxnYJywkdq1a0uVKlW0MwCfmjVrlnYCAAB+YcmSJZKZmamdAahLTEzUTkAJME7Y TOvWrbUTAJ/64osv5MiRI9oZAAAY76233tJOANRdd911Ehsbq52BEmCcsBnuQ8F0Ho9H3n33Xe0M AACMdvjwYVm1apV2BqCOz1fOwThhM507d9ZOAHxu9uzZUlRUpJ0BAICx3n33XfF4PNoZgDo+XzkH 44TNtG3bVsLDw7UzAJ/KzMyUpUuXamcAAGCkoqIi+fvf/66dAdgC44RzME7YTHBwME+ThV945513 tBMAADDSsmXLeBAmICKxsbHSsGFD7QyUEOOEDbHuwR988cUXcujQIe0MAACMM3PmTO0EwBY6dOgg LpdLOwMlxDhhQ4wT8Adut1tmzJihnQEAgFG2bNkia9as0c4AbKFTp07aCbgKjBM21L59ewkNDdXO AHxuzpw5kp2drZ0BAIAx3nzzTe0EwDb40tdZGCdsKDQ0VNq0aaOdAfhcTk4OrxUFAMBLsrKyZO7c udoZgC3ExMRI06ZNtTNwFRgnbIojSPAXr7/+urjdbu0MAAAc75133pGCggLtDMAWOnToIAEBfNx1 En63bKpjx47aCYAljhw5Ip9//rl2BgAAjlZUVCR//etftTMA2+jQoYN2Aq4S44RNdejQQcqUKaOd AVji5Zdf1k4AAMDRPvzwQzlx4oR2BmAbN9xwg3YCrpLL4/F4tCPwyxITE2X9+vXaGYAl0tLS5Prr r9fOAADAcdxutzRq1Ej279+vnQLYQrly5eTMmTN82essHk5O2Fhqaqp2AmAZTk8AAHBtPvvsM4YJ 4N/ceOONDBMOxDhhYykpKdoJgGUWL14s+/bt084AAMBxGPiBn+NzlDMxTthYu3btJCoqSjsDsITH 45HXXntNOwMAAEfZsmWLfPPNN9oZgK107dpVOwHXgHHCxoKCgqRLly7aGYBl/v73v8vJkye1MwAA cIypU6dqJwC2Urt2bUlISNDOwDVgnLA5jiTBnxQUFMhf/vIX7QwAABxhz549snTpUu0MwFb4/ORc jBM2xw8X/M0bb7whGRkZ2hkAANje008/LW63WzsDsBU+PzkX44TN1atXT2rXrq2dAVgmPz+f0xMA APyO3bt3y8cff6ydAdhKYGCgJCcna2fgGjFOOAA/YPA3b7zxhpw5c0Y7AwAA25o2bRqnJoD/0KpV K4mJidHOwDVinHAAxgn4m9zcXHnzzTe1MwAAsKVjx47J/PnztTMA2+Fzk7MxTjhAcnKyBATwWwX/ 8vLLL0tWVpZ2BgAAtvOnP/1JioqKtDMA2+F5E87GJ14HqFSpkrRv3147A7BUTk6OzJgxQzsDAABb OXjwoHz44YfaGYDtxMTESMeOHbUzUAqMEw5x8803aycAlps+fbr88MMP2hkAANjGE088IVeuXNHO AGwnNTVVgoKCtDNQCowTDtGjRw/tBMByeXl58tJLL2lnAABgC9u3b5ePPvpIOwOwJb7MdT6Xx+Px aEegZGrXri3Hjx/XzgAsFRISIocOHZKaNWtqpwAAoKpXr17y6aefamcAthMYGChZWVlSvnx57RRc Ow8nJxyke/fu2gmA5QoKCuT555/XzgAAQNXmzZtlyZIl2hmALbVv355hwgCMEw7CUSX4q7ffflt2 796tnQEAgAqPxyNjxowRDjwDv4zPSWZgnHCQG2+8USIiIrQzAMsVFxfLE088oZ0BAICKpUuXyvr1 67UzANvi+XxmYJxwkNDQUElOTtbOAFQsXrxYVq5cqZ0BAIClCgsLZfz48doZgG3FxcVJkyZNtDPg BYwTDtOtWzftBEDNhAkTxO12a2cAAGCZWbNmydGjR7UzANvi85E5GCccplevXuJyubQzABXbt2+X hQsXamcAAGCJS5cuyXPPPaedAdjaLbfcop0AL2GccJhq1apJixYttDMANQ8//LDk5uZqZwAA4HNP P/20ZGZmamcAthUZGSldunTRzoCXME44UP/+/bUTADWnTp2SV155RTsDAACfOnLkiLz++uvaGYCt 9ejRQ8LCwrQz4CWMEw7Ut29f7QRA1QsvvCDHjh3TzgAAwGfGjh0rBQUF2hmArfG5yCyMEw5Ut25d nkgLv5afny8TJkzQzgAAwCc+++wz+eyzz7QzAFuLiIiQ7t27a2fAixgnHIqVEP7u448/li+//FI7 AwAAryooKJBx48ZpZwC2l5qaKuHh4doZ8CLGCYdinABEJk6cKFeuXNHOAADAa9566y05fPiwdgZg e3weMo/L4/F4tCNwbRo0aCD79+/XzgBUvfzyy/LII49oZwAAUGrHjx+XRo0ayeXLl7VTAFsLDQ2V rKwsKVu2rHYKvMfDyQkH6927t3YCoO6ZZ56RjIwM7QwAAEpt0qRJDBNACSQnJzNMGIhxwsFuvfVW 7QRA3cWLF2XMmDHaGQAAlMrSpUtl/vz52hmAI/AlrZm41uFw8fHxcvToUe0MQN3SpUvl5ptv1s4A AOCq5ebmSqNGjSQ9PV07BbC94OBgOX36tERHR2unwLu41uF0vXr10k4AbOHhhx/mffAAAEd65ZVX GCaAEurUqRPDhKEYJxzujjvu0E4AbOHAgQPy1FNPaWcAAHBVdu/eLc8995x2BuAYfP4xF9c6DNCo USPZu3evdgagrkyZMrJlyxZp0qSJdgoAAL/L4/FI586d5dtvv9VOARwhLCxMTp8+zcMwzcS1DhPc dttt2gmALRQVFcmQIUOkqKhIOwUAgN/1+uuvM0wAV6FHjx4MEwZjnDDAoEGDxOVyaWcAtrBjxw6Z Pn26dgYAAL/p2LFjMnnyZO0MwFFuv/127QT4ENc6DNG+fXvZsGGDdgZgCxEREbJ7926Ji4vTTgEA 4Bf16dNHFi1apJ0BOEb58uUlIyNDgoODtVPgG1zrMAUrIvD/5ebmyh133CHFxcXaKQAA/Jf33nuP YQK4Sn369GGYMBzjhCFuv/12CQoK0s4AbCMtLU1mzJihnQEAwM98//33MnbsWO0MwHH4MtZ8XOsw yE033SSrVq3SzgBsIyIiQrZv3y4JCQnaKQAAiMi/Hui3bNky7QzAUapUqSInT56UwMBA7RT4Dtc6 TMI7f4Gfy83NlYEDB/L2DgCALbz11lsME8A1GDRoEMOEH2CcMMitt94qoaGh2hmArWzdulVeeukl 7QwAgJ87dOiQPPLII9oZgCMNHDhQOwEWYJwwSHR0tPTt21c7A7CdZ555Rnbu3KmdAQDwU263W0aO HCmXL1/WTgEcp1mzZtK2bVvtDFiAccIwd911l3YCYDsFBQXSt29fycnJ0U4BAPihqVOnytdff62d ATjSsGHDtBNgER6IaRiPxyMJCQly9OhR7RTAdh544AF57bXXtDMAAH5k06ZNkpSUxPOPgGtQpkwZ OXnypMTGxmqnwPd4IKZpXC4XD8YEfsXrr78uCxcu1M4AAPiJixcv8mBmoBRuvvlmhgk/wjhhoLvu uksCAvitBX7JqFGj5MSJE9oZAAA/cP/998uxY8e0MwDH4sq6f+ETrIHi4uKkU6dO2hmALZ0/f15G jhwpbrdbOwUAYLD58+fL+++/r50BOFbVqlWle/fu2hmwEOOEoVgZgV+3fPlyefLJJ7UzAACG2rZt m9x5553aGYCjDR48WIKCgrQzYCEeiGmonJwcqVq1Km8nAH5FQECAfPbZZ5KamqqdAgAwSE5OjrRr 10727t2rnQI42o4dO6Rp06baGbAOD8Q0VWRkpAwcOFA7A7Att9stt912G2+2AQB4jcfjkcGDBzNM AKXUtm1bhgk/xDhhsKFDh2onALZ24cIF6dOnj+Tl5WmnAAAMMH36dPn000+1MwDH43OMf+Jah+Ga NWsmO3fu1M4AbG3kyJEya9Ys7QwAgIN98803kpycLFeuQOkHwAAAIABJREFUXNFOARytXLlycurU KYmMjNROgbW41mG6e++9VzsBsL23335b3n33Xe0MAIBD/fDDDzJgwACGCcALBg0axDDhpzg5Ybic nBypXr26XLx4UTsFsLXQ0FBJS0uTli1baqcAABzkypUrkpKSIl999ZV2CmAEHoTptzg5YbrIyEgZ PHiwdgZge/n5+TJw4EC5cOGCdgoAwEGefPJJhgnAS66//nqGCT/GOOEHuNoBlMzhw4dl6NChwoEy AEBJ/M///I9MmzZNOwMwxn333aedAEVc6/ATHTp0kLS0NO0MwBFeeuklmTBhgnYGAMDGDh06JImJ iXL27FntFMAIsbGx8v3330tISIh2CnRwrcNfsEICJTdx4kSZN2+edgYAwKaysrKka9euDBOAFw0b Noxhws9xcsJP5OfnS40aNfg/UaCEIiIi5JtvvuEBmQCAnyksLJRu3brJmjVrtFMAY7hcLtm/f7/U q1dPOwV6ODnhL0JDQ2XEiBHaGYBj5ObmSmpqqhw5ckQ7BQBgEx6PR4YMGcIwAXhZ165dGSbAAzH9 yYgRIyQggN9yoKTOnDkjPXv25A0eAAAREZk6daosWLBAOwMwzqhRo7QTYANc6/Azffr0kUWLFmln AI6SmpoqS5culaCgIO0UAICS999/nzc6AT5Qv3592bdvn7hcLu0U6OJah78ZN26cdgLgOMuXL+eh sgDgx7766isZPnw4wwTgA6NHj2aYgIhwcsIvtWnTRjZv3qydATjOX/7yFwY+APAzhw8flvbt2/NQ ccAHoqKi5MSJE1K2bFntFOjj5IQ/uv/++7UTAEd66KGHZPHixdoZAACLnD9/Xnr27MkwAfjI8OHD GSbwE05O+KGCggKJi4uTzMxM7RTAcaKioiQtLU0aNWqknQIA8KHi4mLp1auXLFu2TDsFMFJgYKAc OXJEatWqpZ0Ce+DkhD8KCQnhibjANcrOzpaUlBQ5fvy4dgoAwEfcbrcMHTqUYQLwoV69ejFM4GcY J/zUPffcI8HBwdoZgCNlZGRISkqKnD59WjsFAOADkyZNknnz5mlnAEZ74IEHtBNgM4wTfqpatWpy ++23a2cAjnX48GHp27ev5OXlaacAALzozTfflJdfflk7AzBamzZt5IYbbtDOgM0wTvgx3joAlE5a Wpr07NlTCgsLtVMAAF4wZ84cvs0FLMDPGX4JD8T0cx07dpS1a9dqZwCONnz4cHn77bd5RzcAONjq 1aule/fuUlBQoJ0CGK1KlSpy7NgxCQ0N1U6BvfBATH/3+OOPaycAjjd79mwZPny4sPUCgDN99dVX 0qNHD4YJwAIPP/wwwwR+EScnIK1atZKtW7dqZwCON3bsWJkxY4Z2BgDgKqxdu1a6desmubm52imA 8WJiYiQ9PV3Kli2rnQL74eQERB555BHtBMAIM2fOlBdeeEE7AwBQQvv27ZM+ffowTAAWGT16NMME fhUnJyDFxcXyhz/8QQ4fPqydAhhh5syZMmbMGO0MAMBvOHr0qHTq1ElOnTqlnQL4hbCwMDl+/LjE xsZqp8CeODkBkcDAQHnooYe0MwBjjB07lhMUAGBje/fuleuvv55hArDQnXfeyTCB38TJCYiISH5+ vtSpU0cyMjK0UwBjPP/88zJ58mTtDADAv9mzZ48kJyfL6dOntVMAvxEUFCQHDx6U2rVra6fAvjg5 gX8JDQ2Ve++9VzsDMMrjjz8ur7/+unYGAOB/HT58WP74xz8yTAAW6927N8MEfhcnJ/CT7OxsqVWr lmRnZ2unAEZ59tlneW0vACjbvXu3JCcnS1ZWlnYK4FdcLpds27ZNmjVrpp0Ce+PkBP6/qKgoufvu u7UzAOM8+eSTMn36dO0MAPBb+/fvl27dujFMAAqSk5MZJlAinJzAz2RmZkp8fLxcvnxZOwUwzsSJ E+WFF14Ql8ulnQIAfmPdunXSvXt3uXDhgnYK4JfS0tLk+uuv186A/XFyAj9XpUoVueeee7QzACNN mzZNRo8eLW63WzsFAPzCihUrJCUlhWECUJKcnMwwgRLj5AT+S2ZmptSpU0fy8vK0UwAjjRgxQv76 179KYGCgdgoAGGvFihXSu3dvyc3N1U4B/BanJnAVODmB/1alShUZOXKkdgZgrHfeeUcGDx4shYWF 2ikAYKRFixZJz549GSYARTfeeCPDBK4KJyfwizIyMiQ+Pp7TE4APde7cWRYvXixRUVHaKQBgjD// +c/y6KOPCn/FBXStXbtWkpKStDPgHJycwC+rWrWqjBgxQjsDMNrXX38tSUlJcvLkSe0UAHA8j8cj 48aNkwkTJjBMAMpuuOEGhglcNU5O4Fd9//33UrduXY6eAz5Wr149Wb58ucTFxWmnAIAjud1uGTt2 rLzxxhvaKQDkX898uemmm7Qz4CycnMCvu+6663j2BGCBgwcPSlJSkuzcuVM7BQAcp6CgQG677TaG CcAmOnfuzDCBa8LJCfwmnj0BWCciIkLmzZsnt9xyi3YKADjC6dOn5ZZbbpGNGzdqpwD4X6tXr5Yb brhBOwPOw8kJ/LaqVavK0KFDtTMAv5Cbmyt9+vSRGTNmaKcAgO3t27dPEhMTGSYAG0lKSmKYwDXj 5AR+V2ZmpiQkJPA6LsBC99xzj7zxxhsSFBSknQIAtrNmzRrp27evnD9/XjsFwL/hDR0oBU5O4PdV qVJFxo4dq50B+JVZs2bJoEGDuFIFAP9h/vz50r17d4YJwGZ69OjBMIFS4eQESuTChQsSHx8v586d 004B/ErTpk3lk08+kdq1a2unAIAqt9stDz74oMycOVM7BcB/CAgIkO3bt0uTJk20U+BcnJxAyURH R8uECRO0MwC/s3PnTmnTpo2sXr1aOwUA1GRnZ0uPHj0YJgCbuu222xgmUGqcnECJ5eXlSd26deXU qVPaKYDfCQoKkldeeYUrVgD8zrFjx+SWW26R3bt3a6cA+AXBwcGyf/9+TnmitDg5gZILCwuTxx57 TDsD8EtXrlyRcePGycMPPyzFxcXaOQBgiY0bN0pSUhLDBGBjd999N8MEvIKTE7gqBQUFUr9+fUlP T9dOAfxWUlKSLFiwQKpVq6adAgA+M23aNHniiSfkypUr2ikAfkVoaKgcPHhQatasqZ0C5+PkBK5O SEiIPPvss9oZgF9LS0uT5s2by5o1a7RTAMDrsrOzpXfv3jJp0iSGCcDmxo4dyzABr+HkBK5acXGx NGnSRPbt26edAvi1oKAgefbZZ2XixInaKQDgFXv27JG+ffvKgQMHtFMA/I5y5crJkSNHpGLFitop MAMnJ3D1AgMD5dVXX9XOAPzelStXZNKkSTJy5EjJz8/XzgGAUvn000+lQ4cODBOAQzzxxBMME/Aq Tk7gmnXr1k2WL1+unQFARP7whz/I/PnzpWnTptopAHBVcnNz5b777pN//vOf2ikASighIUH27Nkj wcHB2ikwBycncO1effVVCQoK0s4AICL79++Xdu3ayYwZM7RTAKDEtm/fLq1bt2aYABzmueeeY5iA 1zFO4Jo1bNhQ7rzzTu0MAP8rPz9fxo8fL0OGDJGcnBztHAD4VR6PR2bMmCGJiYmyf/9+7RwAVyEp KUkGDBignQEDca0DpZKVlSV169aVixcvaqcA+DdNmzaVDz74QBo2bKidAgA/k52dLaNGjZL58+dr pwC4Si6XS9atWyft2rXTToF5uNaB0omNjZUJEyZoZwD4Dzt37pTmzZvLlClTpLi4WDsHAERE5Msv v5T69eszTAAONWDAAIYJ+AwnJ1BqOTk5Uq9ePcnIyNBOAfALbrjhBpkzZw7vIQegpqioSB555BF5 7bXXhL96As4UHBwse/bskYSEBO0UmImTEyi9yMhIefHFF7UzAPyKNWvWSJMmTWTu3LnaKQD80NGj R6VDhw4yc+ZMhgnAwcaPH88wAZ/i5AS8wu12S7t27WTz5s3aKQB+w9133y2vvvqqREVFaacA8AMf fPCBjBkzRs6ePaudAqAUKleuLIcOHZKyZctqp8BcnJyAdwQEBMi0adO0MwD8jr///e9Sv359WbRo kXYKAIOdOHFCunXrJoMGDWKYAAzw+OOPM0zA5zg5Aa8aPHiwzJs3TzsDQAn0799f3nrrLalQoYJ2 CgCDzJo1Sx599FHJzs7WTgHgBW3atJH169dLQADfa8OnPIwT8KrMzEypX78+rxYFHKJWrVoya9Ys 6dq1q3YKAIfLzMyUMWPGyEcffaSdAsBLXC6XpKWlSWJionYKzMe1DnhXlSpV5LHHHtPOAFBC6enp kpqaKj179pQTJ05o5wBwoOLiYpk2bZrEx8czTACGueOOOxgmYBlOTsDrCgsLpWnTpnLgwAHtFABX ISoqSp5++mkZM2YMRzcBlMiWLVtk5MiRsm3bNu0UAF4WFRUlBw4ckMqVK2unwD9wcgLeFxwcLK+9 9pp2BoCrlJ2dLePHj5euXbvK4cOHtXMA2FhhYaFMnTpVkpKSGCYAQz3xxBMME7AUJyfgM927d5fP P/9cOwPANQgNDZXJkyfLxIkTJSQkRDsHgI2sXr1a7r//ftm/f792CgAfSUhIkN27d/N3AFiJB2LC d44ePSqNGjWS/Px87RQA16h69eryl7/8Rfr166edAkBZenq6PPDAA7J06VLtFAA+tmLFCrnpppu0 M+BfuNYB36lTp4488sgj2hkASuHUqVPSv39/6dmzpxw/flw7B4CCwsJCmTJlijRs2JBhAvADt956 K8MEVHByAj6Vk5MjDRs25C0AgAHKlSsnjz32mIwbN05CQ0O1cwBYYM2aNfLQQw/J9u3btVMAWCAs LEx27dol8fHx2inwP5ycgG9FRkbKrFmztDMAeMHFixdl0qRJEh8fL7NmzZLi4mLtJAA+snPnTklJ SZEbb7yRYQLwI1OmTGGYgBpOTsASAwYMkIULF2pnAPCili1byvTp06VTp07aKQC85PTp0zJhwgSZ O3euuN1u7RwAFmrevLls2rRJgoKCtFPgn3ggJqyRmZkpDRo0kAsXLminAPAil8slt99+u0ydOpVv WgAHKygokDfffFOef/55OXPmjHYOAIsFBATIunXrpG3bttop8F9c64A1qlSpIs8884x2BgAv83g8 Mm/ePGnQoIE88MADkpmZqZ0E4CoUFxfLP/7xD6lXr5489NBDDBOAn7rnnnsYJqCOkxOwjNvtlg4d Osi6deu0UwD4SHBwsNx5553yzDPPSGxsrHYOgF/hdrvlnXfekeeff17S09O1cwAoqlatmuzbt0/K lSunnQL/xskJWCcgIEBmzJghgYGB2ikAfKSwsFBmzZolDRs2lJdeeklyc3O1kwD8h5UrV0pSUpKM GjWKYQKAvPDCCwwTsAXGCViqTZs2Mm7cOO0MAD529uxZmThxosTHx8uMGTMkPz9fOwnwe2vXrpUu XbpISkqKrF+/XjsHgA3cfPPNMnToUO0MQES41gEFly9flsaNG8uxY8e0UwBYpEaNGvL444/L8OHD pUyZMto5gF/ZtGmTPPnkk7J8+XLtFAA2EhERIbt375a4uDjtFECEax3QEB4eLq+88op2BgALnTx5 Uu677z6pUaOGTJkyhTf3AD7m8XhkyZIl0qFDB2nbti3DBID/MnHiRIYJ2AonJ6BmyJAh8v7772tn AFBQqVIlGTt2rNx///0SExOjnQMY4/9GiRdffJEHUAP4VW3atJHvvvtOgoKCtFOA/+NhnICas2fP SuPGjXn1IODHypYtK/fee6+MHz9eqlWrpp0DOFZRUZF8+OGH8tJLL8nu3bu1cwDYWHBwsGzevFma NGminQL8O651QE+FChXkb3/7m3YGAEWXLl2Sl19+WWrWrCk9e/bkm17gKp09e1amTJkiNWrUkKFD hzJMAPhdkydPZpiALXFyAuoGDBggCxcu1M4AYAMul0tSU1PlkUcekeTkZO0cwLZOnTolM2fOlL/9 7W+SnZ2tnQPAIVq0aCEbN27kOgfsiGsd0JeRkSGNGjWS8+fPa6cAsJHmzZvL/fffL4MGDZLw8HDt HMAW1q1bJ2+88YYsXLhQCgsLtXMAOEhgYKCsXbtW2rdvr50C/BLGCdjDvHnzZPDgwdoZAGwoMjJS Bg0aJKNHj5ZmzZpp5wCWO3funLz99tsye/ZsOXTokHYOAIeaOHGivPjii9oZwK9hnIB99OnTRxYt WqSdAcCmXC6XpKSkyL333is9evSQMmXKaCcBPrVnzx6ZNWuWzJkzh6sbAEqlYcOGsnXrVgkJCdFO AX4N4wTsg+sdAEoqKipKBg4cKKNGjZKWLVtq5wBec+bMGZk9e7a89957snfvXu0cAAbgOgccgnEC 9jJ79mwZMWKEdgYAB0lKSpLhw4dL//79JTIyUjsHuCZpaWkye/ZsWbhwoeTk5GjnADDImDFjZObM mdoZwO9hnID9DBw4UBYsWKCdAcBhQkJCJCUlRfr37y/9+/eXsLAw7STgN23dulXmzJkjH3/8sZw6 dUo7B4CBmjZtKhs3buQ6B5yAcQL2c/78eWnatKmcPHlSOwWAQ0VHR0vPnj1l6NChkpycLC6XSzsJ EBGRY8eOyZw5c2ThwoVc2wDgU6GhobJ582Zp1KiRdgpQEowTsKcVK1ZIamqq8D9PAKVVv379n05T NG3aVDsHfujcuXPyySefyIIFC2T16tVSVFSknQTAD0ybNk0effRR7QygpBgnYF+jR4+Wt956SzsD gEFq1qwpvXv3lv79+0tSUhInKuAzGRkZsmDBAlm4cKGsW7dO3G63dhIAP9KlSxdZtWqVBAQEaKcA JcU4Afu6dOmSNG/eXI4ePaqdAsBACQkJ0qNHD+nRo4d06tSJV5Oi1A4dOiRLly6VZcuWyTfffMMJ CQAqIiMjZdu2bZKQkKCdAlwNxgnY25YtWyQxMZG/4AHwqaioKOnatav06NFD/vjHP0qlSpW0k+AA RUVFsnbtWlm2bJksWbJEDh48qJ0EAPLuu+/KnXfeqZ0BXC3GCdjfU089JVOnTtXOAOAnAgICpHnz 5pKSkiJdu3aVpKQknnKOnxw4cEC+/PJLWbFihaxZs4bXfgKwlf79+/PWOzgV4wTsr7CwUNq1ayfb t2/XTgHgh8LDw6Vz585y0003SZcuXaRZs2YSGBionQWL/PDDD/L111/L6tWrZcWKFZKenq6dBAC/ qFKlSrJr1y6pXLmydgpwLRgn4AxHjhyRli1bysWLF7VTAPi56Oho6dixo3Tu3Fm6dOkizZs3Z6ww yKlTp+Srr76Sr7/+Wr7++muuagBwhMDAQFm5cqV06dJFOwW4VowTcI4FCxbIwIEDtTMA4GfKlSsn 7dq1k+uvv17at28viYmJEhUVpZ2FEiguLpZdu3ZJWlqarF+/Xr777jsewgzAkSZOnCgvvviidgZQ GowTcJZhw4bJe++9p50BAL8qICBAGjRoIImJidK2bVtp1aqVNGnShLeB2MD3338vW7ZskS1btsi6 detk48aNPDMCgOMlJibKN998I0FBQdopQGkwTsBZcnNzpXXr1rJ//37tFAAosZCQEGnatKm0bt1a WrVqJc2aNZMGDRpIRESEdpqR3G63HDt2THbt2iVbt26VzZs3y5YtWyQrK0s7DQC8KioqSrZu3Sp1 6tTRTgFKi3ECzrNhwwbp2LEjrxcF4GgBAQESFxcnjRo1+ulXgwYNJD4+XqKjo7XzHKGwsFDS09Pl 4MGDsmfPnp9+7d27V/Ly8rTzAMDn/vGPf8iwYcO0MwBvYJyAM02fPl0eeugh7QwA8Iny5ctLfHy8 xMfHS506dSQ+Pl7i4uIkLi5Oatas6VdXRLKysuT48eOSnp4uR48elSNHjvz0zxMnTkhxcbF2IgCo uPvuu2X27NnaGYC3ME7AmTwej9x6663y6aefaqcAgKUCAwOlWrVqP40V1atXl9jYWKlYsaJUrFhR YmNjf/r3YWFh2rm/yO12y48//ihnzpyRM2fOSFZWlmRlZf30r48fP/7Tr8uXL2vnAoDtNGjQQDZt 2sT1QJiEcQLO9eOPP0rz5s3lhx9+0E4BAFsKCwuTChUqSPny5f/rV3BwsERGRkpERISEhIRIdHS0 hISESHh4+FX9ZxQXF8vFixfl8uXLUlBQIBcuXJDCwkLJycmR3NxcOXfunJw7d07Onj370z8vXLjg o//GAGC+sLAw2bhxozRu3Fg7BfAmxgk42/Lly6V79+7idru1UwAAAACfe/XVV+XBBx/UzgC8zROg XQCURmpqqkydOlU7AwAAAPC5IUOGMEzAWJycgON5PB7p3bu3LF68WDsFAAAA8ImGDRvKhg0bJDIy UjsF8AWudcAM58+fl1atWsmxY8e0UwAAAACvKlu2rGzatEnq16+vnQL4Ctc6YIaYmBj55z//6Vev 1wMAAIB/mD59OsMEjMc4AWMkJSXJq6++qp0BAAAAeM2oUaNk+PDh2hmAz3GtA8YZMmSIvP/++9oZ AAAAQKm0atVK0tLSJCQkRDsF8DWeOQHz5OTkSLt27WTv3r3aKQAAAMA1qVChgmzZskVq1aqlnQJY gWdOwDyRkZEyd+5cCQsL004BAAAArprL5ZK//vWvDBPwK4wTMFLz5s1l7ty54nK5tFMAAACAq/Kn P/1J+vXrp50BWIpxAsbq3bu3TJ48WTsDAAAAKLF+/frJU089pZ0BWI5nTsBobrdbevXqJUuXLtVO AQAAAH5T48aNZd26dRIZGamdAliNB2LCfJcuXZL27dvzgEwAAADYVnR0tGzcuFHq1q2rnQJo4IGY MF/ZsmXlww8/ZIEGAACALQUEBMg//vEPhgn4NcYJ+IUmTZrIRx99JIGBgdopAAAAwM8899xz0qtX L+0MQBXjBPxGamoqDxcCAACArdx2220yceJE7QxAHc+cgF9xu91y6623ypIlS7RTAAAA4OcaNWok 69atk7Jly2qnANp4ICb8T15ennTu3Fk2bdqknQIAAAA/Vb16ddmwYYNUr15dOwWwAx6ICf8TFhYm n3zyidSoUUM7BQAAAH4oPDxcFi9ezDAB/BvGCfilatWqyeLFiyUiIkI7BQAAAH7E5XLJnDlzpFWr VtopgK0wTsBvtWzZUt577z0JCODHAAAAANaYMmWK9OvXTzsDsB0+lcGv9enTR5588kntDAAAAPiB fv368XdP4FfwQExARO655x55++23tTMAAABgqOuvv15WrVoloaGh2imAHfG2DkBEpKioSFJTU2XN mjXaKQAAADBMfHy8rF+/XipWrKidAtgV4wTwf06fPi3t2rWT9PR07RQAAAAYIiIiQr799ltp0aKF dgpgZ7xKFPg/lStXllWrVklsbKx2CgAAAAwQEhIiS5YsYZgASuD/tXf3UV7P+f/Hn5/PdKlmlEYU hcK2rCQX2V3kYjgnyqBcJLSuctDGWmTZtZcYdhE6MURaa3U1S6J1KiGFlCmUy0Lk4iAiFxVmvn/8 Dr+166I0M6/P5zO32zmfk/x1P86ZmXp4vd5v4wT8h65du8Y999zjFaMAAGyQTCYTY8aMif322y91 CuQF4wT8l9133z3Gjx8fTZo0SZ0CAECeuvTSS2PgwIGpMyBvGCfgGxxyyCFx5ZVXps4AACAPnXLK KXHBBRekzoC8YpyAbzFs2DDvoQYAYL0MGDAgKisrU2dA3vG2DvgOtbW1ccopp8Qtt9ySOgUAgBy3 1157xfTp06NFixapUyDfeJUofJ8vvvgi+vfvH5MnT06dAgBAjtppp53i4Ycfjo033jh1CuQj4wSs iw8//DB69+4dCxcuTJ0CAECO2WyzzWLOnDnRtWvX1CmQr2o9cwLWQUlJSUyfPj122GGH1CkAAOSQ du3axf3332+YgA1knIB1VFpaGtOmTYutt946dQoAADmgdevWMXXq1Nhxxx1Tp0DeM07Aethiiy1i +vTpsfnmm6dOAQAgoebNm8fkyZNjjz32SJ0CBcE4Aetp2223jbvuuitat26dOgUAgASy2WzcfPPN sf/++6dOgYJhnIAfoFevXjFt2rRo1apV6hQAABpQJpOJW265JQYNGpQ6BQqKcQJ+oJ/+9Kcxbty4 aNq0aeoUAAAaSEVFRQwePDh1BhQc4wRsgL59+8aYMWMim/WlBABQ6IYPHx7nn39+6gwoSP5GBRto 0KBBcfnll6fOAACgHg0ePDguu+yy1BlQsIwTUAfOPffcuPrqq1NnAABQD4YMGRJjxoyJTCaTOgUK Vqa2trY2dQQUiquuuip+/etfp84AAKCOHHfccTF27FjXeKF+1RonoI5deOGFjvwBABSA8vLymDhx ogegQ/2rNf9BHbv00kvjt7/9beoMAAA2wNFHHx1VVVWGCWggTk5APbnooovi0ksvTZ0BAMB6OvTQ Q2PSpEmGCWg4rnVAfbrgggu8yQMAII/07ds3qqqqolmzZqlToDExTkB9qq2tjWHDhsXIkSNTpwAA 8D369OkTd955ZzRv3jx1CjQ2xgmobzU1NXHaaafF6NGjU6cAAPAt9tlnn7jnnnuiuLg4dQo0Rh6I CfUtm83GTTfdFBdddFHqFAAAvkF5eXlMmzbNMAEJGSeggfzlL3+Jiy++OHUGAAD/4YgjjogJEya4 ygGJudYBDew3v/lNVFRUpM4AAGj0ysvLY/z48YYJSM+1Dmhol112WVxxxRWpMwAAGrXBgwdHVVWV YQJyhJMTkMioUaNi6NCh4UsQAKBhnXTSSXHTTTdFNuv/1UKOcHICUjnjjDPi+uuv90MRAKAB/fKX v4zRo0f7MxjkGF+RkNBpp50W1157rR+OAAAN4PTTT48RI0ZEJpNJnQL8F9c6IAdMnjw5jjnmmFi9 enXqFACAglRRURHDhw9PnQF8s1rjBOSImTNnRnl5eXz00UepUwAACkY2m43rrrsuzjjjjNQpwLcz TkAueeCBB6K8vDxWrVqVOgUAIO8VFRXF9ddfH6dZNLbHAAAW0klEQVSeemrqFOC7GScg1yxevDgO OuigeOONN1KnAADkrZYtW8aECROib9++qVOA72ecgFz08ssvx4EHHhhLly5NnQIAkHdKSkri7rvv jt69e6dOAdaNcQJy1ZtvvhkHHXRQLFq0KHUKAEDeKC0tjfvuuy923XXX1CnAuqv1/kLIUR06dIhp 06ZF9+7dU6cAAOSFzTbbLKZPn26YgDxknIAc1qFDh3jkkUfikEMOSZ0CAJDTdt5556iuro4ePXqk TgF+AOME5LhWrVrF5MmTY8iQIalTAAByUu/evePBBx+Mjh07pk4BfiDjBOSBoqKiuOGGG+Lcc89N nQIAkFPKy8tj6tSp0aZNm9QpwAYwTkCeyGQy8de//jVuueWWaNKkSeocAIDkhg8fHnfeeWdstNFG qVOADeRtHZCHpk2bFgMGDIhVq1alTgEAaHDZbDauuuqqOOuss1KnAHXDq0QhX82bNy/69u0bb7/9 duoUAIAG07Jly7j99tvj8MMPT50C1B3jBOSzZ555Jg4++OBYtmxZ6hQAgHpXUlISkyZNigMPPDB1 ClC3aj1zAvLYDjvsENXV1bHffvulTgEAqFfdunWL6upqwwQUKOME5LlNNtkkpk6dGsccc0zqFACA evGzn/0sHnrooejatWvqFKCeGCegALRo0SLuuOOOGDFiRGSzvqwBgMJx+umnx0MPPRTt27dPnQLU I8+cgALz5SkKb/IAAPKZN3JAo+KBmFCInnrqqejXr1+8+uqrqVMAANZbSUlJjBs3Lvr06ZM6BWgY xgkoVG+88UaUl5fH/PnzU6cAAKyzzp07x5QpU6J79+6pU4CG420dUKg6duwYM2fOjL59+6ZOAQBY Jz169IhZs2YZJqARMk5AASsuLo677747KioqoqioKHUOAMC3Ovnkk+Oxxx6LrbbaKnUKkIBrHdBI 3HnnnTF48GAPygQAckpRUVFcdtllcd5556VOAdLxzAloTJYsWRKHH354LFq0KHUKAEBsvvnmMXHi xNhrr71SpwBpeeYENCbbbrttPProo9G/f//UKQBAI7fHHnvE/PnzDRNARHjmBDQ6rVu3jokTJ0ZF RUVks74FAAAN78QTT4xZs2bFFltskToFyBGudUAjNnXq1Bg0aFCsXLkydQoA0Ag0bdo0Ro4cGUOG DEmdAuQWz5yAxm7RokXRv3//eOGFF1KnAAAFrLS0NG6//fY46KCDUqcAucczJ6Cx+8lPfhLz5s3z HAoAoN706tUrnnjiCcME8K2ME0CUlJTEpEmTorKyMpo3b546BwAoEJlMJoYPHx6zZ8+Ozp07p84B cphrHcDXVFdXx4ABA+Lll19OnQIA5LE2bdrE2LFj49BDD02dAuQ+z5wA/teKFSviuOOOi/vuuy91 CgCQh7p37x6TJk2K7bbbLnUKkB88cwL4X+3atYupU6d63SgAsN5OPvnkmDt3rmECWC9OTgDfafLk yXHSSSfFe++9lzoFAMhhzZo1i8svvzzOPvvs1ClA/nGtA/h+r732WgwaNCgefvjh1CkAQA7afvvt 44477oiePXumTgHyk2sdwPfr1KlTPPTQQzFixIho1qxZ6hwAIEdkMpkYNmxYPPnkk4YJYIM4OQGs l/nz58fAgQNjyZIlqVMAgITatWsXo0ePjsMOOyx1CpD/nJwA1s9uu+0W1dXVcdxxx6VOAQAS2Wef fWLBggWGCaDOGCeA9VZcXBy33XZbjB07Nlq3bp06BwBoIE2bNo2KioqYOXNmdOrUKXUOUEBc6wA2 yOLFi+PYY4+Np556KnUKAFCPOnbsGGPHjo2ysrLUKUDhca0D2DA77rhjPP7443HeeedFNutbCgAU oqOOOiqefvppwwRQb5ycAOrMvHnz4oQTTojnnnsudQoAUAc6dOgQo0ePjoMPPjh1ClDYnJwA6s7u u+8e1dXVMXz4cKcoACDPHXbYYbFw4ULDBNAgnJwA6sWMGTPixBNPjOXLl6dOAQDWQ3FxcYwcOTJO OOGE1ClA4+HkBFA/ysrKYtGiRTFkyJDUKQDAOtp3333j6aefNkwADc44AdSbjTfeOCorK+PWW2+N jTfeOHUOAPAtmjZtGn/84x9j+vTpsdVWW6XOARoh1zqABrF8+fI47bTTYurUqalTAID/0KNHj7j1 1ltj5513Tp0CNF6udQANY8stt4x77703JkyYEJtuumnqHABo9Fq1ahWVlZXxxBNPGCaA5JycABrc 22+/HUOHDo2JEyemTgGARql3795x8803R9euXVOnAEQ4OQGk0L59+5gwYYJTFADQwL48LfHAAw8Y JoCc4uQEkNT7778fF1xwQdx4442pUwCgoO27775x8803R5cuXVKnAPw3JyeAtNq2bRuVlZVx2223 RWlpaeocACg4LVu2jMsuuyymT59umABylpMTQM5YsWJFnHfeeXHrrbeGb00AsOEOOuigGDVqlCsc QK6rNU4AOae6ujpOO+20mD9/fuoUAMhLnTt3jpEjR0a/fv1SpwCsC9c6gNzTs2fPePTRR2PEiBFR XFycOgcA8kZRUVEMHz48nn32WcMEkFecnABy2uuvvx5nnXVWVFVVpU4BgJzWq1evqKysjJ133jl1 CsD6cnICyG1bbLFFTJo0Ke6+++7o3Llz6hwAyDklJSVRWVkZjzzyiGECyFvGCSAv9OvXLxYuXBhD hw6NJk2apM4BgJxwxBFHxJNPPhlDhgyJbNYf7YH85VoHkHdefPHFOOecc+Kee+5JnQIASey5555x 7bXXxu677546BaAuuNYB5J/tttsupkyZEtOnT48ddtghdQ4ANJj27dvH2LFjY86cOYYJoKAYJ4C8 VVZWFgsXLowRI0ZESUlJ6hwAqDfNmjWL4cOHx/PPPx8nnHCCKxxAwXGtAygIb775ZvzhD3+I0aNH R01NTeocAKgzffr0iauvvjp+9KMfpU4BqC+1xgmgoMycOTPOOeecePLJJ1OnAMAG6dSpU1RUVMTA gQMjk8mkzgGoT545ARSW/fffPxYsWBATJkyIbbbZJnUOAKy30tLSqKysjKVLl8axxx5rmAAaBScn gIK1du3auP766+P3v/99fPDBB6lzAOA7NW/ePM4+++w4//zzY5NNNkmdA9CQXOsACt+KFSviT3/6 U4waNSo+//zz1DkA8D+OPPLI+Mtf/hLbb7996hSAFIwTQOPx3HPPxcUXXxwTJ05MnQIAERGxyy67 xJVXXhn77bdf6hSAlDxzAmg8unXrFhMmTIg777zTE88BSGqzzTaLUaNGxeOPP26YAAjPnAAaqZqa mqiqqooLL7wwlixZkjoHgEaiffv28ec//zl+8YtfRLNmzVLnAOQK1zqAxu2zzz6LMWPGxB/+8Id4 8803U+cAUKBKSkriwgsvjDPPPDNat26dOgcg1xgnACIiPv744xg5cmRUVFTEypUrU+cAUCC+fAPH ueeeG6WlpalzAHKVcQLgP7333ntxxRVXxLXXXhuffvpp6hwA8lRRUVGcfPLJcdFFF0Xnzp1T5wDk OuMEwDdZunRpXHzxxTFu3LioqalJnQNAHikrK4tLLrkk9thjj9QpAPnCOAHwXZYtWxZXXXVVVFZW xpo1a1LnAJCjMplMDBgwIH77299G9+7dU+cA5BvjBMC6MFIA8E2+HCV+97vfxU477ZQ6ByBfGScA 1serr74aV155Zdx4442xevXq1DkAJJLNZmPQoEFx3nnnGSUANpxxAuCHWLJkSVxyySXxj3/8Iz7/ /PPUOQA0oIMPPjguvvji6NWrV+oUgEJhnADYEEuXLo2Kioq47bbbXPcAKGDZbDb69esXF110Uey+ ++6pcwAKjXECoC68++67MXLkyLjuuuvivffeS50DQB1p2bJlnHrqqXH22WfHNttskzoHoFAZJwDq 0kcffRQ333xzXHnllfHaa6+lzgHgB2rbtm0MGzYszjjjjGjfvn3qHIBCZ5wAqA+ffvpp3HLLLfG3 v/0tXnnlldQ5AKyjdu3axdChQ2Po0KFRWlqaOgegsTBOANSnzz//PMaPHx+XX355PP3006lzAPgW nTp1inPOOSdOPfXUaNWqVeocgMbGOAHQUJ544om45ppr4o477vCGD4AckMlk4pBDDomzzjor9t9/ /8hms6mTABor4wRAQ3vjjTfixhtv9PBMgERatmwZxx9/fJxxxhmx8847p84BwDgBkM4HH3wQo0eP jpEjR3ouBUADaNeuXZx66qlx5plnxpZbbpk6B4D/zzgBkFptbW3cf//9cc0118S9994bvi0D1K2f /vSn8atf/SrKy8ujWbNmqXMA+F/GCYBcsmDBgrj++uvjn//8Z3z88cepcwDyVpMmTeLQQw+N008/ PQ444IDIZDKpkwD4dsYJgFy0evXqmDJlSlxzzTUxZ86c1DkAeaNLly4xbNiwGDx4cLRp0yZ1DgDr xjgBkOseeuihuOGGG+Jf//pXrF27NnUOQM7JZDJRVlYWp59+evTr1y+aNGmSOgmA9WOcAMgXH3zw QYwfPz6uu+66WLRoUeocgOQ6deoUZ555Zhx//PHRsWPH1DkA/HDGCYB8U1NTE//+979jzJgxMWXK FKcpgEYlm83GvvvuGyeeeGIMGDAgWrRokToJgA1nnADIZx9++GHcddddcdttt8X999/vTR9Awere vXucdNJJcdRRR0WHDh1S5wBQt4wTAIVi4cKFMWbMmLj99ttjxYoVqXMANthGG20U/fv3jxNPPDF6 9+4d2Ww2dRIA9cM4AVBoampqYubMmfH3v/89Jk2aFJ9++mnqJIB1VlRUFH369IkTTjgh+vXr59oG QONgnAAoZG+99VaMHz8+xo0bF3PnznXtA8hZ3bp1i4EDB8bAgQNju+22S50DQMMyTgA0Fi+99FKM Gzcu7rjjDm/7AHJC586d4+ijj45jjz02evTokToHgHSMEwCN0bJly+Kuu+6KsWPHxoIFC1LnAI1I ly5d4vjjj48jjzwydtxxx9Q5AOQG4wRAY1ZbWxtz586NcePGRVVVVSxfvjx1ElCA2rZtG+Xl5XH0 0UdHWVlZNGnSJHUSALnFOAHA//PlUFFVVRVVVVXx8ssvp04C8timm24ahx12WPTv3z/233//aNq0 aeokAHKXcQKAb/bSSy/FlClTYuLEifHII494mCbwvbbffvsYOHCgKxsArC/jBADfb/HixV+dqHjq qadS5wA5ZOutt44jjjgi+vfvH3vuuWdks9nUSQDkH+MEAOvnyxMVU6ZMiVmzZsVnn32WOgloQJlM Jnbbbbc49NBDo2/fvt6yAUBdME4A8MN9+umnMWfOnJgyZUpUVVXF66+/njoJqAdt2rSJfv36Rb9+ /eKAAw6ITTbZJHUSAIXFOAFA3fjiiy9i9uzZcc8998Tdd98dL7zwQuokYAN07Ngx+vbt+9Ug0bJl y9RJABQu4wQA9ePFF1+MGTNmxPTp0+OBBx6IlStXpk4CvkPLli1j7733jrKysigrK4sePXpEJpNJ nQVA42CcAKD+ffHFFzF//vyYMWNGzJgxIx555JFYu3Zt6ixo1LLZbPTs2fOrMeLnP/95tGjRInUW AI2TcQKAhvfxxx/HrFmzvhornn76aa8qhQbQtWvXOOCAA+LAAw+M/fbbL9q1a5c6CQAijBMA5IJ3 3303Zs+eHQ8++GDMmjUrnnzyyaipqUmdBXlv++23j3322Sd69+4dvXv3jk6dOqVOAoBvYpwAIPd8 8sknUV1dHXPmzIkZM2bE7NmzY/Xq1amzIKc1bdo09thjj9hrr72irKwsevXqFcXFxamzAGBdGCcA yH2rVq2K2bNnx+zZs+PRRx+NefPmxUcffZQ6C5Jq1qxZ9OzZM3r16hV777137L333tG+ffvUWQDw QxgnAMhPb7zxRsyZMydmz54dTzzxRMyfPz/WrFmTOgvqRTabjW7dusVee+0VP//5z2PXXXeNbt26 RVFRUeo0AKgLxgkACsMHH3wQc+fOjcceeyzmzp0b8+bNi3feeSd1FvwgxcXF0bNnz9hzzz1jzz33 jF69ekWHDh1SZwFAfTFOAFC4li9fHgsWLPjqs3DhwnjllVdSZ8HXtG/fPnbZZZevfbbddtvIZDKp 0wCgoRgnAGhc3n///aiurv5qrFiwYEG88MIL8fnnn6dOo8BlMpnYeuutvxogevToEbvssktsscUW qdMAIDXjBACsXbs2nn/++XjmmWdi8eLF8eyzz8bixYtjyZIl8dlnn6XOI898OULssMMOseOOO371 a7du3aJ169ap8wAgFxknAODbrF27Nl544YV45plnvvq8+OKLsWTJEm8LIZo3bx5dunSJ7bbbLn78 4x9/bYRo1apV6jwAyCfGCQD4IVavXh1Lly6NZ555Jl566aWvfV555ZWoqalJnUgd6NKly7d+2rZt mzoPAAqFcQIA6tqKFSti6dKlsWzZsli+fHksW7YsXnvttVi+fHm89tpr8dZbb4Ufv7mhXbt2seWW W0bnzp2jc+fO0alTp9hyyy1jq622iq5du3pDBgA0DOMEADS0NWvWxPLly2P58uXx6quvxquvvhpv v/12vPvuu/HWW2/FO++8E++++2688847HtT5A2QymSgtLY1NN900SktLo3379rHZZptFaWnp/wwQ G220UepcAMA4AQC57cuR4stf33rrrVi5cmW8//778f7773/jP69cuTJ1dp0pLi6ONm3aRNu2bb/6 /Ofv27RpE5tuumlsvvnmXxskioqKUqcDAOvOOAEAhaa2tvZrY8WaNWvik08+iVWrVsWaNWviww8/ jE8++STWrFkTK1eujDVr1sTHH38cq1at+p+TGrW1tes1drRu3TqaNm36tX+XyWSiTZs20aJFi2jZ smWUlJRE8+bNo7i4OFq1ahXNmjWLtm3bRvPmzWOjjTaKkpKSrwaIJk2a1Ml/EwAgpxknAAAAgKRq s6kLAAAAgMbNOAEAAAAkZZwAAAAAkjJOAAAAAEkZJwAAAICkjBMAAABAUsYJAAAAICnjBAAAAJCU cQIAAABIyjgBAAAAJGWcAAAAAJIyTgAAAABJGScAAACApIwTAAAAQFLGCQAAACAp4wQAAACQlHEC AAAASMo4AQAAACRlnAAAAACSMk4AAAAASRknAAAAgKSMEwAAAEBSxgkAAAAgKeMEAAAAkJRxAgAA AEjKOAEAAAAkZZwAAAAAkjJOAAAAAEkZJwAAAICkjBMAAABAUsYJAAAAICnjBAAAAJCUcQIAAABI yjgBAAAAJGWcAAAAAJIyTgAAAABJGScAAACApIwTAAAAQFLGCQAAACAp4wQAAACQlHECAAAASMo4 AQAAACRlnAAAAACSMk4AAAAASRknAAAAgKSMEwAAAEBSxgkAAAAgKeMEAAAAkJRxAgAAAEjKOAEA AAAkZZwAAAAAkjJOAAAAAEkZJwAAAICkjBMAAABAUsYJAAAAICnjBAAAAJCUcQIAAABIyjgBAAAA JGWcAAAAAJIyTgAAAABJGScAAACApIwTAAAAQFLGCQAAACAp4wQAAACQlHECAAAASMo4AQAAACRl nAAAAACSMk4AAAAASRknAAAAgKSMEwAAAEBSxgkAAAAgKeMEAAAAkJRxAgAAAEjKOAEAAAAkZZwA AAAAkjJOAAAAAEkZJwAAAICkjBMAAABAUsYJAAAAICnjBAAAAJCUcQIAAABIyjgBAAAAJGWcAAAA AJIyTgAAAABJGScAAACApIwTAAAAQFLGCQAAACAp4wQAAACQlHECAAAASMo4AQAAACTVJCJqU0cA AAAAjVbN/wErkoYx63VAaQAAAABJRU5ErkJggg== "
       height="41.688999"
       width="41.688999" />
  </g>
</svg>
