trialNum;oddDecisionCorrect;duration;orCol;orRow
1;1;17048;;
2;0;4518;;
3;0;3561;;
4;1;4475;5;4
5;0;4569;5;4
6;0;4168;5;4
7;0;4569;5;4
8;0;2992;9;2
9;0;4287;9;2
10;0;4424;9;2
11;0;4719;9;2
12;0;2008;1;5
13;0;3985;10;3
14;0;4608;10;3
15;0;1959;4;3
16;0;6216;8;6
17;0;5681;8;6
18;0;1822;2;2
19;0;5384;2;2
20;0;4280;7;3
21;0;4982;7;3
22;0;3930;5;2
23;0;3375;5;2
24;0;3448;5;2
25;0;1409;4;6
26;0;4920;4;6
27;0;4807;4;6
28;0;2448;10;3
29;0;2384;12;4
30;0;1711;9;4
31;0;3774;8;3
32;0;2992;8;3
33;0;3697;8;3
34;0;3664;8;3
35;0;3383;7;4
36;0;2856;8;6
37;0;3296;8;6
38;0;1855;2;6
39;0;4384;2;6
40;0;3544;2;6
41;0;2888;2;6
42;0;4144;2;6
43;0;5039;11;2
44;0;5183;11;2
45;0;4121;11;2
46;0;3151;10;3
47;0;4886;10;3
48;0;1847;2;2
49;0;4680;2;2
50;1;6176;10;1
51;0;5049;10;1
52;0;4872;10;1
53;0;4105;10;1
54;0;4007;10;1
55;0;3751;10;1
56;0;5319;10;1
57;0;3776;10;1
58;0;2767;11;6
59;0;3151;7;3
60;0;5088;7;3
61;0;6288;7;3
62;0;6977;7;3
63;0;2943;6;2
64;0;5103;6;6
65;0;5896;6;6
66;0;4536;6;6
67;0;2792;7;5
68;0;5769;7;5
69;0;1127;3;5
70;0;4360;3;5
