trialNum;oddDecisionCorrect;duration;orCol;orRow
1;1;33590;;
2;0;8399;3;5
3;0;4768;3;5
4;1;2973;10;5
5;1;6040;9;5
6;0;4552;9;5
7;0;6068;9;5
8;0;7478;9;5
9;0;4000;9;5
10;0;4288;9;5
11;0;2080;4;7
12;0;2751;7;2
13;0;2623;7;2
14;0;2168;10;4
15;0;952;7;4
16;0;2081;2;7
17;0;2400;2;7
18;0;3271;11;2
19;0;3992;11;2
20;0;10441;11;2
21;0;5768;11;2
22;0;3891;11;2
23;0;3328;10;6
24;0;2407;1;6
25;0;3121;7;5
26;0;2384;2;2
27;0;1728;12;3
28;0;4007;12;3
29;0;4751;12;3
30;0;5553;12;3
31;0;3928;10;5
32;0;4504;10;5
33;1;3065;8;4
34;0;6000;8;4
35;0;5489;8;4
36;0;2208;9;6
37;0;3447;7;3
38;0;5649;7;3
39;0;3954;6;5
40;1;4647;5;3
41;0;8655;5;3
42;0;6232;5;3
43;0;6360;5;3
44;0;803;7;2
45;0;4943;7;2
46;0;6409;7;2
47;0;4161;7;2
48;0;791;5;6
49;0;5624;8;4
50;1;5521;9;4
51;0;1647;5;5
52;0;5512;5;5
53;0;2832;5;4
54;0;1072;7;6
55;0;7128;7;6
56;0;5521;7;6
57;0;2894;2;6
58;0;912;8;6
59;0;3472;8;6
60;0;5049;8;6
61;0;808;5;6
62;0;791;6;3
63;0;2008;4;6
64;0;4993;4;6
65;0;2656;4;6
66;0;3504;4;6
67;0;704;7;5
68;0;2640;2;3
69;0;3272;10;3
70;0;2976;10;3
