trialNum;oddDecisionCorrect;duration;orCol;orRow
1;0;10659;;
2;1;2983;11;5
3;0;2455;11;5
4;0;1496;11;3
5;0;3255;2;2
6;0;1439;3;3
7;1;2078;3;7
8;0;1761;3;7
9;0;2767;3;7
10;0;1720;5;4
11;1;1543;5;4
12;0;1976;12;5
13;1;2512;3;6
14;0;2464;3;6
15;0;2734;3;6
16;0;3687;3;6
17;0;1576;4;3
18;0;2185;10;4
19;0;2702;10;4
20;1;3807;5;3
21;1;4209;5;5
22;0;3106;5;5
23;1;3567;11;7
24;0;4823;11;7
25;0;2768;2;5
26;0;3184;2;5
27;0;2127;2;5
28;0;1728;9;3
29;0;2664;9;3
30;0;2407;9;3
31;0;1127;7;2
32;0;2503;7;2
33;0;2088;7;2
34;0;2473;7;2
35;0;1887;7;2
36;0;1423;3;2
37;0;1007;7;2
38;0;2294;6;5
39;0;1144;8;5
40;0;1823;8;5
41;1;1472;2;5
42;0;4607;2;5
43;0;3855;2;5
44;0;1375;2;3
45;0;1017;7;3
46;0;1575;7;3
47;0;1200;9;2
48;0;1615;5;5
49;0;1344;8;4
50;0;1607;3;2
51;0;2440;3;2
52;0;3215;3;2
53;0;3392;3;2
54;0;1120;3;2
55;0;2712;3;2
56;0;1145;8;4
57;0;1168;7;3
58;0;2319;7;3
59;0;2497;1;4
60;0;1152;7;2
61;1;1912;12;7
62;0;1119;3;3
63;0;2767;3;3
64;0;1768;3;3
65;0;1184;8;5
