trialNum;oddDecisionCorrect;duration;orCol;orRow
1;0;11119;;
2;0;1188;6;5
3;0;2728;6;5
4;0;1121;3;2
5;0;4018;3;2
6;0;1246;8;7
7;0;2534;8;7
8;0;2560;8;7
9;0;3464;8;7
10;0;967;5;2
11;0;1329;6;6
12;0;2232;11;2
13;0;2649;11;2
14;0;1064;10;4
15;0;1054;6;3
16;0;2959;6;3
17;0;2801;6;3
18;0;1256;3;3
19;0;2455;3;3
20;0;1663;9;6
21;0;2321;9;6
22;0;1697;6;1
23;0;2232;6;1
24;0;1920;6;1
25;0;1024;6;7
26;0;2519;6;7
27;0;2935;6;7
28;0;3112;6;7
29;0;1041;4;2
30;0;1224;7;6
31;0;3463;7;6
32;0;2671;11;4
33;0;3520;11;4
34;0;1953;2;4
35;0;1055;3;4
36;0;935;2;4
37;0;4240;2;4
38;0;3961;2;4
39;0;968;2;4
40;0;4655;2;4
41;0;4104;2;4
42;0;5328;2;4
43;0;5528;2;4
44;0;1062;7;5
45;0;1367;2;2
46;0;4399;2;2
47;0;6672;2;2
48;0;1032;10;1
49;0;1720;9;6
50;0;4775;9;6
51;0;991;11;3
52;0;3737;11;3
53;0;904;3;3
54;0;4167;3;3
55;0;3480;3;3
56;0;3568;3;3
57;0;1831;4;2
58;0;1248;6;6
59;0;1784;9;5
60;0;3584;9;5
61;0;2536;10;5
62;0;1383;12;2
63;0;4736;12;2
64;0;944;5;5
65;0;3985;5;5
66;0;4152;5;5
67;0;4135;5;5
68;0;1092;6;3
69;0;984;7;2
70;0;3872;7;2
