trialNum;oddDecisionCorrect;duration;orCol;orRow
1;0;21893;;
2;0;5598;;
3;0;3009;3;6
4;0;5012;3;6
5;0;2688;10;6
6;0;2128;6;4
7;0;2216;2;4
8;0;1350;7;4
9;0;2480;3;1
10;0;2528;11;7
11;0;3832;11;7
12;1;4216;11;4
13;0;4991;11;4
14;0;1376;7;2
15;0;2951;4;3
16;0;4294;4;3
17;0;5641;4;3
18;0;1864;8;5
19;0;2112;9;6
20;0;6257;9;6
21;0;4792;9;6
22;0;1584;6;4
23;0;4465;6;4
24;0;1752;3;2
25;0;3760;3;2
26;0;3878;3;2
27;0;5345;3;2
28;0;1464;8;5
29;0;1952;1;4
30;0;1894;2;6
31;0;4952;2;6
32;0;1160;7;5
33;0;1550;2;2
34;0;3816;2;2
35;0;4049;2;2
36;0;1583;7;5
37;0;4863;7;5
38;1;3696;3;7
39;0;4089;3;7
40;1;2054;3;7
41;0;3568;8;5
42;0;3816;8;5
43;0;1696;7;5
44;0;2536;12;1
45;0;3040;10;2
46;0;3224;11;7
47;0;4577;11;7
48;0;2234;11;4
49;0;2103;6;6
50;0;4201;6;6
51;0;2335;2;5
52;0;2087;8;3
53;0;3208;8;3
54;0;2648;5;4
55;0;4135;5;4
56;0;2703;5;4
57;0;1456;9;7
58;0;1423;8;6
59;0;3480;8;6
60;0;3470;8;6
61;0;2888;8;6
62;0;3097;8;6
63;1;3549;4;4
64;0;1632;6;7
65;0;1936;10;4
66;0;2727;5;2
67;0;2125;7;6
68;0;3256;7;6
69;0;2215;7;6
70;0;1952;4;5
