trialNum;oddDecisionCorrect;duration;orCol;orRow
1;0;29030;7;3
2;0;5102;7;3
3;0;4472;7;3
4;0;3341;6;7
5;0;3551;6;7
6;0;1498;4;6
7;0;3498;4;6
8;0;1198;5;7
9;1;4593;11;3
10;0;2015;2;3
11;0;1111;4;6
12;0;1654;10;5
13;0;1431;9;2
14;0;1608;4;3
15;0;1735;4;4
16;0;1336;1;4
17;0;920;5;2
18;0;7217;5;2
19;0;5016;5;2
20;0;3239;5;2
21;0;4489;9;7
22;0;7194;9;7
23;0;6552;9;7
24;0;848;7;2
25;0;3616;7;2
26;0;1063;3;7
27;0;2520;2;2
28;0;4415;2;2
29;0;1543;1;2
30;0;3090;1;2
31;0;2335;1;2
32;0;984;7;3
33;0;3680;7;3
34;0;4058;2;1
35;0;1271;10;3
36;0;1207;3;2
37;0;4048;3;2
38;0;2057;3;5
39;0;3216;3;5
40;0;2935;3;5
41;0;2920;3;5
42;0;2257;3;5
43;0;3192;3;5
44;0;2322;3;5
45;0;1506;2;2
46;0;2232;2;2
47;0;1208;4;4
48;0;2536;4;4
49;0;3377;4;4
50;0;1590;9;1
51;0;1071;11;2
52;0;3711;11;2
53;0;2481;11;2
54;0;2431;11;2
55;0;3095;11;5
56;0;2512;11;5
57;0;1239;2;3
58;0;894;4;3
59;0;1208;5;7
60;0;1559;1;5
61;0;1039;7;3
62;0;4432;2;5
63;0;2808;12;3
64;0;1144;8;3
65;0;1303;7;7
66;0;1991;11;7
67;0;1456;11;6
68;0;2561;10;6
69;0;2536;11;6
70;0;3856;11;6
