trialNum;oddDecisionCorrect;duration;orCol;orRow
1;0;13526;;
2;0;1517;;
3;0;807;6;5
4;0;1651;11;4
5;0;1256;11;4
6;0;1184;6;3
7;0;2406;6;3
8;0;1486;7;6
9;0;1399;7;6
10;0;1359;7;4
11;0;1382;4;5
12;0;1391;4;5
13;0;1368;4;5
14;0;1367;4;5
15;1;2184;6;2
16;1;1240;11;7
17;0;921;7;5
18;0;1080;11;4
19;0;1311;11;4
20;0;1440;7;7
21;0;924;5;4
22;1;1897;6;2
23;0;2151;6;2
24;1;2201;11;6
25;0;2431;11;6
26;0;1160;5;7
27;0;1496;5;7
28;0;1927;5;7
29;0;1095;9;2
30;0;1687;9;5
31;1;992;5;1
32;0;2080;3;2
33;1;2255;8;6
34;0;2225;8;6
35;0;2513;11;1
36;1;1680;9;4
37;0;1119;5;6
38;0;1471;5;6
39;0;1928;5;6
40;0;1279;5;6
41;0;2007;5;6
42;0;1264;5;6
43;0;928;6;2
44;1;1229;11;5
45;0;2473;4;6
46;0;1335;4;3
47;0;1760;10;6
48;0;2551;10;6
49;0;1496;10;6
50;0;1912;10;6
51;1;1696;12;2
52;0;2424;12;2
53;0;1775;12;2
54;1;1679;1;6
55;0;2824;1;6
56;0;1512;1;6
57;1;1591;1;2
58;0;2994;1;2
59;1;2111;12;6
60;0;2688;12;6
61;0;1561;12;6
62;0;2159;12;6
63;0;1462;6;7
64;0;1223;6;7
65;1;2024;11;3
66;0;1994;4;2
67;0;1719;6;7
68;1;1112;3;2
69;0;2456;3;2
70;0;2432;3;2
