trialNum;oddDecisionCorrect;duration;orCol;orRow
1;1;2611;1;2
2;0;1429;1;2
3;0;1224;2;4
4;0;1979;2;4
5;0;1976;2;4
6;0;1013;5;6
7;0;1071;7;2
8;0;1872;11;4
9;0;1112;9;7
10;0;1048;4;4
11;0;1390;4;4
12;1;1583;4;4
13;0;2536;7;5
14;0;1406;7;5
15;0;1214;7;5
16;0;1032;5;5
17;0;1232;5;5
18;0;1407;5;5
19;0;1329;5;5
20;0;1162;8;2
21;1;1399;1;5
22;0;938;7;4
23;0;1384;2;5
24;0;839;7;5
25;0;1376;7;5
26;0;1039;6;1
27;0;1071;8;6
28;0;1199;1;5
29;0;895;6;2
30;0;929;6;2
31;0;1192;6;2
32;0;1527;6;2
33;0;1030;11;3
34;0;776;11;2
35;0;1295;4;7
36;0;983;10;7
37;0;1024;10;7
38;0;830;8;3
39;0;727;9;3
40;0;1088;11;7
41;0;1318;11;7
42;0;1208;11;7
43;0;1144;11;5
44;0;1164;11;5
45;0;1192;10;6
46;0;1496;10;6
47;0;1432;10;6
48;0;961;10;6
49;0;1287;10;6
50;1;2118;12;1
51;0;1392;12;1
52;0;904;3;3
53;0;1327;10;6
54;0;1584;10;6
55;0;1503;10;6
56;0;871;2;5
57;0;856;7;3
58;0;1153;7;3
59;0;1031;7;3
60;0;1327;7;3
61;0;1464;7;3
62;0;1367;11;1
63;0;983;11;1
64;1;927;12;6
65;0;1400;12;6
66;0;1199;12;6
67;0;880;7;5
68;0;927;7;5
69;0;791;10;4
70;0;871;2;6
