trialNum;oddDecisionCorrect;duration;orCol;orRow
1;0;6742;9;4
2;0;1127;6;1
3;0;1328;7;6
4;0;1483;11;7
5;0;1759;11;7
6;0;1217;11;1
7;1;1727;11;1
8;0;2024;11;1
9;0;887;7;5
10;0;1184;11;3
11;0;1414;11;3
12;0;1631;7;6
13;0;1192;11;2
14;0;1247;11;2
15;0;1072;7;6
16;0;1160;10;6
17;0;1916;5;1
18;0;2288;11;3
19;0;1287;11;3
20;0;1456;7;1
21;0;2424;7;1
22;0;2602;7;1
23;0;1424;4;4
24;0;1527;3;3
25;1;1240;12;1
26;0;2567;12;1
27;0;1584;12;1
28;0;2488;12;1
29;0;2313;12;1
30;0;1832;12;1
31;0;1183;11;1
32;0;1599;11;1
33;0;1200;6;6
34;0;2568;6;6
35;0;1271;5;2
36;0;1248;2;5
37;0;2000;7;3
38;0;1263;4;5
39;0;1713;4;5
40;0;824;5;2
41;0;1528;5;2
42;0;999;9;7
43;0;1097;11;3
44;0;1150;6;4
45;0;1711;6;4
46;0;990;4;5
47;0;1623;4;5
48;0;1816;4;5
49;0;927;9;6
50;0;1104;9;6
51;0;2611;10;2
52;0;1424;11;3
53;0;1584;11;3
54;0;888;8;4
55;0;904;10;2
56;0;912;11;7
57;0;1310;11;7
58;0;1136;11;7
59;0;1335;9;2
60;0;832;10;1
61;0;1904;1;2
62;0;1543;1;2
63;0;952;6;6
64;0;1224;6;6
65;0;1414;6;6
66;0;1183;10;3
67;0;1489;10;3
68;0;991;4;7
69;0;984;5;5
70;0;2081;5;5
