trialNum;oddDecisionCorrect;duration;orCol;orRow
1;0;10114;;
2;0;3695;;
3;0;2087;;
4;0;1878;;
5;0;1495;;
6;0;1351;3;4
7;0;1898;4;7
8;0;2447;4;7
9;0;1607;3;2
10;0;2457;3;2
11;0;1431;3;2
12;0;1207;10;3
13;0;2894;10;3
14;0;2545;10;3
15;0;1199;10;3
16;0;1511;10;3
17;0;2465;10;3
18;0;1991;4;6
19;0;1847;4;6
20;0;1223;4;6
21;1;1975;6;1
22;0;1977;9;7
23;0;2265;9;7
24;0;1456;8;2
25;1;1536;6;2
26;0;1264;10;2
27;0;3193;10;2
28;0;1296;10;6
29;0;2648;10;6
30;0;1807;7;4
31;0;2024;7;4
32;0;1607;11;7
33;0;2720;4;3
34;0;1017;10;3
35;0;2921;10;3
36;0;1415;10;3
37;0;1104;3;3
38;1;2776;2;5
39;0;3265;2;5
40;0;1151;9;4
41;0;1327;9;6
42;0;3647;6;1
43;0;2144;4;2
44;0;1717;4;2
45;0;2088;4;2
46;0;824;7;3
47;0;2376;7;3
48;0;1103;11;5
49;0;2049;11;5
50;0;1527;11;5
51;0;2568;11;5
52;0;6456;11;5
53;0;2048;11;5
54;0;1440;11;5
55;0;1160;10;3
56;0;2297;10;3
57;1;1527;4;6
58;0;2983;9;5
59;0;1953;9;5
60;0;1128;8;7
61;0;1800;9;3
62;0;1704;9;3
63;0;2688;9;3
64;0;2089;9;3
65;0;1352;9;3
66;1;1593;1;6
67;0;3719;1;6
68;0;2128;7;5
69;0;2287;7;5
70;0;1303;7;5
