trialNum;oddDecisionCorrect;duration;orCol;orRow
1;1;53200;3;1
2;0;3711;-1;-1
3;0;1224;4;5
4;0;3119;-1;-1
5;0;3497;-1;-1
6;0;1327;7;1
7;0;3656;-1;-1
8;0;2095;9;1
9;0;3352;-1;-1
10;0;2864;-1;-1
11;0;2327;6;4
12;0;3359;-1;-1
13;0;3352;-1;-1
14;0;959;6;4
15;0;4159;-1;-1
16;0;2313;10;2
17;0;1657;4;2
18;0;4535;-1;-1
19;0;3200;-1;-1
20;0;2447;-1;-1
21;0;1119;5;3
22;0;2058;-1;-1
23;0;3111;-1;-1
24;0;1920;1;6
25;0;2711;11;5
26;0;3775;-1;-1
27;0;3599;-1;-1
28;0;1080;4;6
29;1;4400;6;5
30;0;1959;10;5
31;0;3648;-1;-1
32;0;2416;7;5
33;0;1831;5;5
34;0;3873;-1;-1
35;0;3616;8;3
36;0;2560;-1;-1
37;0;2958;-1;-1
38;0;3096;9;7
39;0;2680;9;2
40;0;3560;-1;-1
41;0;3088;-1;-1
42;0;3953;-1;-1
43;0;2792;-1;-1
44;0;2783;-1;-1
45;0;2384;-1;-1
46;0;2337;12;6
47;0;3648;10;1
48;0;4288;-1;-1
49;1;3016;6;4
50;0;3694;9;2
51;0;3974;-1;-1
52;0;2280;10;7
53;0;3049;-1;-1
54;0;3880;-1;-1
55;0;3703;-1;-1
56;0;2918;-1;-1
57;0;2783;7;5
58;0;2608;-1;-1
59;0;3168;-1;-1
60;0;2416;-1;-1
61;0;2952;-1;-1
62;0;3583;-1;-1
63;0;3774;-1;-1
64;0;2759;-1;-1
65;0;3032;-1;-1
66;0;4024;-1;-1
67;0;3927;-1;-1
68;0;3455;-1;-1
69;0;3503;10;6
70;0;2784;-1;-1
