trialNum;oddDecisionCorrect;duration;orCol;orRow
1;0;261685;6;4
2;0;7808;6;4
3;0;6921;9;4
4;1;14001;3;1
5;0;16611;3;1
6;0;6096;3;6
7;0;3353;1;6
8;0;11081;1;6
9;0;5696;1;3
10;1;9791;4;3
11;0;13089;4;3
12;0;15087;6;2
13;0;15033;6;2
14;0;14585;6;2
15;0;1431;7;6
16;0;12522;7;6
17;0;10913;7;6
18;0;9064;7;6
19;0;6336;10;6
20;0;3688;1;7
21;0;7024;6;3
22;0;9846;6;3
23;0;12737;6;3
24;0;1432;7;4
25;0;7609;7;4
26;0;7544;1;5
27;0;5096;9;1
28;0;9688;9;1
29;0;4256;4;5
30;0;7880;11;4
31;0;8800;11;4
32;1;6320;5;1
33;0;9177;5;1
34;0;7008;9;6
35;0;8576;9;6
36;0;4000;4;3
37;0;1343;7;5
38;0;5401;7;5
39;0;4366;4;6
40;0;8521;4;6
41;1;6208;4;6
42;0;11977;4;6
43;0;10521;4;6
44;0;1519;5;6
45;0;10026;5;6
46;0;8280;5;6
47;0;3672;11;6
48;0;9233;11;6
49;0;10249;11;6
50;0;6367;9;4
51;0;10513;9;4
52;1;7671;9;5
53;0;7361;9;5
54;0;9987;9;5
55;0;2584;6;3
56;0;3720;12;5
57;0;5569;6;1
58;0;7784;6;1
59;0;8345;6;1
60;0;4664;9;6
61;0;3272;2;1
62;0;4649;2;1
63;0;8055;2;1
64;0;5425;4;6
65;1;6000;8;2
66;0;3359;2;5
67;0;3511;11;3
68;0;1312;6;4
69;0;6976;6;4
70;0;4104;10;7
