trialNum;oddDecisionCorrect;duration;orCol;orRow
1;0;10849;;
2;1;2358;6;5
3;0;1200;4;5
4;0;1899;4;5
5;0;1760;4;5
6;0;1334;11;5
7;0;953;4;6
8;1;1302;6;1
9;0;1439;3;6
10;0;1881;3;6
11;0;1097;1;5
12;0;879;9;5
13;0;1489;9;5
14;0;1278;9;5
15;0;1183;1;2
16;0;823;9;6
17;0;1702;9;6
18;0;3601;3;2
19;0;840;1;5
20;0;882;9;2
21;0;1551;9;2
22;0;1855;9;2
23;0;1343;4;2
24;0;1519;4;2
25;0;775;9;7
26;0;1144;9;7
27;0;695;9;7
28;0;1039;9;7
29;0;832;9;7
30;0;736;9;7
31;0;760;9;7
32;0;743;9;7
33;0;823;9;7
34;0;905;9;7
35;0;856;9;7
36;0;601;9;7
37;0;671;9;7
38;0;936;9;4
39;0;776;9;6
40;0;856;4;6
41;0;1280;4;6
42;0;1473;4;6
43;0;704;4;6
44;0;621;4;6
45;0;711;4;6
46;1;655;3;7
47;0;759;11;4
48;0;1015;11;4
49;0;704;11;4
50;0;709;11;4
51;0;1775;11;4
52;0;840;3;6
53;0;888;3;6
54;0;1094;3;5
55;0;760;11;2
56;0;698;9;5
57;0;1599;9;5
58;0;1992;9;5
59;0;896;9;5
60;0;831;3;6
61;0;879;3;6
62;0;1256;3;6
63;0;1823;3;6
64;0;775;9;2
65;0;1303;9;2
66;0;646;9;2
67;0;1167;9;2
68;1;888;5;3
69;0;809;2;4
70;0;815;2;6
