trialNum;oddDecisionCorrect;duration;orCol;orRow
1;0;8744;8;6
2;0;1158;5;5
3;0;4208;5;5
4;0;2554;5;5
5;0;2566;5;5
6;0;1071;11;4
7;0;2262;11;4
8;0;2432;11;4
9;0;2024;11;4
10;0;840;5;3
11;0;2440;5;3
12;0;2224;5;3
13;0;1440;12;2
14;0;1136;7;4
15;0;1926;7;4
16;0;9168;7;4
17;0;1065;5;5
18;0;1368;4;4
19;0;1208;1;4
20;0;2587;1;4
21;0;3537;1;4
22;0;2379;1;4
23;0;2311;9;2
24;0;1975;9;2
25;0;2752;9;2
26;0;1143;10;4
27;0;2416;10;4
28;0;1247;9;6
29;0;1063;2;4
30;0;1295;3;6
31;0;2254;10;2
32;0;1367;10;1
33;0;3001;10;1
34;0;2178;10;1
35;0;1679;2;2
36;0;2152;12;6
37;0;1135;8;4
38;0;1663;9;7
39;0;3649;9;7
40;0;2376;11;4
41;0;1896;12;6
42;0;887;8;2
43;0;2960;8;2
44;0;4999;8;2
45;0;2031;9;6
46;0;3111;9;6
47;0;2279;9;6
48;0;2160;9;6
49;0;3136;11;2
50;0;1094;10;4
51;0;1255;4;5
52;0;2257;4;5
53;0;1447;2;5
54;0;2448;2;5
55;0;3440;2;5
56;0;1847;2;6
57;0;2151;11;6
58;0;1176;4;6
59;0;1431;3;1
60;0;2344;3;1
61;0;3487;3;1
62;0;1775;2;3
63;0;3216;2;3
64;0;2224;2;3
65;0;2345;2;3
66;0;1144;1;3
67;0;2766;1;3
68;0;1503;11;3
69;0;2528;11;3
70;0;1175;4;5
