trialNum;oddDecisionCorrect;duration;orCol;orRow
1;0;11917;7;7
2;0;2391;11;1
3;0;1359;3;5
4;0;1865;3;5
5;0;2383;3;5
6;1;3808;6;7
7;0;1767;6;7
8;0;1630;2;2
9;0;1607;2;2
10;0;1296;9;4
11;0;1766;2;2
12;0;1950;2;2
13;0;1183;9;6
14;0;1287;1;7
15;0;2353;1;7
16;0;953;6;4
17;0;1584;4;1
18;0;2519;4;1
19;0;1216;9;2
20;0;1311;3;1
21;1;2495;3;1
22;0;1552;6;2
23;0;1215;11;4
24;1;1481;2;4
25;0;1359;7;6
26;0;2559;7;6
27;0;2022;7;6
28;0;2401;7;6
29;0;1136;5;2
30;0;2303;10;4
31;0;2352;6;7
32;0;1984;6;7
33;0;2088;6;7
34;0;937;10;4
35;0;1351;7;6
36;0;1272;12;5
37;0;1879;10;5
38;0;1264;10;6
39;0;1968;10;6
40;0;2073;10;6
41;0;2447;4;6
42;0;1479;4;6
43;0;1207;11;5
44;0;2472;9;7
45;0;2305;9;7
46;0;1271;1;4
47;0;1183;6;7
48;0;1112;7;3
49;0;1504;4;3
50;1;1600;11;6
51;0;2113;2;6
52;0;1719;11;5
53;0;1592;11;5
54;0;2777;11;5
55;0;1024;10;2
56;0;1992;6;2
57;0;2704;6;2
58;0;1119;11;5
59;0;2399;11;5
60;0;1071;12;4
61;0;1768;12;4
62;0;1848;12;4
63;0;3344;12;4
64;0;1031;8;5
65;0;2192;8;5
