trialNum;oddDecisionCorrect;duration;orCol;orRow
1;0;7363;9;4
2;0;4192;9;4
3;0;1055;9;4
4;0;979;3;5
5;0;1335;12;5
6;0;1351;2;2
7;0;1593;2;2
8;0;1545;2;2
9;0;1366;2;2
10;0;1488;2;2
11;0;984;11;4
12;0;1046;7;4
13;0;1031;9;5
14;0;1383;9;5
15;0;1440;9;5
16;0;1416;9;3
17;0;1136;9;3
18;1;1823;2;2
19;0;1448;2;2
20;0;1656;2;2
21;0;1752;2;2
22;0;1515;2;2
23;0;1599;2;2
24;0;1399;7;6
25;0;1663;7;6
26;0;1056;8;4
27;0;1831;8;4
28;0;2036;8;4
29;0;1146;10;2
30;0;1328;10;2
31;0;1680;10;2
32;0;1295;7;3
33;0;1096;9;2
34;0;1337;9;2
35;0;1591;7;3
36;0;1408;7;3
37;0;1824;7;3
38;0;1624;7;3
39;0;1231;8;4
40;0;1248;8;4
41;0;1425;8;4
42;0;1238;5;2
43;0;1369;5;2
44;0;1101;9;5
45;0;1704;11;1
46;0;1230;11;1
47;0;1280;10;2
48;0;1160;10;2
49;0;1208;9;2
50;0;2031;6;3
51;0;1271;6;3
52;0;1167;3;3
53;1;1182;12;7
54;0;1062;7;2
55;0;1408;7;2
56;0;1959;7;2
57;0;1736;2;5
58;0;1256;4;6
59;0;1207;8;6
60;0;1264;8;6
61;0;1103;6;5
62;0;1279;6;5
63;0;1247;3;2
64;0;1374;3;5
65;0;1561;3;5
66;0;1825;4;2
67;0;1558;4;2
68;0;1552;4;2
69;0;1368;4;2
70;0;1432;4;2
