trialNum;oddDecisionCorrect;duration;orCol;orRow
1;0;15143;9;5
2;0;5848;9;5
3;0;4696;9;5
4;0;3807;9;5
5;0;3740;9;5
6;0;4654;9;5
7;0;4784;9;5
8;0;5182;9;5
9;0;3777;9;5
10;0;5312;9;5
11;0;2800;12;2
12;0;2863;6;7
13;0;1023;6;3
14;0;1624;11;3
15;0;1840;3;4
16;0;2073;10;2
17;0;1599;9;4
18;0;1455;6;7
19;0;2264;2;6
20;0;1462;10;5
21;0;5703;10;5
22;0;4962;10;5
23;0;3928;10;5
24;0;4232;10;5
25;0;1030;5;5
26;0;3143;5;5
27;0;887;5;5
28;0;1079;3;4
29;0;3265;3;4
30;0;1856;2;7
31;0;3103;2;7
32;0;2751;2;7
33;0;1428;8;7
34;0;2984;8;7
35;0;2289;12;4
36;0;1127;6;5
37;0;1240;9;5
38;0;1151;9;4
39;0;4119;9;4
40;0;4096;9;4
41;0;4792;9;4
42;0;4025;9;4
43;0;1063;7;3
44;0;1513;3;2
45;0;5864;3;2
46;0;5216;3;2
47;0;1247;6;6
48;0;1024;7;4
49;0;1134;7;5
50;0;4470;7;5
51;0;1071;8;3
52;0;1072;3;4
53;0;3959;3;4
54;0;3544;3;4
55;0;1473;11;7
56;0;1079;2;3
57;0;3055;2;3
58;0;2840;2;3
59;0;1305;2;7
60;0;4200;2;7
61;0;3304;2;7
62;0;920;5;2
63;0;3519;5;2
64;0;2297;9;2
65;0;1553;12;2
66;0;1143;6;2
67;0;4568;6;2
68;0;2440;12;2
69;0;2223;10;2
70;0;2007;1;4
