trialNum;oddDecisionCorrect;duration;orCol;orRow
1;0;61696;-1;-1
2;0;2415;-1;-1
3;0;1847;7;1
4;0;1579;9;1
5;0;1898;-1;-1
6;0;2208;-1;-1
7;0;2105;-1;-1
8;0;2694;-1;-1
9;0;2183;-1;-1
10;0;1910;-1;-1
11;1;2088;2;5
12;0;2511;-1;-1
13;0;2568;2;5
14;0;1968;-1;-1
15;0;2454;-1;-1
16;0;1359;11;4
17;0;1217;5;2
18;0;1544;-1;-1
19;0;1023;6;4
20;0;1863;11;6
21;1;1592;11;3
22;0;1887;-1;-1
23;0;2272;-1;-1
24;0;1687;2;7
25;0;2143;-1;-1
26;1;2840;3;2
27;0;1768;2;2
28;0;1151;6;3
29;0;3672;-1;-1
30;0;2806;11;6
31;0;2598;12;3
32;0;2837;7;6
33;0;1423;10;2
34;0;3154;-1;-1
35;0;2831;-1;-1
36;0;3160;-1;-1
37;0;3568;-1;-1
38;0;1103;12;4
39;0;1807;12;3
40;0;1255;11;5
41;0;3712;-1;-1
42;0;2912;-1;-1
43;0;2177;-1;-1
44;0;2770;-1;-1
45;0;1030;4;5
46;0;2416;11;3
47;0;2367;6;5
48;0;1736;5;7
49;0;2408;-1;-1
50;1;3038;9;6
51;0;952;9;6
52;0;1248;7;3
53;0;1168;2;5
54;0;1063;10;3
55;0;3136;-1;-1
56;0;887;6;5
57;0;1336;10;3
58;0;2199;-1;-1
59;0;951;10;2
60;0;3248;-1;-1
61;0;2305;-1;-1
62;0;1176;3;6
63;0;3095;9;6
64;0;4136;-1;-1
65;0;1264;9;5
66;0;1470;-1;-1
67;0;2151;-1;-1
68;0;928;6;2
69;0;1841;-1;-1
70;0;2192;4;7
