trialNum;oddDecisionCorrect;duration;orCol;orRow
1;0;7282;4;6
2;0;1672;4;7
3;0;2111;4;7
4;0;1745;4;7
5;0;2023;4;7
6;1;3263;11;3
7;0;1999;11;3
8;0;1471;2;3
9;0;3040;2;3
10;0;2136;12;6
11;0;2592;12;6
12;0;2944;12;6
13;0;1247;4;1
14;0;2265;4;1
15;0;2135;4;1
16;0;2136;10;2
17;0;2952;2;6
18;0;1623;9;2
19;0;1671;5;6
20;0;4721;5;6
21;0;2000;7;6
22;0;2411;5;7
23;0;3391;5;7
24;0;2111;1;2
25;0;2743;1;2
26;0;2432;1;2
27;0;4304;1;2
28;0;1151;11;5
29;0;1248;10;6
30;0;991;10;6
31;0;2464;10;6
32;0;1016;6;2
33;0;1487;4;4
34;0;1784;12;5
35;0;1977;1;2
36;0;2112;1;2
37;0;1471;8;1
38;0;3272;8;1
39;0;4015;8;1
40;0;1207;11;3
41;0;3872;11;3
42;0;2615;11;3
43;0;1320;6;2
44;0;2344;6;2
45;0;1232;9;2
46;0;1983;9;2
47;0;2592;9;2
48;0;2921;9;2
49;0;3047;9;2
50;0;1375;10;6
51;0;1231;7;6
52;0;1775;7;6
53;0;2406;7;6
54;0;2335;7;6
55;0;1063;5;4
56;0;2160;5;4
57;0;4087;9;5
58;0;1952;3;5
59;0;1736;3;6
60;0;2625;3;6
61;0;895;5;4
62;0;3688;5;4
63;0;1304;5;6
64;0;3985;5;6
65;0;2432;5;6
