<?xml version="1.0" encoding="UTF-8" standalone="no"?>
<!-- Created with Inkscape (http://www.inkscape.org/) -->

<svg
   xmlns:dc="http://purl.org/dc/elements/1.1/"
   xmlns:cc="http://creativecommons.org/ns#"
   xmlns:rdf="http://www.w3.org/1999/02/22-rdf-syntax-ns#"
   xmlns:svg="http://www.w3.org/2000/svg"
   xmlns="http://www.w3.org/2000/svg"
   xmlns:xlink="http://www.w3.org/1999/xlink"
   xmlns:sodipodi="http://sodipodi.sourceforge.net/DTD/sodipodi-0.dtd"
   xmlns:inkscape="http://www.inkscape.org/namespaces/inkscape"
   width="1600"
   height="900"
   id="svg10877"
   version="1.1"
   inkscape:version="0.48.5 r10040"
   sodipodi:docname="muster.svg">
  <defs
     id="defs10879">
    <linearGradient
       inkscape:collect="always"
       id="linearGradient3754">
      <stop
         style="stop-color:#000000;stop-opacity:1;"
         offset="0"
         id="stop3756" />
      <stop
         style="stop-color:#000000;stop-opacity:0;"
         offset="1"
         id="stop3758" />
    </linearGradient>
    <radialGradient
       inkscape:collect="always"
       xlink:href="#linearGradient3754"
       id="radialGradient3760"
       cx="560"
       cy="397.14285"
       fx="560"
       fy="397.14285"
       r="85.714287"
       gradientTransform="matrix(1,0,0,1.0333333,0,-13.23808)"
       gradientUnits="userSpaceOnUse" />
    <radialGradient
       inkscape:collect="always"
       xlink:href="#linearGradient3754"
       id="radialGradient3782"
       gradientUnits="userSpaceOnUse"
       gradientTransform="matrix(1,0,0,1.0333333,0,-13.23808)"
       cx="560"
       cy="397.14285"
       fx="560"
       fy="397.14285"
       r="85.714287" />
    <radialGradient
       inkscape:collect="always"
       xlink:href="#linearGradient3754"
       id="radialGradient2992"
       gradientUnits="userSpaceOnUse"
       gradientTransform="matrix(1,0,0,1.0333333,0,-13.23808)"
       cx="560"
       cy="397.14285"
       fx="560"
       fy="397.14285"
       r="85.714287" />
  </defs>
  <sodipodi:namedview
     id="base"
     pagecolor="#00ebf4"
     bordercolor="#666666"
     borderopacity="1.0"
     inkscape:pageopacity="0"
     inkscape:pageshadow="2"
     inkscape:zoom="1.979899"
     inkscape:cx="762.86543"
     inkscape:cy="441.65995"
     inkscape:document-units="px"
     inkscape:current-layer="layer1"
     showgrid="false"
     units="px"
     inkscape:showpageshadow="false"
     inkscape:window-width="1332"
     inkscape:window-height="725"
     inkscape:window-x="2"
     inkscape:window-y="0"
     inkscape:window-maximized="0">
    <inkscape:grid
       type="xygrid"
       id="grid3015"
       empspacing="5"
       visible="true"
       enabled="true"
       snapvisiblegridlinesonly="true"
       spacingx="4.8px"
       spacingy="4.7px"
       originx="10.9px"
       originy="7.6px" />
  </sodipodi:namedview>
  <metadata
     id="metadata10882">
    <rdf:RDF>
      <cc:Work
         rdf:about="">
        <dc:format>image/svg+xml</dc:format>
        <dc:type
           rdf:resource="http://purl.org/dc/dcmitype/StillImage" />
        <dc:title></dc:title>
      </cc:Work>
    </rdf:RDF>
  </metadata>
  <g
     inkscape:label="Ebene 1"
     inkscape:groupmode="layer"
     id="layer1"
     transform="translate(0,-152.3647)">
    <rect
       style="fill:#000000;fill-rule:evenodd;stroke:#000000;stroke-width:0.99999988px;stroke-linecap:butt;stroke-linejoin:miter;stroke-opacity:1"
       id="rect11736"
       width="1599.1575"
       height="899"
       x="-1599.5787"
       y="-1051.8646"
       transform="scale(-1,-1)" />
    <g
       transform="matrix(0.31582645,0,0,0.31582645,757.53575,303.4047)"
       id="layer1-3"
       inkscape:label="Ebene 1">
      <rect
         y="979.76221"
         x="0"
         height="72.599998"
         width="72.599998"
         id="rect3850-41"
         style="fill:#000000;fill-rule:evenodd;stroke:none" />
      <text
         sodipodi:linespacing="125%"
         id="text3019-9"
         y="1045.6764"
         x="6.2462883"
         style="font-size:100px;font-style:normal;font-variant:normal;font-weight:bold;font-stretch:normal;text-align:start;line-height:125%;letter-spacing:0px;word-spacing:0px;writing-mode:lr-tb;text-anchor:start;fill:#ff0000;fill-opacity:1;stroke:none;font-family:Courier New;-inkscape-font-specification:Courier New Bold"
         xml:space="preserve"><tspan
           y="1045.6764"
           x="6.2462883"
           id="tspan3021-2"
           sodipodi:role="line"
           style="fill:#ff3c46;fill-opacity:1">O</tspan></text>
    </g>
    <g
       transform="matrix(0.31582645,0,0,0.31582645,757.53575,348.4047)"
       id="layer1-9"
       inkscape:label="Ebene 1">
      <rect
         y="979.76221"
         x="0"
         height="72.599998"
         width="72.599998"
         id="rect3850-0"
         style="fill:#000000;fill-rule:evenodd;stroke:none" />
      <text
         sodipodi:linespacing="125%"
         id="text3019-6"
         y="1045.6764"
         x="6.2462883"
         style="font-size:100px;font-style:normal;font-variant:normal;font-weight:bold;font-stretch:normal;text-align:start;line-height:125%;letter-spacing:0px;word-spacing:0px;writing-mode:lr-tb;text-anchor:start;fill:#ff0000;fill-opacity:1;stroke:none;font-family:Courier New;-inkscape-font-specification:Courier New Bold"
         xml:space="preserve"><tspan
           y="1045.6764"
           x="6.2462883"
           id="tspan3021-46"
           sodipodi:role="line"
           style="fill:#ff3c46;fill-opacity:1">O</tspan></text>
    </g>
    <g
       transform="matrix(0.31582645,0,0,0.31582645,819.53575,303.4047)"
       id="layer1-29"
       inkscape:label="Ebene 1"
       inkscape:transform-center-x="87.69264">
      <rect
         y="979.76221"
         x="0"
         height="72.599998"
         width="72.599998"
         id="rect3850-72"
         style="fill:#000000;fill-rule:evenodd;stroke:none" />
      <text
         sodipodi:linespacing="125%"
         id="text3019-60"
         y="1045.6764"
         x="6.2462883"
         style="font-size:100px;font-style:normal;font-variant:normal;font-weight:bold;font-stretch:normal;text-align:start;line-height:125%;letter-spacing:0px;word-spacing:0px;writing-mode:lr-tb;text-anchor:start;fill:#ff0000;fill-opacity:1;stroke:none;font-family:Courier New;-inkscape-font-specification:Courier New Bold"
         xml:space="preserve"><tspan
           y="1045.6764"
           x="6.2462883"
           id="tspan3021-60"
           sodipodi:role="line"
           style="fill:#ff3c46;fill-opacity:1">O</tspan></text>
    </g>
    <g
       transform="matrix(0.31582645,0,0,0.31582645,819.53575,348.4047)"
       id="layer1-48"
       inkscape:label="Ebene 1">
      <rect
         y="979.76221"
         x="0"
         height="72.599998"
         width="72.599998"
         id="rect3850-03"
         style="fill:#000000;fill-rule:evenodd;stroke:none" />
      <text
         sodipodi:linespacing="125%"
         id="text3019-4"
         y="1045.6764"
         x="6.2462883"
         style="font-size:100px;font-style:normal;font-variant:normal;font-weight:bold;font-stretch:normal;text-align:start;line-height:125%;letter-spacing:0px;word-spacing:0px;writing-mode:lr-tb;text-anchor:start;fill:#ff0000;fill-opacity:1;stroke:none;font-family:Courier New;-inkscape-font-specification:Courier New Bold"
         xml:space="preserve"><tspan
           y="1045.6764"
           x="6.2462883"
           id="tspan3021-0"
           sodipodi:role="line"
           style="fill:#ff3c46;fill-opacity:1">O</tspan></text>
    </g>
    <g
       transform="matrix(0.31582645,0,0,0.31582645,757.536,258.40488)"
       id="layer1-8"
       inkscape:label="Ebene 1">
      <rect
         y="979.76221"
         x="0"
         height="72.599998"
         width="72.599998"
         id="rect3850"
         style="fill:#000000;fill-rule:evenodd;stroke:none" />
      <text
         sodipodi:linespacing="125%"
         id="text3019"
         y="1045.6764"
         x="6.2462883"
         style="font-size:100px;font-style:normal;font-variant:normal;font-weight:bold;font-stretch:normal;text-align:start;line-height:125%;letter-spacing:0px;word-spacing:0px;writing-mode:lr-tb;text-anchor:start;fill:#ff3c46;fill-opacity:1;stroke:none;font-family:Courier New;-inkscape-font-specification:Courier New Bold"
         xml:space="preserve"><tspan
           y="1045.6764"
           x="6.2462883"
           id="tspan3021"
           sodipodi:role="line">O</tspan></text>
    </g>
    <g
       transform="matrix(0.31582645,0,0,0.31582645,819.536,258.40488)"
       id="layer1-5"
       inkscape:label="Ebene 1">
      <rect
         y="979.76221"
         x="0"
         height="72.599998"
         width="72.599998"
         id="rect3850-8"
         style="fill:#000000;fill-rule:evenodd;stroke:none" />
      <text
         sodipodi:linespacing="125%"
         id="text3019-1"
         y="1045.6764"
         x="6.2462883"
         style="font-size:100px;font-style:normal;font-variant:normal;font-weight:bold;font-stretch:normal;text-align:start;line-height:125%;letter-spacing:0px;word-spacing:0px;writing-mode:lr-tb;text-anchor:start;fill:#ff3c46;fill-opacity:1;stroke:none;font-family:Courier New;-inkscape-font-specification:Courier New Bold"
         xml:space="preserve"><tspan
           y="1045.6764"
           x="6.2462883"
           id="tspan3021-9"
           sodipodi:role="line">O</tspan></text>
    </g>
    <g
       transform="matrix(0.31582645,0,0,0.31582645,753.63954,315.0537)"
       id="layer1-6"
       inkscape:label="Ebene 1">
      <text
         sodipodi:linespacing="125%"
         id="text3019-65"
         y="722.71454"
         x="212.97597"
         style="font-size:100px;font-style:normal;font-variant:normal;font-weight:bold;font-stretch:normal;text-align:start;line-height:125%;letter-spacing:0px;word-spacing:0px;writing-mode:lr-tb;text-anchor:start;fill:#ff3c46;fill-opacity:1;stroke:none;font-family:Courier New;-inkscape-font-specification:Courier New Bold"
         xml:space="preserve"><tspan
           y="722.71454"
           x="212.97597"
           id="tspan3021-3"
           sodipodi:role="line">O</tspan></text>
    </g>
    <g
       transform="matrix(0.31582645,0,0,0.31582645,757.536,213.40488)"
       id="layer1-1"
       inkscape:label="Ebene 1">
      <rect
         y="979.76221"
         x="0"
         height="72.599998"
         width="72.599998"
         id="rect3061"
         style="fill:#000000;fill-rule:evenodd;stroke:none" />
      <text
         sodipodi:linespacing="125%"
         id="text3007"
         y="1047.7272"
         x="6.2707024"
         style="font-size:100px;font-style:normal;font-variant:normal;font-weight:bold;font-stretch:normal;text-align:start;line-height:125%;letter-spacing:0px;word-spacing:0px;writing-mode:lr-tb;text-anchor:start;fill:#ff3c46;fill-opacity:1;stroke:none;font-family:Courier New;-inkscape-font-specification:Courier New Bold"
         xml:space="preserve"><tspan
           y="1047.7272"
           x="6.2707024"
           id="tspan3009"
           sodipodi:role="line">0</tspan></text>
    </g>
  </g>
</svg>
